%!PS-Adobe-3.0 EPSF-3.0 
%%BoundingBox: 0 0 454 255
%%Pages: 0
%%Creator: LibreOffice 4.2
%%Title: none
%%CreationDate: none
%%LanguageLevel: 2
%%EndComments
%%BeginProlog
%%BeginResource: procset SDRes-Prolog 1.0 0
/b4_inc_state save def
/dict_count countdictstack def
/op_count count 1 sub def
userdict begin
0 setgray 0 setlinecap 1 setlinewidth 0 setlinejoin 10 setmiterlimit[] 0 setdash newpath
/languagelevel where {pop languagelevel 1 ne {false setstrokeadjust false setoverprint} if} if
/bdef {bind def} bind def
/c {setrgbcolor} bdef
/l {neg lineto} bdef
/rl {neg rlineto} bdef
/lc {setlinecap} bdef
/lj {setlinejoin} bdef
/lw {setlinewidth} bdef
/ml {setmiterlimit} bdef
/ld {setdash} bdef
/m {neg moveto} bdef
/ct {6 2 roll neg 6 2 roll neg 6 2 roll neg curveto} bdef
/r {rotate} bdef
/t {neg translate} bdef
/s {scale} bdef
/sw {show} bdef
/gs {gsave} bdef
/gr {grestore} bdef
/f {findfont dup length dict begin
{1 index /FID ne {def} {pop pop} ifelse} forall /Encoding ISOLatin1Encoding def
currentdict end /NFont exch definefont pop /NFont findfont} bdef
/p {closepath} bdef
/sf {scalefont setfont} bdef
/ef {eofill}bdef
/pc {closepath stroke}bdef
/ps {stroke}bdef
/pum {matrix currentmatrix}bdef
/pom {setmatrix}bdef
/bs {/aString exch def /nXOfs exch def /nWidth exch def currentpoint nXOfs 0 rmoveto pum nWidth aString stringwidth pop div 1 scale aString show pom moveto} bdef
%%EndResource
%%EndProlog
%%BeginSetup
%%EndSetup
%%Page: 1 1
%%BeginPageSetup
%%EndPageSetup
pum
0.02837 0.02833 s 
0 -9000 t
/tm matrix currentmatrix def
tm setmatrix
-16623 -13251 t 
1 1 s 
1.000 1.000 1.000 c 24623 22250 m  16623 22250 l  16623 13251 l  32622 13251 l 
32622 22250 l  24623 22250 l  p ef
0 lw 1 lj 0.703 0.703 0.703 c 24050 20442 m  18681 20442 l  18681 15086 l 
29419 15086 l  29419 20442 l  24050 20442 l  pc
29419 20441 m  18681 20441 l  ps
29419 19548 m  18681 19548 l  ps
29419 18655 m  18681 18655 l  ps
29419 17762 m  18681 17762 l  ps
29419 16870 m  18681 16870 l  ps
29419 15977 m  18681 15977 l  ps
29419 15084 m  18681 15084 l  ps
18681 20591 m  18681 20441 l  ps
18681 20591 m  18681 20441 l  ps
19128 20591 m  19128 20441 l  ps
19128 20591 m  19128 20441 l  ps
19575 20591 m  19575 20441 l  ps
19575 20591 m  19575 20441 l  ps
20023 20591 m  20023 20441 l  ps
20023 20591 m  20023 20441 l  ps
20470 20591 m  20470 20441 l  ps
20470 20591 m  20470 20441 l  ps
20918 20591 m  20918 20441 l  ps
20918 20591 m  20918 20441 l  ps
21365 20591 m  21365 20441 l  ps
21365 20591 m  21365 20441 l  ps
21813 20591 m  21813 20441 l  ps
21813 20591 m  21813 20441 l  ps
22260 20591 m  22260 20441 l  ps
22260 20591 m  22260 20441 l  ps
22708 20591 m  22708 20441 l  ps
22708 20591 m  22708 20441 l  ps
23155 20591 m  23155 20441 l  ps
23155 20591 m  23155 20441 l  ps
23603 20591 m  23603 20441 l  ps
23603 20591 m  23603 20441 l  ps
24050 20591 m  24050 20441 l  ps
24050 20591 m  24050 20441 l  ps
24497 20591 m  24497 20441 l  ps
24497 20591 m  24497 20441 l  ps
24944 20591 m  24944 20441 l  ps
24944 20591 m  24944 20441 l  ps
25391 20591 m  25391 20441 l  ps
25391 20591 m  25391 20441 l  ps
25839 20591 m  25839 20441 l  ps
25839 20591 m  25839 20441 l  ps
26286 20591 m  26286 20441 l  ps
26286 20591 m  26286 20441 l  ps
26734 20591 m  26734 20441 l  ps
26734 20591 m  26734 20441 l  ps
27181 20591 m  27181 20441 l  ps
27181 20591 m  27181 20441 l  ps
27629 20591 m  27629 20441 l  ps
27629 20591 m  27629 20441 l  ps
28076 20591 m  28076 20441 l  ps
28076 20591 m  28076 20441 l  ps
28524 20591 m  28524 20441 l  ps
28524 20591 m  28524 20441 l  ps
28971 20591 m  28971 20441 l  ps
28971 20591 m  28971 20441 l  ps
29419 20591 m  29419 20441 l  ps
29419 20591 m  29419 20441 l  ps
18681 20441 m  29419 20441 l  ps
18531 20441 m  18681 20441 l  ps
18531 20441 m  18681 20441 l  ps
18531 19548 m  18681 19548 l  ps
18531 19548 m  18681 19548 l  ps
18531 18655 m  18681 18655 l  ps
18531 18655 m  18681 18655 l  ps
18531 17762 m  18681 17762 l  ps
18531 17762 m  18681 17762 l  ps
18531 16870 m  18681 16870 l  ps
18531 16870 m  18681 16870 l  ps
18531 15977 m  18681 15977 l  ps
18531 15977 m  18681 15977 l  ps
18531 15084 m  18681 15084 l  ps
18531 15084 m  18681 15084 l  ps
18681 20441 m  18681 15085 l  ps
79.995 lw 0.003 0.273 0.527 c 18681 20441 m  19128 20441 l  19575 20441 l 
20023 20441 l  20470 20441 l  20918 20441 l  21365 20441 l  21813 20441 l 
22260 20441 l  22708 20441 l  23155 20192 l  23603 20209 l  24050 19806 l 
24497 19034 l  24944 17019 l  25391 17606 l  25839 20441 l  26286 20395 l 
26734 20396 l  27181 20286 l  27629 19686 l  28076 19936 l  28524 19947 l 
28971 19317 l  29419 19350 l  ps
1.000 0.261 0.058 c 18681 20441 m  19128 20441 l  19575 20441 l  20023 20441 l 
20470 20441 l  20918 20441 l  21365 20441 l  21813 20441 l  22260 20441 l 
22708 20441 l  23155 20192 l  23603 20209 l  24050 19806 l  24497 19034 l 
24944 16039 l  25391 18198 l  25839 20441 l  26286 20395 l  26734 20396 l 
27181 20286 l  27629 19686 l  28076 19936 l  28524 20441 l  28971 19590 l 
29419 20108 l  ps
pum
18588 21009 t
0.003 0.003 0.003 c 132 0 m  100 0 l  100 -198 l  93 -190 83 -183 71 -176 ct 
59 -169 48 -164 38 -160 ct 38 -190 l  56 -198 71 -208 84 -220 ct 97 -231 106 -243 112 -253 ct 
132 -253 l  132 0 l  p ef
pom
pum
19035 21009 t
178 -30 m  178 0 l  11 0 l  10 -7 12 -15 14 -22 ct 19 -33 25 -44 35 -55 ct 44 -66 58 -79 75 -93 ct 
103 -116 121 -134 131 -147 ct 141 -160 145 -173 145 -184 ct 145 -197 141 -207 132 -215 ct 
124 -224 112 -228 98 -228 ct 83 -228 71 -224 62 -215 ct 53 -206 49 -193 48 -177 ct 
17 -181 l  19 -204 27 -222 41 -235 ct 55 -247 75 -254 99 -254 ct 123 -254 142 -247 156 -233 ct 
170 -220 177 -203 177 -184 ct 177 -173 175 -163 171 -154 ct 167 -144 160 -134 151 -123 ct 
141 -112 125 -97 103 -78 ct 84 -63 72 -52 67 -47 ct 62 -41 57 -35 54 -30 ct 178 -30 l 
p ef
pom
pum
19482 21009 t
15 -67 m  46 -71 l  49 -54 55 -41 64 -33 ct 73 -26 83 -22 95 -22 ct 110 -22 122 -27 132 -37 ct 
142 -47 147 -59 147 -74 ct 147 -89 143 -100 133 -110 ct 124 -119 112 -124 98 -124 ct 
92 -124 85 -122 76 -120 ct 79 -147 l  82 -147 83 -147 84 -147 ct 98 -147 110 -150 120 -157 ct 
131 -164 136 -175 136 -189 ct 136 -200 132 -210 124 -217 ct 117 -225 107 -229 95 -229 ct 
83 -229 73 -225 64 -217 ct 56 -210 51 -198 49 -183 ct 18 -189 l  22 -209 30 -225 44 -237 ct 
57 -248 74 -254 94 -254 ct 108 -254 120 -251 132 -245 ct 144 -239 153 -231 159 -221 ct 
165 -211 168 -200 168 -188 ct 168 -178 165 -168 159 -159 ct 153 -150 145 -143 133 -137 ct 
148 -134 160 -127 168 -116 ct 176 -105 180 -91 180 -75 ct 180 -53 172 -34 156 -19 ct 
140 -4 120 4 95 4 ct 73 4 55 -3 40 -16 ct 25 -29 17 -46 15 -67 ct p ef
pom
pum
19930 21009 t
114 0 m  114 -61 l  4 -61 l  4 -89 l  120 -252 l  145 -252 l  145 -89 l 
179 -89 l  179 -61 l  145 -61 l  145 0 l  114 0 l  p
114 -89 m  114 -203 l  35 -89 l  114 -89 l  p ef
pom
pum
20377 21009 t
15 -66 m  47 -69 l  50 -53 55 -41 64 -33 ct 73 -25 83 -21 96 -21 ct 111 -21 123 -27 134 -38 ct 
144 -50 149 -64 149 -83 ct 149 -101 144 -115 134 -125 ct 124 -135 111 -140 95 -140 ct 
85 -140 76 -138 68 -133 ct 60 -129 54 -123 49 -116 ct 20 -119 l  45 -249 l  170 -249 l 
170 -219 l  69 -219 l  56 -152 l  71 -162 87 -167 104 -167 ct 126 -167 144 -160 159 -145 ct 
175 -129 182 -110 182 -86 ct 182 -63 176 -43 162 -27 ct 146 -6 124 4 96 4 ct 73 4 54 -2 40 -15 ct 
25 -28 17 -45 15 -66 ct p ef
pom
pum
20825 21009 t
176 -191 m  145 -189 l  142 -201 138 -210 133 -215 ct 125 -224 114 -229 102 -229 ct 
92 -229 83 -226 76 -220 ct 66 -213 59 -203 53 -189 ct 47 -175 44 -156 44 -130 ct 
52 -142 61 -150 72 -156 ct 82 -161 94 -164 105 -164 ct 126 -164 144 -156 158 -141 ct 
173 -126 180 -106 180 -82 ct 180 -66 177 -52 170 -38 ct 163 -24 154 -14 142 -7 ct 
130 0 116 4 101 4 ct 75 4 54 -6 38 -25 ct 21 -44 13 -75 13 -119 ct 13 -167 22 -203 40 -225 ct 
56 -244 77 -254 104 -254 ct 124 -254 140 -248 153 -237 ct 166 -226 173 -211 176 -191 ct 
p
49 -82 m  49 -71 51 -61 56 -51 ct 60 -42 67 -34 75 -29 ct 83 -24 92 -21 100 -21 ct 
114 -21 125 -27 134 -37 ct 144 -48 148 -62 148 -80 ct 148 -98 144 -112 134 -122 ct 
125 -132 113 -137 99 -137 ct 85 -137 73 -132 64 -122 ct 54 -112 49 -98 49 -82 ct 
p ef
pom
pum
21272 21009 t
17 -219 m  17 -249 l  180 -249 l  180 -225 l  164 -208 148 -185 132 -156 ct 
117 -128 104 -99 96 -69 ct 90 -48 86 -25 84 1 ct 52 1 l  52 -19 56 -43 64 -72 ct 
71 -100 82 -127 96 -153 ct 110 -179 125 -201 140 -219 ct 17 -219 l  p ef
pom
pum
21720 21009 t
62 -137 m  50 -142 40 -149 34 -157 ct 28 -166 24 -177 24 -189 ct 24 -207 31 -223 44 -235 ct 
58 -248 75 -254 97 -254 ct 119 -254 137 -248 150 -235 ct 164 -222 170 -206 170 -188 ct 
170 -176 167 -166 161 -157 ct 155 -149 146 -142 133 -137 ct 149 -132 161 -124 169 -113 ct 
177 -101 181 -88 181 -72 ct 181 -51 173 -33 158 -18 ct 143 -3 122 4 98 4 ct 73 4 53 -3 37 -18 ct 
22 -33 14 -51 14 -73 ct 14 -90 18 -103 27 -114 ct 35 -126 47 -133 62 -137 ct p
56 -190 m  56 -178 60 -168 68 -160 ct 75 -153 85 -149 98 -149 ct 110 -149 119 -153 127 -160 ct 
135 -168 139 -177 139 -188 ct 139 -199 135 -209 127 -217 ct 119 -225 109 -229 97 -229 ct 
86 -229 76 -225 68 -217 ct 60 -210 56 -200 56 -190 ct p
46 -73 m  46 -64 48 -56 52 -47 ct 57 -39 63 -33 71 -28 ct 79 -24 88 -21 98 -21 ct 
113 -21 125 -26 135 -36 ct 144 -45 149 -57 149 -72 ct 149 -87 144 -99 134 -109 ct 
124 -119 112 -124 97 -124 ct 82 -124 70 -119 61 -109 ct 51 -100 46 -88 46 -73 ct 
p ef
pom
pum
22167 21009 t
19 -59 m  49 -62 l  52 -47 56 -37 64 -31 ct 71 -25 80 -21 91 -21 ct 101 -21 109 -24 116 -28 ct 
123 -32 129 -38 134 -46 ct 138 -53 142 -63 145 -75 ct 148 -88 150 -100 150 -113 ct 
150 -114 150 -116 150 -119 ct 144 -109 135 -101 124 -95 ct 114 -89 102 -86 89 -86 ct 
69 -86 51 -94 36 -109 ct 22 -124 15 -144 15 -169 ct 15 -194 22 -215 37 -230 ct 
52 -246 71 -254 94 -254 ct 111 -254 126 -249 139 -240 ct 153 -232 163 -219 170 -203 ct 
177 -186 181 -163 181 -132 ct 181 -99 177 -74 170 -55 ct 163 -36 153 -21 139 -11 ct 
125 -1 109 4 90 4 ct 71 4 54 -1 42 -12 ct 29 -23 22 -39 19 -59 ct p
146 -170 m  146 -188 142 -202 132 -212 ct 123 -223 111 -228 98 -228 ct 84 -228 72 -222 62 -211 ct 
52 -200 47 -185 47 -168 ct 47 -151 51 -138 61 -128 ct 71 -118 83 -113 97 -113 ct 
111 -113 123 -118 132 -128 ct 142 -138 146 -152 146 -170 ct p ef
pom
pum
22523 21009 t
132 0 m  100 0 l  100 -198 l  93 -190 83 -183 71 -176 ct 59 -169 48 -164 38 -160 ct 
38 -190 l  56 -198 71 -208 84 -220 ct 97 -231 106 -243 112 -253 ct 132 -253 l 
132 0 l  p ef
200 -125 m  200 -155 203 -179 209 -197 ct 215 -215 224 -229 236 -239 ct 248 -249 264 -254 282 -254 ct 
296 -254 307 -251 318 -245 ct 328 -240 336 -232 343 -222 ct 350 -212 355 -199 359 -184 ct 
363 -170 364 -150 364 -125 ct 364 -95 361 -71 355 -53 ct 349 -35 340 -21 328 -11 ct 
316 -1 301 4 282 4 ct 258 4 239 -5 225 -22 ct 208 -43 200 -77 200 -125 ct p
232 -125 m  232 -83 236 -56 246 -42 ct 256 -28 268 -21 282 -21 ct 296 -21 308 -28 318 -42 ct 
328 -56 333 -83 333 -125 ct 333 -166 328 -194 318 -208 ct 308 -221 296 -228 282 -228 ct 
267 -228 256 -222 248 -210 ct 237 -195 232 -166 232 -125 ct p ef
pom
pum
22983 21009 t
132 0 m  100 0 l  100 -198 l  93 -190 83 -183 71 -176 ct 59 -169 48 -164 38 -160 ct 
38 -190 l  56 -198 71 -208 84 -220 ct 97 -231 106 -243 112 -253 ct 132 -253 l 
132 0 l  p ef
291 0 m  259 0 l  259 -198 l  252 -190 242 -183 230 -176 ct 218 -169 207 -164 197 -160 ct 
197 -190 l  215 -198 230 -208 243 -220 ct 256 -231 265 -243 271 -253 ct 291 -253 l 
291 0 l  p ef
pom
pum
23418 21009 t
132 0 m  100 0 l  100 -198 l  93 -190 83 -183 71 -176 ct 59 -169 48 -164 38 -160 ct 
38 -190 l  56 -198 71 -208 84 -220 ct 97 -231 106 -243 112 -253 ct 132 -253 l 
132 0 l  p ef
363 -30 m  363 0 l  196 0 l  195 -7 197 -15 199 -22 ct 204 -33 210 -44 220 -55 ct 
229 -66 243 -79 260 -93 ct 288 -116 306 -134 316 -147 ct 326 -160 330 -173 330 -184 ct 
330 -197 326 -207 317 -215 ct 309 -224 297 -228 283 -228 ct 268 -228 256 -224 247 -215 ct 
238 -206 234 -193 233 -177 ct 202 -181 l  204 -204 212 -222 226 -235 ct 240 -247 260 -254 284 -254 ct 
308 -254 327 -247 341 -233 ct 355 -220 362 -203 362 -184 ct 362 -173 360 -163 356 -154 ct 
352 -144 345 -134 336 -123 ct 326 -112 310 -97 288 -78 ct 269 -63 257 -52 252 -47 ct 
247 -41 242 -35 239 -30 ct 363 -30 l  p ef
pom
pum
23865 21009 t
132 0 m  100 0 l  100 -198 l  93 -190 83 -183 71 -176 ct 59 -169 48 -164 38 -160 ct 
38 -190 l  56 -198 71 -208 84 -220 ct 97 -231 106 -243 112 -253 ct 132 -253 l 
132 0 l  p ef
200 -67 m  231 -71 l  234 -54 240 -41 249 -33 ct 258 -26 268 -22 280 -22 ct 
295 -22 307 -27 317 -37 ct 327 -47 332 -59 332 -74 ct 332 -89 328 -100 318 -110 ct 
309 -119 297 -124 283 -124 ct 277 -124 270 -122 261 -120 ct 264 -147 l  267 -147 268 -147 269 -147 ct 
283 -147 295 -150 305 -157 ct 316 -164 321 -175 321 -189 ct 321 -200 317 -210 309 -217 ct 
302 -225 292 -229 280 -229 ct 268 -229 258 -225 249 -217 ct 241 -210 236 -198 234 -183 ct 
203 -189 l  207 -209 215 -225 229 -237 ct 242 -248 259 -254 279 -254 ct 293 -254 305 -251 317 -245 ct 
329 -239 338 -231 344 -221 ct 350 -211 353 -200 353 -188 ct 353 -178 350 -168 344 -159 ct 
338 -150 330 -143 318 -137 ct 333 -134 345 -127 353 -116 ct 361 -105 365 -91 365 -75 ct 
365 -53 357 -34 341 -19 ct 325 -4 305 4 280 4 ct 258 4 240 -3 225 -16 ct 210 -29 202 -46 200 -67 ct 
p ef
pom
pum
24312 21009 t
132 0 m  100 0 l  100 -198 l  93 -190 83 -183 71 -176 ct 59 -169 48 -164 38 -160 ct 
38 -190 l  56 -198 71 -208 84 -220 ct 97 -231 106 -243 112 -253 ct 132 -253 l 
132 0 l  p ef
299 0 m  299 -61 l  189 -61 l  189 -89 l  305 -252 l  330 -252 l  330 -89 l 
364 -89 l  364 -61 l  330 -61 l  330 0 l  299 0 l  p
299 -89 m  299 -203 l  220 -89 l  299 -89 l  p ef
pom
pum
24760 21009 t
132 0 m  100 0 l  100 -198 l  93 -190 83 -183 71 -176 ct 59 -169 48 -164 38 -160 ct 
38 -190 l  56 -198 71 -208 84 -220 ct 97 -231 106 -243 112 -253 ct 132 -253 l 
132 0 l  p ef
200 -66 m  232 -69 l  235 -53 240 -41 249 -33 ct 258 -25 268 -21 281 -21 ct 
296 -21 308 -27 319 -38 ct 329 -50 334 -64 334 -83 ct 334 -101 329 -115 319 -125 ct 
309 -135 296 -140 280 -140 ct 270 -140 261 -138 253 -133 ct 245 -129 239 -123 234 -116 ct 
205 -119 l  230 -249 l  355 -249 l  355 -219 l  254 -219 l  241 -152 l 
256 -162 272 -167 289 -167 ct 311 -167 329 -160 344 -145 ct 360 -129 367 -110 367 -86 ct 
367 -63 361 -43 347 -27 ct 331 -6 309 4 281 4 ct 258 4 239 -2 225 -15 ct 210 -28 202 -45 200 -66 ct 
p ef
pom
pum
25207 21009 t
132 0 m  100 0 l  100 -198 l  93 -190 83 -183 71 -176 ct 59 -169 48 -164 38 -160 ct 
38 -190 l  56 -198 71 -208 84 -220 ct 97 -231 106 -243 112 -253 ct 132 -253 l 
132 0 l  p ef
361 -191 m  330 -189 l  327 -201 323 -210 318 -215 ct 310 -224 299 -229 287 -229 ct 
277 -229 268 -226 261 -220 ct 251 -213 244 -203 238 -189 ct 232 -175 229 -156 229 -130 ct 
237 -142 246 -150 257 -156 ct 267 -161 279 -164 290 -164 ct 311 -164 329 -156 343 -141 ct 
358 -126 365 -106 365 -82 ct 365 -66 362 -52 355 -38 ct 348 -24 339 -14 327 -7 ct 
315 0 301 4 286 4 ct 260 4 239 -6 223 -25 ct 206 -44 198 -75 198 -119 ct 198 -167 207 -203 225 -225 ct 
241 -244 262 -254 289 -254 ct 309 -254 325 -248 338 -237 ct 351 -226 358 -211 361 -191 ct 
p
234 -82 m  234 -71 236 -61 241 -51 ct 245 -42 252 -34 260 -29 ct 268 -24 277 -21 285 -21 ct 
299 -21 310 -27 319 -37 ct 329 -48 333 -62 333 -80 ct 333 -98 329 -112 319 -122 ct 
310 -132 298 -137 284 -137 ct 270 -137 258 -132 249 -122 ct 239 -112 234 -98 234 -82 ct 
p ef
pom
pum
25655 21009 t
132 0 m  100 0 l  100 -198 l  93 -190 83 -183 71 -176 ct 59 -169 48 -164 38 -160 ct 
38 -190 l  56 -198 71 -208 84 -220 ct 97 -231 106 -243 112 -253 ct 132 -253 l 
132 0 l  p ef
202 -219 m  202 -249 l  365 -249 l  365 -225 l  349 -208 333 -185 317 -156 ct 
302 -128 289 -99 281 -69 ct 275 -48 271 -25 269 1 ct 237 1 l  237 -19 241 -43 249 -72 ct 
256 -100 267 -127 281 -153 ct 295 -179 310 -201 325 -219 ct 202 -219 l  p ef
pom
pum
26102 21009 t
132 0 m  100 0 l  100 -198 l  93 -190 83 -183 71 -176 ct 59 -169 48 -164 38 -160 ct 
38 -190 l  56 -198 71 -208 84 -220 ct 97 -231 106 -243 112 -253 ct 132 -253 l 
132 0 l  p ef
247 -137 m  235 -142 225 -149 219 -157 ct 213 -166 209 -177 209 -189 ct 209 -207 216 -223 229 -235 ct 
243 -248 260 -254 282 -254 ct 304 -254 322 -248 335 -235 ct 349 -222 355 -206 355 -188 ct 
355 -176 352 -166 346 -157 ct 340 -149 331 -142 318 -137 ct 334 -132 346 -124 354 -113 ct 
362 -101 366 -88 366 -72 ct 366 -51 358 -33 343 -18 ct 328 -3 307 4 283 4 ct 258 4 238 -3 222 -18 ct 
207 -33 199 -51 199 -73 ct 199 -90 203 -103 212 -114 ct 220 -126 232 -133 247 -137 ct 
p
241 -190 m  241 -178 245 -168 253 -160 ct 260 -153 270 -149 283 -149 ct 295 -149 304 -153 312 -160 ct 
320 -168 324 -177 324 -188 ct 324 -199 320 -209 312 -217 ct 304 -225 294 -229 282 -229 ct 
271 -229 261 -225 253 -217 ct 245 -210 241 -200 241 -190 ct p
231 -73 m  231 -64 233 -56 237 -47 ct 242 -39 248 -33 256 -28 ct 264 -24 273 -21 283 -21 ct 
298 -21 310 -26 320 -36 ct 329 -45 334 -57 334 -72 ct 334 -87 329 -99 319 -109 ct 
309 -119 297 -124 282 -124 ct 267 -124 255 -119 246 -109 ct 236 -100 231 -88 231 -73 ct 
p ef
pom
pum
26550 21009 t
132 0 m  100 0 l  100 -198 l  93 -190 83 -183 71 -176 ct 59 -169 48 -164 38 -160 ct 
38 -190 l  56 -198 71 -208 84 -220 ct 97 -231 106 -243 112 -253 ct 132 -253 l 
132 0 l  p ef
204 -59 m  234 -62 l  237 -47 241 -37 249 -31 ct 256 -25 265 -21 276 -21 ct 
286 -21 294 -24 301 -28 ct 308 -32 314 -38 319 -46 ct 323 -53 327 -63 330 -75 ct 
333 -88 335 -100 335 -113 ct 335 -114 335 -116 335 -119 ct 329 -109 320 -101 309 -95 ct 
299 -89 287 -86 274 -86 ct 254 -86 236 -94 221 -109 ct 207 -124 200 -144 200 -169 ct 
200 -194 207 -215 222 -230 ct 237 -246 256 -254 279 -254 ct 296 -254 311 -249 324 -240 ct 
338 -232 348 -219 355 -203 ct 362 -186 366 -163 366 -132 ct 366 -99 362 -74 355 -55 ct 
348 -36 338 -21 324 -11 ct 310 -1 294 4 275 4 ct 256 4 239 -1 227 -12 ct 214 -23 207 -39 204 -59 ct 
p
331 -170 m  331 -188 327 -202 317 -212 ct 308 -223 296 -228 283 -228 ct 269 -228 257 -222 247 -211 ct 
237 -200 232 -185 232 -168 ct 232 -151 236 -138 246 -128 ct 256 -118 268 -113 282 -113 ct 
296 -113 308 -118 317 -128 ct 327 -138 331 -152 331 -170 ct p ef
pom
pum
26997 21009 t
178 -30 m  178 0 l  11 0 l  10 -7 12 -15 14 -22 ct 19 -33 25 -44 35 -55 ct 44 -66 58 -79 75 -93 ct 
103 -116 121 -134 131 -147 ct 141 -160 145 -173 145 -184 ct 145 -197 141 -207 132 -215 ct 
124 -224 112 -228 98 -228 ct 83 -228 71 -224 62 -215 ct 53 -206 49 -193 48 -177 ct 
17 -181 l  19 -204 27 -222 41 -235 ct 55 -247 75 -254 99 -254 ct 123 -254 142 -247 156 -233 ct 
170 -220 177 -203 177 -184 ct 177 -173 175 -163 171 -154 ct 167 -144 160 -134 151 -123 ct 
141 -112 125 -97 103 -78 ct 84 -63 72 -52 67 -47 ct 62 -41 57 -35 54 -30 ct 178 -30 l 
p ef
200 -125 m  200 -155 203 -179 209 -197 ct 215 -215 224 -229 236 -239 ct 248 -249 264 -254 282 -254 ct 
296 -254 307 -251 318 -245 ct 328 -240 336 -232 343 -222 ct 350 -212 355 -199 359 -184 ct 
363 -170 364 -150 364 -125 ct 364 -95 361 -71 355 -53 ct 349 -35 340 -21 328 -11 ct 
316 -1 301 4 282 4 ct 258 4 239 -5 225 -22 ct 208 -43 200 -77 200 -125 ct p
232 -125 m  232 -83 236 -56 246 -42 ct 256 -28 268 -21 282 -21 ct 296 -21 308 -28 318 -42 ct 
328 -56 333 -83 333 -125 ct 333 -166 328 -194 318 -208 ct 308 -221 296 -228 282 -228 ct 
267 -228 256 -222 248 -210 ct 237 -195 232 -166 232 -125 ct p ef
pom
pum
27445 21009 t
178 -30 m  178 0 l  11 0 l  10 -7 12 -15 14 -22 ct 19 -33 25 -44 35 -55 ct 44 -66 58 -79 75 -93 ct 
103 -116 121 -134 131 -147 ct 141 -160 145 -173 145 -184 ct 145 -197 141 -207 132 -215 ct 
124 -224 112 -228 98 -228 ct 83 -228 71 -224 62 -215 ct 53 -206 49 -193 48 -177 ct 
17 -181 l  19 -204 27 -222 41 -235 ct 55 -247 75 -254 99 -254 ct 123 -254 142 -247 156 -233 ct 
170 -220 177 -203 177 -184 ct 177 -173 175 -163 171 -154 ct 167 -144 160 -134 151 -123 ct 
141 -112 125 -97 103 -78 ct 84 -63 72 -52 67 -47 ct 62 -41 57 -35 54 -30 ct 178 -30 l 
p ef
317 0 m  285 0 l  285 -198 l  278 -190 268 -183 256 -176 ct 244 -169 233 -164 223 -160 ct 
223 -190 l  241 -198 256 -208 269 -220 ct 282 -231 291 -243 297 -253 ct 317 -253 l 
317 0 l  p ef
pom
pum
27892 21009 t
178 -30 m  178 0 l  11 0 l  10 -7 12 -15 14 -22 ct 19 -33 25 -44 35 -55 ct 44 -66 58 -79 75 -93 ct 
103 -116 121 -134 131 -147 ct 141 -160 145 -173 145 -184 ct 145 -197 141 -207 132 -215 ct 
124 -224 112 -228 98 -228 ct 83 -228 71 -224 62 -215 ct 53 -206 49 -193 48 -177 ct 
17 -181 l  19 -204 27 -222 41 -235 ct 55 -247 75 -254 99 -254 ct 123 -254 142 -247 156 -233 ct 
170 -220 177 -203 177 -184 ct 177 -173 175 -163 171 -154 ct 167 -144 160 -134 151 -123 ct 
141 -112 125 -97 103 -78 ct 84 -63 72 -52 67 -47 ct 62 -41 57 -35 54 -30 ct 178 -30 l 
p ef
363 -30 m  363 0 l  196 0 l  195 -7 197 -15 199 -22 ct 204 -33 210 -44 220 -55 ct 
229 -66 243 -79 260 -93 ct 288 -116 306 -134 316 -147 ct 326 -160 330 -173 330 -184 ct 
330 -197 326 -207 317 -215 ct 309 -224 297 -228 283 -228 ct 268 -228 256 -224 247 -215 ct 
238 -206 234 -193 233 -177 ct 202 -181 l  204 -204 212 -222 226 -235 ct 240 -247 260 -254 284 -254 ct 
308 -254 327 -247 341 -233 ct 355 -220 362 -203 362 -184 ct 362 -173 360 -163 356 -154 ct 
352 -144 345 -134 336 -123 ct 326 -112 310 -97 288 -78 ct 269 -63 257 -52 252 -47 ct 
247 -41 242 -35 239 -30 ct 363 -30 l  p ef
pom
pum
28340 21009 t
178 -30 m  178 0 l  11 0 l  10 -7 12 -15 14 -22 ct 19 -33 25 -44 35 -55 ct 44 -66 58 -79 75 -93 ct 
103 -116 121 -134 131 -147 ct 141 -160 145 -173 145 -184 ct 145 -197 141 -207 132 -215 ct 
124 -224 112 -228 98 -228 ct 83 -228 71 -224 62 -215 ct 53 -206 49 -193 48 -177 ct 
17 -181 l  19 -204 27 -222 41 -235 ct 55 -247 75 -254 99 -254 ct 123 -254 142 -247 156 -233 ct 
170 -220 177 -203 177 -184 ct 177 -173 175 -163 171 -154 ct 167 -144 160 -134 151 -123 ct 
141 -112 125 -97 103 -78 ct 84 -63 72 -52 67 -47 ct 62 -41 57 -35 54 -30 ct 178 -30 l 
p ef
200 -67 m  231 -71 l  234 -54 240 -41 249 -33 ct 258 -26 268 -22 280 -22 ct 
295 -22 307 -27 317 -37 ct 327 -47 332 -59 332 -74 ct 332 -89 328 -100 318 -110 ct 
309 -119 297 -124 283 -124 ct 277 -124 270 -122 261 -120 ct 264 -147 l  267 -147 268 -147 269 -147 ct 
283 -147 295 -150 305 -157 ct 316 -164 321 -175 321 -189 ct 321 -200 317 -210 309 -217 ct 
302 -225 292 -229 280 -229 ct 268 -229 258 -225 249 -217 ct 241 -210 236 -198 234 -183 ct 
203 -189 l  207 -209 215 -225 229 -237 ct 242 -248 259 -254 279 -254 ct 293 -254 305 -251 317 -245 ct 
329 -239 338 -231 344 -221 ct 350 -211 353 -200 353 -188 ct 353 -178 350 -168 344 -159 ct 
338 -150 330 -143 318 -137 ct 333 -134 345 -127 353 -116 ct 361 -105 365 -91 365 -75 ct 
365 -53 357 -34 341 -19 ct 325 -4 305 4 280 4 ct 258 4 240 -3 225 -16 ct 210 -29 202 -46 200 -67 ct 
p ef
pom
pum
28787 21009 t
178 -30 m  178 0 l  11 0 l  10 -7 12 -15 14 -22 ct 19 -33 25 -44 35 -55 ct 44 -66 58 -79 75 -93 ct 
103 -116 121 -134 131 -147 ct 141 -160 145 -173 145 -184 ct 145 -197 141 -207 132 -215 ct 
124 -224 112 -228 98 -228 ct 83 -228 71 -224 62 -215 ct 53 -206 49 -193 48 -177 ct 
17 -181 l  19 -204 27 -222 41 -235 ct 55 -247 75 -254 99 -254 ct 123 -254 142 -247 156 -233 ct 
170 -220 177 -203 177 -184 ct 177 -173 175 -163 171 -154 ct 167 -144 160 -134 151 -123 ct 
141 -112 125 -97 103 -78 ct 84 -63 72 -52 67 -47 ct 62 -41 57 -35 54 -30 ct 178 -30 l 
p ef
299 0 m  299 -61 l  189 -61 l  189 -89 l  305 -252 l  330 -252 l  330 -89 l 
364 -89 l  364 -61 l  330 -61 l  330 0 l  299 0 l  p
299 -89 m  299 -203 l  220 -89 l  299 -89 l  p ef
pom
pum
29235 21009 t
178 -30 m  178 0 l  11 0 l  10 -7 12 -15 14 -22 ct 19 -33 25 -44 35 -55 ct 44 -66 58 -79 75 -93 ct 
103 -116 121 -134 131 -147 ct 141 -160 145 -173 145 -184 ct 145 -197 141 -207 132 -215 ct 
124 -224 112 -228 98 -228 ct 83 -228 71 -224 62 -215 ct 53 -206 49 -193 48 -177 ct 
17 -181 l  19 -204 27 -222 41 -235 ct 55 -247 75 -254 99 -254 ct 123 -254 142 -247 156 -233 ct 
170 -220 177 -203 177 -184 ct 177 -173 175 -163 171 -154 ct 167 -144 160 -134 151 -123 ct 
141 -112 125 -97 103 -78 ct 84 -63 72 -52 67 -47 ct 62 -41 57 -35 54 -30 ct 178 -30 l 
p ef
200 -66 m  232 -69 l  235 -53 240 -41 249 -33 ct 258 -25 268 -21 281 -21 ct 
296 -21 308 -27 319 -38 ct 329 -50 334 -64 334 -83 ct 334 -101 329 -115 319 -125 ct 
309 -135 296 -140 280 -140 ct 270 -140 261 -138 253 -133 ct 245 -129 239 -123 234 -116 ct 
205 -119 l  230 -249 l  355 -249 l  355 -219 l  254 -219 l  241 -152 l 
256 -162 272 -167 289 -167 ct 311 -167 329 -160 344 -145 ct 360 -129 367 -110 367 -86 ct 
367 -63 361 -43 347 -27 ct 331 -6 309 4 281 4 ct 258 4 239 -2 225 -15 ct 210 -28 202 -45 200 -66 ct 
p ef
pom
pum
18246 20562 t
15 -125 m  15 -155 18 -179 24 -197 ct 30 -215 39 -229 51 -239 ct 63 -249 79 -254 97 -254 ct 
111 -254 122 -251 133 -245 ct 143 -240 151 -232 158 -222 ct 165 -212 170 -199 174 -184 ct 
178 -170 179 -150 179 -125 ct 179 -95 176 -71 170 -53 ct 164 -35 155 -21 143 -11 ct 
131 -1 116 4 97 4 ct 73 4 54 -5 40 -22 ct 23 -43 15 -77 15 -125 ct p
47 -125 m  47 -83 51 -56 61 -42 ct 71 -28 83 -21 97 -21 ct 111 -21 123 -28 133 -42 ct 
143 -56 148 -83 148 -125 ct 148 -166 143 -194 133 -208 ct 123 -221 111 -228 97 -228 ct 
82 -228 71 -222 63 -210 ct 52 -195 47 -166 47 -125 ct p ef
pom
pum
17955 19669 t
15 -125 m  15 -155 18 -179 24 -197 ct 30 -215 39 -229 51 -239 ct 63 -249 79 -254 97 -254 ct 
111 -254 122 -251 133 -245 ct 143 -240 151 -232 158 -222 ct 165 -212 170 -199 174 -184 ct 
178 -170 179 -150 179 -125 ct 179 -95 176 -71 170 -53 ct 164 -35 155 -21 143 -11 ct 
131 -1 116 4 97 4 ct 73 4 54 -5 40 -22 ct 23 -43 15 -77 15 -125 ct p
47 -125 m  47 -83 51 -56 61 -42 ct 71 -28 83 -21 97 -21 ct 111 -21 123 -28 133 -42 ct 
143 -56 148 -83 148 -125 ct 148 -166 143 -194 133 -208 ct 123 -221 111 -228 97 -228 ct 
82 -228 71 -222 63 -210 ct 52 -195 47 -166 47 -125 ct p ef
217 0 m  217 -35 l  252 -35 l  252 0 l  217 0 l  p ef
469 -30 m  469 0 l  302 0 l  301 -7 303 -15 305 -22 ct 310 -33 316 -44 326 -55 ct 
335 -66 349 -79 366 -93 ct 394 -116 412 -134 422 -147 ct 432 -160 436 -173 436 -184 ct 
436 -197 432 -207 423 -215 ct 415 -224 403 -228 389 -228 ct 374 -228 362 -224 353 -215 ct 
344 -206 340 -193 339 -177 ct 308 -181 l  310 -204 318 -222 332 -235 ct 346 -247 366 -254 390 -254 ct 
414 -254 433 -247 447 -233 ct 461 -220 468 -203 468 -184 ct 468 -173 466 -163 462 -154 ct 
458 -144 451 -134 442 -123 ct 432 -112 416 -97 394 -78 ct 375 -63 363 -52 358 -47 ct 
353 -41 348 -35 345 -30 ct 469 -30 l  p ef
pom
pum
17955 18776 t
15 -125 m  15 -155 18 -179 24 -197 ct 30 -215 39 -229 51 -239 ct 63 -249 79 -254 97 -254 ct 
111 -254 122 -251 133 -245 ct 143 -240 151 -232 158 -222 ct 165 -212 170 -199 174 -184 ct 
178 -170 179 -150 179 -125 ct 179 -95 176 -71 170 -53 ct 164 -35 155 -21 143 -11 ct 
131 -1 116 4 97 4 ct 73 4 54 -5 40 -22 ct 23 -43 15 -77 15 -125 ct p
47 -125 m  47 -83 51 -56 61 -42 ct 71 -28 83 -21 97 -21 ct 111 -21 123 -28 133 -42 ct 
143 -56 148 -83 148 -125 ct 148 -166 143 -194 133 -208 ct 123 -221 111 -228 97 -228 ct 
82 -228 71 -222 63 -210 ct 52 -195 47 -166 47 -125 ct p ef
217 0 m  217 -35 l  252 -35 l  252 0 l  217 0 l  p ef
405 0 m  405 -61 l  295 -61 l  295 -89 l  411 -252 l  436 -252 l  436 -89 l 
470 -89 l  470 -61 l  436 -61 l  436 0 l  405 0 l  p
405 -89 m  405 -203 l  326 -89 l  405 -89 l  p ef
pom
pum
17955 17883 t
15 -125 m  15 -155 18 -179 24 -197 ct 30 -215 39 -229 51 -239 ct 63 -249 79 -254 97 -254 ct 
111 -254 122 -251 133 -245 ct 143 -240 151 -232 158 -222 ct 165 -212 170 -199 174 -184 ct 
178 -170 179 -150 179 -125 ct 179 -95 176 -71 170 -53 ct 164 -35 155 -21 143 -11 ct 
131 -1 116 4 97 4 ct 73 4 54 -5 40 -22 ct 23 -43 15 -77 15 -125 ct p
47 -125 m  47 -83 51 -56 61 -42 ct 71 -28 83 -21 97 -21 ct 111 -21 123 -28 133 -42 ct 
143 -56 148 -83 148 -125 ct 148 -166 143 -194 133 -208 ct 123 -221 111 -228 97 -228 ct 
82 -228 71 -222 63 -210 ct 52 -195 47 -166 47 -125 ct p ef
217 0 m  217 -35 l  252 -35 l  252 0 l  217 0 l  p ef
467 -191 m  436 -189 l  433 -201 429 -210 424 -215 ct 416 -224 405 -229 393 -229 ct 
383 -229 374 -226 367 -220 ct 357 -213 350 -203 344 -189 ct 338 -175 335 -156 335 -130 ct 
343 -142 352 -150 363 -156 ct 373 -161 385 -164 396 -164 ct 417 -164 435 -156 449 -141 ct 
464 -126 471 -106 471 -82 ct 471 -66 468 -52 461 -38 ct 454 -24 445 -14 433 -7 ct 
421 0 407 4 392 4 ct 366 4 345 -6 329 -25 ct 312 -44 304 -75 304 -119 ct 304 -167 313 -203 331 -225 ct 
347 -244 368 -254 395 -254 ct 415 -254 431 -248 444 -237 ct 457 -226 464 -211 467 -191 ct 
p
340 -82 m  340 -71 342 -61 347 -51 ct 351 -42 358 -34 366 -29 ct 374 -24 383 -21 391 -21 ct 
405 -21 416 -27 425 -37 ct 435 -48 439 -62 439 -80 ct 439 -98 435 -112 425 -122 ct 
416 -132 404 -137 390 -137 ct 376 -137 364 -132 355 -122 ct 345 -112 340 -98 340 -82 ct 
p ef
pom
pum
17955 16990 t
15 -125 m  15 -155 18 -179 24 -197 ct 30 -215 39 -229 51 -239 ct 63 -249 79 -254 97 -254 ct 
111 -254 122 -251 133 -245 ct 143 -240 151 -232 158 -222 ct 165 -212 170 -199 174 -184 ct 
178 -170 179 -150 179 -125 ct 179 -95 176 -71 170 -53 ct 164 -35 155 -21 143 -11 ct 
131 -1 116 4 97 4 ct 73 4 54 -5 40 -22 ct 23 -43 15 -77 15 -125 ct p
47 -125 m  47 -83 51 -56 61 -42 ct 71 -28 83 -21 97 -21 ct 111 -21 123 -28 133 -42 ct 
143 -56 148 -83 148 -125 ct 148 -166 143 -194 133 -208 ct 123 -221 111 -228 97 -228 ct 
82 -228 71 -222 63 -210 ct 52 -195 47 -166 47 -125 ct p ef
217 0 m  217 -35 l  252 -35 l  252 0 l  217 0 l  p ef
353 -137 m  341 -142 331 -149 325 -157 ct 319 -166 315 -177 315 -189 ct 315 -207 322 -223 335 -235 ct 
349 -248 366 -254 388 -254 ct 410 -254 428 -248 441 -235 ct 455 -222 461 -206 461 -188 ct 
461 -176 458 -166 452 -157 ct 446 -149 437 -142 424 -137 ct 440 -132 452 -124 460 -113 ct 
468 -101 472 -88 472 -72 ct 472 -51 464 -33 449 -18 ct 434 -3 413 4 389 4 ct 364 4 344 -3 328 -18 ct 
313 -33 305 -51 305 -73 ct 305 -90 309 -103 318 -114 ct 326 -126 338 -133 353 -137 ct 
p
347 -190 m  347 -178 351 -168 359 -160 ct 366 -153 376 -149 389 -149 ct 401 -149 410 -153 418 -160 ct 
426 -168 430 -177 430 -188 ct 430 -199 426 -209 418 -217 ct 410 -225 400 -229 388 -229 ct 
377 -229 367 -225 359 -217 ct 351 -210 347 -200 347 -190 ct p
337 -73 m  337 -64 339 -56 343 -47 ct 348 -39 354 -33 362 -28 ct 370 -24 379 -21 389 -21 ct 
404 -21 416 -26 426 -36 ct 435 -45 440 -57 440 -72 ct 440 -87 435 -99 425 -109 ct 
415 -119 403 -124 388 -124 ct 373 -124 361 -119 352 -109 ct 342 -100 337 -88 337 -73 ct 
p ef
pom
pum
18246 16097 t
132 0 m  100 0 l  100 -198 l  93 -190 83 -183 71 -176 ct 59 -169 48 -164 38 -160 ct 
38 -190 l  56 -198 71 -208 84 -220 ct 97 -231 106 -243 112 -253 ct 132 -253 l 
132 0 l  p ef
pom
pum
17955 15204 t
132 0 m  100 0 l  100 -198 l  93 -190 83 -183 71 -176 ct 59 -169 48 -164 38 -160 ct 
38 -190 l  56 -198 71 -208 84 -220 ct 97 -231 106 -243 112 -253 ct 132 -253 l 
132 0 l  p ef
217 0 m  217 -35 l  252 -35 l  252 0 l  217 0 l  p ef
469 -30 m  469 0 l  302 0 l  301 -7 303 -15 305 -22 ct 310 -33 316 -44 326 -55 ct 
335 -66 349 -79 366 -93 ct 394 -116 412 -134 422 -147 ct 432 -160 436 -173 436 -184 ct 
436 -197 432 -207 423 -215 ct 415 -224 403 -228 389 -228 ct 374 -228 362 -224 353 -215 ct 
344 -206 340 -193 339 -177 ct 308 -181 l  310 -204 318 -222 332 -235 ct 346 -247 366 -254 390 -254 ct 
414 -254 433 -247 447 -233 ct 461 -220 468 -203 468 -184 ct 468 -173 466 -163 462 -154 ct 
458 -144 451 -134 442 -123 ct 432 -112 416 -97 394 -78 ct 375 -63 363 -52 358 -47 ct 
353 -41 348 -35 345 -30 ct 469 -30 l  p ef
pom
pum
22757 14102 t
189 -129 m  189 -168 l  328 -168 l  328 -45 l  307 -28 285 -16 262 -7 ct 
240 2 216 6 192 6 ct 160 6 131 -1 104 -15 ct 78 -29 58 -49 45 -75 ct 31 -101 24 -130 24 -163 ct 
24 -195 31 -224 44 -252 ct 58 -280 77 -301 102 -314 ct 127 -328 156 -334 189 -334 ct 
213 -334 234 -330 253 -323 ct 273 -315 288 -304 299 -291 ct 309 -277 318 -259 323 -237 ct 
284 -226 l  279 -243 273 -256 266 -265 ct 258 -275 248 -283 234 -288 ct 221 -294 206 -297 189 -297 ct 
169 -297 152 -294 138 -288 ct 123 -282 111 -274 103 -264 ct 94 -254 87 -243 82 -231 ct 
73 -211 69 -189 69 -165 ct 69 -136 74 -111 84 -92 ct 94 -72 109 -57 128 -48 ct 
148 -38 168 -33 190 -33 ct 209 -33 227 -37 245 -44 ct 263 -52 276 -59 286 -68 ct 
286 -129 l  189 -129 l  p ef
317 0 m  444 -330 l  490 -330 l  625 0 l  575 0 l  537 -100 l  400 -100 l 
364 0 l  317 0 l  p
412 -136 m  524 -136 l  489 -227 l  479 -254 471 -277 466 -295 ct 462 -274 456 -253 448 -232 ct 
412 -136 l  p ef
644 0 m  644 -330 l  768 -330 l  790 -330 807 -329 818 -327 ct 834 -324 848 -319 859 -311 ct 
870 -304 879 -293 885 -279 ct 892 -266 895 -251 895 -234 ct 895 -206 886 -183 869 -163 ct 
851 -144 819 -134 772 -134 ct 688 -134 l  688 0 l  644 0 l  p
688 -173 m  773 -173 l  801 -173 821 -178 833 -189 ct 844 -199 850 -214 850 -233 ct 
850 -247 847 -259 840 -269 ct 833 -278 824 -285 813 -288 ct 805 -290 792 -291 772 -291 ct 
688 -291 l  688 -173 l  p ef
1112 97 m  1090 69 1071 36 1056 -2 ct 1040 -40 1033 -79 1033 -119 ct 1033 -155 1039 -189 1050 -222 ct 
1064 -260 1084 -297 1112 -335 ct 1141 -335 l  1123 -304 1111 -281 1105 -268 ct 
1096 -247 1089 -226 1084 -203 ct 1077 -175 1074 -147 1074 -119 ct 1074 -47 1097 25 1141 97 ct 
1112 97 l  p ef
1193 0 m  1193 -329 l  1234 -329 l  1234 0 l  1193 0 l  p ef
1437 -77 m  1479 -72 l  1472 -48 1460 -29 1442 -15 ct 1425 -2 1402 5 1374 5 ct 
1339 5 1312 -6 1291 -27 ct 1271 -49 1261 -79 1261 -118 ct 1261 -158 1271 -189 1292 -211 ct 
1312 -233 1339 -244 1372 -244 ct 1404 -244 1430 -233 1450 -212 ct 1470 -190 1480 -159 1480 -120 ct 
1480 -117 1480 -114 1480 -109 ct 1303 -109 l  1304 -83 1311 -63 1325 -49 ct 
1338 -35 1355 -28 1374 -28 ct 1389 -28 1402 -32 1412 -40 ct 1423 -48 1431 -60 1437 -77 ct 
p
1305 -142 m  1438 -142 l  1436 -162 1431 -177 1422 -188 ct 1410 -203 1393 -211 1372 -211 ct 
1354 -211 1338 -205 1326 -192 ct 1313 -180 1306 -163 1305 -142 ct p ef
1496 -72 m  1536 -78 l  1538 -62 1544 -50 1555 -41 ct 1565 -33 1579 -28 1598 -28 ct 
1616 -28 1630 -32 1639 -40 ct 1648 -47 1652 -56 1652 -66 ct 1652 -75 1648 -83 1640 -88 ct 
1635 -91 1621 -96 1599 -101 ct 1570 -109 1549 -115 1538 -121 ct 1526 -126 1518 -134 1512 -144 ct 
1506 -153 1503 -164 1503 -176 ct 1503 -186 1505 -196 1510 -205 ct 1515 -214 1522 -222 1530 -228 ct 
1536 -232 1545 -236 1556 -239 ct 1566 -243 1578 -244 1590 -244 ct 1609 -244 1626 -242 1640 -236 ct 
1654 -231 1664 -223 1671 -214 ct 1678 -205 1682 -193 1685 -177 ct 1645 -172 l 
1644 -184 1638 -194 1630 -201 ct 1621 -208 1609 -211 1593 -211 ct 1575 -211 1562 -208 1554 -202 ct 
1546 -196 1542 -188 1542 -180 ct 1542 -175 1543 -170 1547 -166 ct 1550 -162 1555 -158 1562 -155 ct 
1566 -154 1578 -150 1598 -145 ct 1626 -137 1646 -131 1658 -126 ct 1669 -121 1678 -114 1684 -105 ct 
1691 -96 1694 -84 1694 -70 ct 1694 -57 1690 -44 1682 -32 ct 1674 -20 1663 -11 1648 -5 ct 
1633 2 1617 5 1598 5 ct 1567 5 1543 -1 1527 -14 ct 1511 -27 1501 -46 1496 -72 ct 
p ef
1707 -72 m  1747 -78 l  1749 -62 1755 -50 1766 -41 ct 1776 -33 1790 -28 1809 -28 ct 
1827 -28 1841 -32 1850 -40 ct 1859 -47 1863 -56 1863 -66 ct 1863 -75 1859 -83 1851 -88 ct 
1846 -91 1832 -96 1810 -101 ct 1781 -109 1760 -115 1749 -121 ct 1737 -126 1729 -134 1723 -144 ct 
1717 -153 1714 -164 1714 -176 ct 1714 -186 1716 -196 1721 -205 ct 1726 -214 1733 -222 1741 -228 ct 
1747 -232 1756 -236 1767 -239 ct 1777 -243 1789 -244 1801 -244 ct 1820 -244 1837 -242 1851 -236 ct 
1865 -231 1875 -223 1882 -214 ct 1889 -205 1893 -193 1896 -177 ct 1856 -172 l 
1855 -184 1849 -194 1841 -201 ct 1832 -208 1820 -211 1804 -211 ct 1786 -211 1773 -208 1765 -202 ct 
1757 -196 1753 -188 1753 -180 ct 1753 -175 1754 -170 1758 -166 ct 1761 -162 1766 -158 1773 -155 ct 
1777 -154 1789 -150 1809 -145 ct 1837 -137 1857 -131 1869 -126 ct 1880 -121 1889 -114 1895 -105 ct 
1902 -96 1905 -84 1905 -70 ct 1905 -57 1901 -44 1893 -32 ct 1885 -20 1874 -11 1859 -5 ct 
1844 2 1828 5 1809 5 ct 1778 5 1754 -1 1738 -14 ct 1722 -27 1712 -46 1707 -72 ct 
p ef
2067 -283 m  2067 -330 l  2108 -330 l  2108 -283 l  2067 -283 l  p
2067 0 m  2067 -239 l  2108 -239 l  2108 0 l  2067 0 l  p ef
2157 -72 m  2197 -78 l  2199 -62 2205 -50 2216 -41 ct 2226 -33 2240 -28 2259 -28 ct 
2277 -28 2291 -32 2300 -40 ct 2309 -47 2313 -56 2313 -66 ct 2313 -75 2309 -83 2301 -88 ct 
2296 -91 2282 -96 2260 -101 ct 2231 -109 2210 -115 2199 -121 ct 2187 -126 2179 -134 2173 -144 ct 
2167 -153 2164 -164 2164 -176 ct 2164 -186 2166 -196 2171 -205 ct 2176 -214 2183 -222 2191 -228 ct 
2197 -232 2206 -236 2217 -239 ct 2227 -243 2239 -244 2251 -244 ct 2270 -244 2287 -242 2301 -236 ct 
2315 -231 2325 -223 2332 -214 ct 2339 -205 2343 -193 2346 -177 ct 2306 -172 l 
2305 -184 2299 -194 2291 -201 ct 2282 -208 2270 -211 2254 -211 ct 2236 -211 2223 -208 2215 -202 ct 
2207 -196 2203 -188 2203 -180 ct 2203 -175 2204 -170 2208 -166 ct 2211 -162 2216 -158 2223 -155 ct 
2227 -154 2239 -150 2259 -145 ct 2287 -137 2307 -131 2319 -126 ct 2330 -121 2339 -114 2345 -105 ct 
2352 -96 2355 -84 2355 -70 ct 2355 -57 2351 -44 2343 -32 ct 2335 -20 2324 -11 2309 -5 ct 
2294 2 2278 5 2259 5 ct 2228 5 2204 -1 2188 -14 ct 2172 -27 2162 -46 2157 -72 ct 
p ef
2554 -1 m  2517 -1 l  2517 -330 l  2557 -330 l  2557 -212 l  2574 -234 2596 -244 2623 -244 ct 
2637 -244 2651 -241 2664 -235 ct 2677 -229 2688 -221 2696 -210 ct 2705 -200 2712 -187 2716 -172 ct 
2721 -157 2723 -140 2723 -123 ct 2723 -82 2713 -51 2693 -28 ct 2673 -6 2649 5 2621 5 ct 
2592 5 2570 -7 2554 -30 ct 2554 -1 l  p
2554 -121 m  2554 -93 2558 -72 2566 -59 ct 2578 -39 2596 -28 2617 -28 ct 2635 -28 2650 -36 2663 -51 ct 
2676 -67 2682 -89 2682 -120 ct 2682 -151 2676 -174 2664 -189 ct 2651 -204 2636 -211 2619 -211 ct 
2601 -211 2586 -203 2573 -188 ct 2560 -173 2554 -150 2554 -121 ct p ef
2918 -77 m  2960 -72 l  2953 -48 2941 -29 2923 -15 ct 2906 -2 2883 5 2855 5 ct 
2820 5 2793 -6 2772 -27 ct 2752 -49 2742 -79 2742 -118 ct 2742 -158 2752 -189 2773 -211 ct 
2793 -233 2820 -244 2853 -244 ct 2885 -244 2911 -233 2931 -212 ct 2951 -190 2961 -159 2961 -120 ct 
2961 -117 2961 -114 2961 -109 ct 2784 -109 l  2785 -83 2792 -63 2806 -49 ct 
2819 -35 2836 -28 2855 -28 ct 2870 -28 2883 -32 2893 -40 ct 2904 -48 2912 -60 2918 -77 ct 
p
2786 -142 m  2919 -142 l  2917 -162 2912 -177 2903 -188 ct 2891 -203 2874 -211 2853 -211 ct 
2835 -211 2819 -205 2807 -192 ct 2794 -180 2787 -163 2786 -142 ct p ef
3081 -36 m  3087 -1 l  3076 2 3066 3 3057 3 ct 3042 3 3031 1 3023 -4 ct 3015 -9 3009 -15 3006 -22 ct 
3002 -30 3001 -46 3001 -70 ct 3001 -208 l  2971 -208 l  2971 -239 l  3001 -239 l 
3001 -298 l  3041 -322 l  3041 -239 l  3081 -239 l  3081 -208 l  3041 -208 l 
3041 -68 l  3041 -56 3041 -49 3043 -46 ct 3044 -42 3047 -40 3050 -38 ct 3053 -36 3058 -35 3064 -35 ct 
3068 -35 3074 -35 3081 -36 ct p ef
3187 -36 m  3193 -1 l  3182 2 3172 3 3163 3 ct 3148 3 3137 1 3129 -4 ct 3121 -9 3115 -15 3112 -22 ct 
3108 -30 3107 -46 3107 -70 ct 3107 -208 l  3077 -208 l  3077 -239 l  3107 -239 l 
3107 -298 l  3147 -322 l  3147 -239 l  3187 -239 l  3187 -208 l  3147 -208 l 
3147 -68 l  3147 -56 3147 -49 3149 -46 ct 3150 -42 3153 -40 3156 -38 ct 3159 -36 3164 -35 3170 -35 ct 
3174 -35 3180 -35 3187 -36 ct p ef
3368 -77 m  3410 -72 l  3403 -48 3391 -29 3373 -15 ct 3356 -2 3333 5 3305 5 ct 
3270 5 3243 -6 3222 -27 ct 3202 -49 3192 -79 3192 -118 ct 3192 -158 3202 -189 3223 -211 ct 
3243 -233 3270 -244 3303 -244 ct 3335 -244 3361 -233 3381 -212 ct 3401 -190 3411 -159 3411 -120 ct 
3411 -117 3411 -114 3411 -109 ct 3234 -109 l  3235 -83 3242 -63 3256 -49 ct 
3269 -35 3286 -28 3305 -28 ct 3320 -28 3333 -32 3343 -40 ct 3354 -48 3362 -60 3368 -77 ct 
p
3236 -142 m  3369 -142 l  3367 -162 3362 -177 3353 -188 ct 3341 -203 3324 -211 3303 -211 ct 
3285 -211 3269 -205 3257 -192 ct 3244 -180 3237 -163 3236 -142 ct p ef
3443 0 m  3443 -239 l  3479 -239 l  3479 -202 l  3488 -219 3497 -231 3505 -236 ct 
3513 -241 3521 -244 3531 -244 ct 3544 -244 3558 -240 3572 -231 ct 3558 -193 l 
3548 -199 3539 -202 3529 -202 ct 3520 -202 3512 -200 3505 -194 ct 3498 -189 3493 -182 3490 -172 ct 
3485 -158 3483 -142 3483 -125 ct 3483 0 l  3443 0 l  p ef
3629 97 m  3600 97 l  3644 25 3667 -47 3667 -119 ct 3667 -147 3664 -175 3657 -203 ct 
3652 -225 3645 -247 3636 -267 ct 3630 -281 3618 -303 3600 -335 ct 3629 -335 l 
3657 -297 3678 -260 3691 -222 ct 3703 -189 3708 -155 3708 -119 ct 3708 -79 3701 -40 3685 -2 ct 
3670 36 3651 69 3629 97 ct p ef
pom
0.003 0.273 0.527 c 30362 17501 m  31162 17501 l  ps
1.000 0.261 0.058 c 30362 17998 m  31162 17998 l  ps
pum
31262 17621 t
0.003 0.003 0.003 c -5 70 m  -5 48 l  200 48 l  200 70 l  -5 70 l  p ef
237 0 m  208 0 l  208 -252 l  239 -252 l  239 -162 l  252 -179 269 -187 289 -187 ct 
301 -187 311 -185 321 -180 ct 331 -176 340 -169 346 -161 ct 353 -153 358 -143 361 -131 ct 
365 -120 367 -107 367 -94 ct 367 -63 359 -39 344 -22 ct 328 -5 309 4 288 4 ct 266 4 249 -5 237 -23 ct 
237 0 l  p
237 -93 m  237 -71 240 -55 246 -45 ct 255 -29 268 -21 285 -21 ct 299 -21 310 -27 320 -39 ct 
330 -51 335 -68 335 -92 ct 335 -116 330 -133 321 -144 ct 311 -156 300 -162 287 -162 ct 
273 -162 261 -156 251 -144 ct 241 -132 237 -115 237 -93 ct p ef
393 0 m  393 -183 l  421 -183 l  421 -155 l  428 -168 435 -177 441 -181 ct 
447 -185 453 -187 460 -187 ct 471 -187 482 -184 492 -177 ct 482 -148 l  474 -153 467 -155 459 -155 ct 
452 -155 446 -153 441 -149 ct 435 -145 431 -139 429 -132 ct 426 -121 424 -109 424 -96 ct 
424 0 l  393 0 l  p ef
499 0 m  499 -252 l  530 -252 l  530 -108 l  604 -183 l  644 -183 l  574 -115 l 
651 0 l  613 0 l  552 -94 l  530 -72 l  530 0 l  499 0 l  p ef
679 15 m  709 19 l  710 29 714 35 719 40 ct 727 45 737 48 751 48 ct 765 48 776 45 784 40 ct 
792 34 797 26 800 16 ct 802 9 802 -4 802 -24 ct 789 -8 772 0 751 0 ct 726 0 707 -9 693 -28 ct 
679 -46 672 -67 672 -93 ct 672 -110 676 -126 682 -141 ct 688 -156 697 -167 709 -175 ct 
721 -183 735 -187 752 -187 ct 773 -187 791 -178 805 -161 ct 805 -183 l  834 -183 l 
834 -25 l  834 4 831 24 825 36 ct 819 47 810 57 797 64 ct 785 71 769 74 751 74 ct 
729 74 712 69 698 59 ct 685 49 678 35 679 15 ct p
704 -95 m  704 -71 709 -53 719 -42 ct 728 -32 740 -26 754 -26 ct 769 -26 781 -31 790 -42 ct 
800 -53 805 -70 805 -94 ct 805 -116 800 -133 790 -144 ct 780 -156 768 -161 754 -161 ct 
740 -161 728 -156 719 -145 ct 709 -133 704 -117 704 -95 ct p ef
990 -23 m  978 -13 967 -6 957 -2 ct 946 2 935 4 922 4 ct 902 4 887 -1 876 -11 ct 
865 -21 860 -33 860 -48 ct 860 -57 862 -65 866 -73 ct 870 -80 875 -86 882 -91 ct 
889 -95 896 -98 904 -101 ct 910 -102 920 -104 932 -105 ct 957 -108 975 -112 987 -116 ct 
987 -120 987 -123 987 -124 ct 987 -137 984 -146 979 -151 ct 971 -158 959 -161 943 -161 ct 
929 -161 918 -159 911 -154 ct 904 -149 899 -140 895 -127 ct 865 -131 l  868 -144 872 -154 879 -162 ct 
885 -170 894 -176 906 -181 ct 918 -185 932 -187 948 -187 ct 963 -187 976 -185 986 -181 ct 
996 -178 1003 -173 1007 -168 ct 1012 -162 1015 -155 1017 -147 ct 1018 -141 1019 -132 1019 -118 ct 
1019 -77 l  1019 -48 1019 -30 1020 -22 ct 1022 -14 1024 -7 1028 0 ct 996 0 l 
993 -7 991 -14 990 -23 ct p
987 -92 m  976 -87 959 -83 936 -80 ct 924 -78 915 -76 909 -74 ct 904 -72 900 -68 897 -64 ct 
894 -59 893 -55 893 -49 ct 893 -41 896 -34 902 -29 ct 909 -23 918 -20 930 -20 ct 
942 -20 952 -23 962 -28 ct 971 -33 978 -40 982 -50 ct 985 -57 987 -67 987 -80 ct 
987 -92 l  p ef
pom
pum
31262 18118 t
-5 70 m  -5 48 l  200 48 l  200 70 l  -5 70 l  p ef
203 15 m  233 19 l  234 29 238 35 243 40 ct 251 45 261 48 275 48 ct 289 48 300 45 308 40 ct 
316 34 321 26 324 16 ct 326 9 326 -4 326 -24 ct 313 -8 296 0 275 0 ct 250 0 231 -9 217 -28 ct 
203 -46 196 -67 196 -93 ct 196 -110 200 -126 206 -141 ct 212 -156 221 -167 233 -175 ct 
245 -183 259 -187 276 -187 ct 297 -187 315 -178 329 -161 ct 329 -183 l  358 -183 l 
358 -25 l  358 4 355 24 349 36 ct 343 47 334 57 321 64 ct 309 71 293 74 275 74 ct 
253 74 236 69 222 59 ct 209 49 202 35 203 15 ct p
228 -95 m  228 -71 233 -53 243 -42 ct 252 -32 264 -26 278 -26 ct 293 -26 305 -31 314 -42 ct 
324 -53 329 -70 329 -94 ct 329 -116 324 -133 314 -144 ct 304 -156 292 -161 278 -161 ct 
264 -161 252 -156 243 -145 ct 233 -133 228 -117 228 -95 ct p ef
393 0 m  393 -183 l  421 -183 l  421 -155 l  428 -168 435 -177 441 -181 ct 
447 -185 453 -187 460 -187 ct 471 -187 482 -184 492 -177 ct 482 -148 l  474 -153 467 -155 459 -155 ct 
452 -155 446 -153 441 -149 ct 435 -145 431 -139 429 -132 ct 426 -121 424 -109 424 -96 ct 
424 0 l  393 0 l  p ef
619 -23 m  607 -13 596 -6 586 -2 ct 575 2 564 4 551 4 ct 531 4 516 -1 505 -11 ct 
494 -21 489 -33 489 -48 ct 489 -57 491 -65 495 -73 ct 499 -80 504 -86 511 -91 ct 
518 -95 525 -98 533 -101 ct 539 -102 549 -104 561 -105 ct 586 -108 604 -112 616 -116 ct 
616 -120 616 -123 616 -124 ct 616 -137 613 -146 608 -151 ct 600 -158 588 -161 572 -161 ct 
558 -161 547 -159 540 -154 ct 533 -149 528 -140 524 -127 ct 494 -131 l  497 -144 501 -154 508 -162 ct 
514 -170 523 -176 535 -181 ct 547 -185 561 -187 577 -187 ct 592 -187 605 -185 615 -181 ct 
625 -178 632 -173 636 -168 ct 641 -162 644 -155 646 -147 ct 647 -141 648 -132 648 -118 ct 
648 -77 l  648 -48 648 -30 649 -22 ct 651 -14 653 -7 657 0 ct 625 0 l  622 -7 620 -14 619 -23 ct 
p
616 -92 m  605 -87 588 -83 565 -80 ct 553 -78 544 -76 538 -74 ct 533 -72 529 -68 526 -64 ct 
523 -59 522 -55 522 -49 ct 522 -41 525 -34 531 -29 ct 538 -23 547 -20 559 -20 ct 
571 -20 581 -23 591 -28 ct 600 -33 607 -40 611 -50 ct 614 -57 616 -67 616 -80 ct 
616 -92 l  p ef
672 -55 m  703 -60 l  704 -47 709 -38 717 -31 ct 725 -25 736 -21 750 -21 ct 
764 -21 775 -24 782 -30 ct 789 -36 792 -43 792 -51 ct 792 -58 789 -63 783 -67 ct 
779 -70 768 -73 751 -78 ct 728 -83 713 -88 704 -92 ct 695 -97 688 -102 684 -110 ct 
679 -117 677 -125 677 -134 ct 677 -143 679 -150 683 -157 ct 686 -164 691 -170 698 -174 ct 
703 -178 709 -181 718 -183 ct 726 -186 735 -187 744 -187 ct 759 -187 771 -185 782 -181 ct 
793 -177 801 -171 806 -164 ct 811 -157 815 -148 817 -136 ct 787 -132 l  785 -141 781 -148 775 -154 ct 
768 -159 759 -162 747 -162 ct 732 -162 722 -159 716 -154 ct 710 -150 707 -144 707 -138 ct 
707 -134 708 -130 711 -127 ct 713 -124 717 -121 723 -119 ct 726 -118 735 -115 750 -111 ct 
772 -105 787 -100 796 -97 ct 805 -93 812 -87 816 -80 ct 821 -73 824 -64 824 -54 ct 
824 -43 821 -34 815 -25 ct 809 -16 800 -8 789 -3 ct 777 2 764 4 750 4 ct 726 4 708 -1 696 -11 ct 
683 -21 675 -35 672 -55 ct p ef
870 70 m  870 -183 l  899 -183 l  899 -159 l  905 -168 913 -175 921 -180 ct 
930 -185 940 -187 952 -187 ct 967 -187 981 -183 993 -175 ct 1005 -167 1014 -156 1020 -141 ct 
1026 -126 1029 -110 1029 -93 ct 1029 -74 1026 -57 1019 -42 ct 1012 -27 1003 -16 990 -8 ct 
977 0 964 4 949 4 ct 939 4 930 2 922 -3 ct 913 -7 907 -12 901 -19 ct 901 70 l  870 70 l 
p
898 -90 m  898 -67 903 -50 913 -38 ct 922 -27 934 -21 947 -21 ct 961 -21 973 -27 983 -39 ct 
993 -51 997 -69 997 -93 ct 997 -116 993 -134 983 -145 ct 973 -157 962 -163 949 -163 ct 
935 -163 924 -157 914 -144 ct 903 -132 898 -114 898 -90 ct p ef
pom
pum
23171 21656 t
16 5 m  30 -62 l  3 -62 l  3 -85 l  34 -85 l  46 -142 l  3 -142 l  3 -165 l 
50 -165 l  64 -232 l  87 -232 l  74 -165 l  123 -165 l  136 -232 l  159 -232 l 
146 -165 l  173 -165 l  173 -142 l  141 -142 l  130 -85 l  173 -85 l  173 -62 l 
125 -62 l  111 5 l  88 5 l  102 -62 l  53 -62 l  39 5 l  16 5 l  p
57 -85 m  106 -85 l  118 -142 l  69 -142 l  57 -85 l  p ef
276 -83 m  276 -113 284 -136 301 -151 ct 315 -163 333 -169 353 -169 ct 376 -169 394 -162 408 -147 ct 
423 -132 430 -111 430 -85 ct 430 -64 427 -47 421 -35 ct 414 -22 405 -13 393 -6 ct 
381 1 367 4 353 4 ct 330 4 311 -3 297 -18 ct 283 -33 276 -55 276 -83 ct p
304 -83 m  304 -61 309 -45 318 -35 ct 327 -24 339 -19 353 -19 ct 367 -19 378 -24 388 -35 ct 
397 -46 401 -62 401 -83 ct 401 -104 397 -119 387 -130 ct 378 -141 367 -146 353 -146 ct 
339 -146 327 -141 318 -130 ct 309 -120 304 -104 304 -83 ct p ef
471 0 m  471 -165 l  496 -165 l  496 -140 l  502 -152 508 -160 514 -163 ct 
519 -167 525 -169 532 -169 ct 541 -169 551 -166 560 -160 ct 551 -134 l  544 -138 537 -140 530 -140 ct 
524 -140 519 -138 514 -135 ct 509 -131 505 -126 503 -119 ct 500 -109 499 -98 499 -87 ct 
499 0 l  471 0 l  p ef
684 0 m  684 -21 l  674 -4 658 4 638 4 ct 625 4 613 0 602 -7 ct 591 -14 582 -24 576 -37 ct 
570 -50 567 -65 567 -82 ct 567 -99 570 -114 575 -127 ct 581 -141 589 -151 600 -158 ct 
611 -165 623 -169 637 -169 ct 647 -169 655 -167 663 -163 ct 671 -158 677 -153 682 -146 ct 
682 -228 l  710 -228 l  710 0 l  684 0 l  p
596 -82 m  596 -61 600 -45 609 -35 ct 618 -24 628 -19 640 -19 ct 653 -19 663 -24 672 -34 ct 
680 -44 684 -59 684 -80 ct 684 -103 680 -119 671 -130 ct 663 -141 652 -146 639 -146 ct 
627 -146 616 -141 608 -131 ct 600 -120 596 -104 596 -82 ct p ef
875 -53 m  904 -49 l  899 -32 891 -19 878 -10 ct 866 -1 850 4 831 4 ct 807 4 788 -3 774 -18 ct 
760 -33 753 -54 753 -81 ct 753 -109 760 -131 774 -146 ct 788 -161 807 -169 830 -169 ct 
852 -169 870 -161 884 -146 ct 898 -131 905 -110 905 -83 ct 905 -81 905 -78 905 -75 ct 
782 -75 l  783 -57 788 -43 797 -33 ct 806 -24 818 -19 831 -19 ct 842 -19 850 -22 858 -27 ct 
865 -32 871 -41 875 -53 ct p
783 -98 m  875 -98 l  874 -112 870 -123 865 -130 ct 856 -141 844 -146 830 -146 ct 
817 -146 806 -142 798 -133 ct 789 -124 784 -113 783 -98 ct p ef
947 0 m  947 -165 l  972 -165 l  972 -140 l  978 -152 984 -160 990 -163 ct 
995 -167 1001 -169 1008 -169 ct 1017 -169 1027 -166 1036 -160 ct 1027 -134 l 
1020 -138 1013 -140 1006 -140 ct 1000 -140 995 -138 990 -135 ct 985 -131 981 -126 979 -119 ct 
976 -109 975 -98 975 -87 ct 975 0 l  947 0 l  p ef
1042 -49 m  1069 -54 l  1071 -42 1075 -34 1082 -28 ct 1089 -22 1099 -19 1112 -19 ct 
1125 -19 1134 -22 1141 -27 ct 1147 -32 1150 -38 1150 -45 ct 1150 -52 1147 -57 1142 -60 ct 
1138 -63 1128 -66 1113 -70 ct 1093 -75 1079 -80 1071 -83 ct 1063 -87 1057 -92 1053 -99 ct 
1048 -106 1046 -113 1046 -121 ct 1046 -129 1048 -136 1051 -142 ct 1055 -148 1059 -153 1065 -157 ct 
1070 -161 1076 -163 1083 -166 ct 1091 -168 1099 -169 1107 -169 ct 1120 -169 1131 -167 1141 -163 ct 
1151 -160 1158 -155 1163 -148 ct 1168 -142 1171 -133 1173 -123 ct 1145 -119 l 
1144 -127 1140 -134 1134 -139 ct 1128 -144 1120 -146 1109 -146 ct 1096 -146 1087 -144 1082 -140 ct 
1076 -135 1073 -130 1073 -125 ct 1073 -121 1075 -118 1077 -115 ct 1079 -112 1083 -109 1088 -107 ct 
1090 -106 1099 -104 1112 -100 ct 1132 -95 1146 -91 1154 -87 ct 1161 -84 1168 -79 1172 -72 ct 
1177 -66 1179 -58 1179 -48 ct 1179 -39 1176 -30 1171 -22 ct 1165 -14 1157 -7 1147 -3 ct 
1137 2 1125 4 1112 4 ct 1091 4 1075 0 1063 -9 ct 1052 -18 1045 -32 1042 -49 ct 
p ef
pom
pum
17460 18556 t
90.0 r 16 14 m  43 18 l  44 26 47 32 52 36 ct 59 41 69 44 81 44 ct 94 44 104 41 111 36 ct 
118 31 123 24 125 14 ct 127 9 127 -3 127 -22 ct 115 -7 100 0 82 0 ct 59 0 41 -8 29 -25 ct 
16 -41 10 -61 10 -84 ct 10 -99 13 -114 19 -127 ct 24 -141 33 -151 44 -158 ct 54 -165 67 -169 82 -169 ct 
101 -169 117 -161 130 -145 ct 130 -165 l  156 -165 l  156 -22 l  156 3 153 21 148 32 ct 
143 43 134 51 123 58 ct 112 64 98 67 81 67 ct 61 67 45 63 33 54 ct 21 45 15 31 16 14 ct 
p
39 -86 m  39 -64 43 -48 52 -38 ct 60 -28 71 -23 84 -23 ct 97 -23 108 -28 116 -38 ct 
125 -48 130 -63 130 -85 ct 130 -105 125 -120 116 -130 ct 107 -141 96 -146 84 -146 ct 
71 -146 61 -141 52 -131 ct 43 -121 39 -106 39 -86 ct p ef
314 -20 m  303 -11 293 -5 284 -1 ct 274 2 264 4 253 4 ct 235 4 221 0 211 -9 ct 
201 -18 196 -30 196 -43 ct 196 -52 198 -59 202 -66 ct 206 -72 210 -78 216 -82 ct 
222 -86 229 -89 237 -91 ct 242 -92 250 -94 261 -95 ct 284 -98 301 -101 311 -105 ct 
311 -109 311 -111 311 -112 ct 311 -124 309 -132 303 -136 ct 296 -143 286 -146 272 -146 ct 
259 -146 249 -144 243 -139 ct 236 -134 232 -126 229 -114 ct 201 -118 l  204 -130 208 -139 214 -146 ct 
219 -154 227 -159 238 -163 ct 249 -167 262 -169 276 -169 ct 290 -169 301 -167 310 -164 ct 
319 -161 325 -157 329 -151 ct 334 -146 336 -140 338 -132 ct 339 -128 340 -119 340 -107 ct 
340 -69 l  340 -43 340 -27 341 -20 ct 342 -13 345 -6 348 0 ct 319 0 l  316 -6 314 -12 314 -20 ct 
p
311 -83 m  301 -79 286 -75 266 -72 ct 254 -71 246 -69 241 -67 ct 236 -65 233 -61 230 -57 ct 
228 -53 226 -49 226 -44 ct 226 -37 229 -30 235 -25 ct 240 -20 249 -18 260 -18 ct 
270 -18 280 -20 288 -25 ct 297 -30 303 -36 307 -44 ct 310 -51 311 -60 311 -73 ct 
311 -83 l  p ef
391 63 m  391 -166 l  416 -166 l  416 -144 l  422 -152 429 -159 437 -163 ct 
444 -167 453 -169 464 -169 ct 478 -169 491 -165 502 -158 ct 512 -151 520 -141 526 -128 ct 
531 -114 534 -100 534 -84 ct 534 -67 531 -52 525 -39 ct 519 -25 510 -15 499 -8 ct 
487 -1 475 3 462 3 ct 453 3 445 1 437 -3 ct 430 -7 424 -12 419 -18 ct 419 63 l 
391 63 l  p
416 -82 m  416 -61 421 -45 429 -35 ct 438 -25 448 -20 460 -20 ct 473 -20 483 -25 492 -36 ct 
501 -46 506 -62 506 -84 ct 506 -105 501 -121 493 -131 ct 484 -142 474 -147 462 -147 ct 
450 -147 439 -142 430 -130 ct 421 -119 416 -103 416 -82 ct p ef
709 67 m  694 47 681 25 670 -1 ct 660 -28 654 -55 654 -83 ct 654 -107 658 -131 666 -154 ct 
676 -180 690 -206 709 -232 ct 729 -232 l  717 -211 709 -195 705 -186 ct 698 -172 693 -157 690 -141 ct 
685 -122 683 -102 683 -83 ct 683 -33 698 17 729 67 ct 709 67 l  p ef
759 -174 m  759 -190 764 -204 772 -215 ct 780 -227 792 -232 807 -232 ct 822 -232 833 -227 843 -217 ct 
852 -207 857 -192 857 -172 ct 857 -153 852 -138 843 -127 ct 833 -117 821 -112 808 -112 ct 
794 -112 782 -117 773 -127 ct 764 -137 759 -153 759 -174 ct p
808 -213 m  801 -213 795 -210 791 -204 ct 786 -198 784 -187 784 -171 ct 784 -156 786 -146 791 -140 ct 
796 -134 801 -131 808 -131 ct 815 -131 821 -134 826 -140 ct 830 -146 832 -157 832 -173 ct 
832 -188 830 -198 825 -204 ct 821 -210 815 -213 808 -213 ct p
808 8 m  933 -232 l  955 -232 l  831 8 l  808 8 l  p
907 -54 m  907 -70 911 -84 919 -95 ct 927 -107 939 -112 955 -112 ct 969 -112 981 -107 990 -97 ct 
1000 -87 1004 -72 1004 -52 ct 1004 -33 999 -18 990 -8 ct 981 3 969 8 955 8 ct 941 8 930 3 920 -7 ct 
911 -18 907 -33 907 -54 ct p
955 -93 m  948 -93 943 -90 938 -84 ct 933 -78 931 -67 931 -51 ct 931 -37 933 -26 938 -20 ct 
943 -14 948 -11 955 -11 ct 962 -11 968 -14 973 -20 ct 978 -26 980 -37 980 -53 ct 
980 -68 977 -78 973 -84 ct 968 -90 962 -93 955 -93 ct p ef
1071 67 m  1051 67 l  1082 17 1098 -33 1098 -83 ct 1098 -102 1095 -121 1091 -141 ct 
1087 -156 1083 -171 1076 -185 ct 1072 -195 1064 -210 1051 -232 ct 1071 -232 l 
1091 -206 1105 -180 1114 -154 ct 1122 -131 1126 -107 1126 -83 ct 1126 -55 1121 -28 1110 -1 ct 
1100 25 1087 47 1071 67 ct p ef
pom
0 9000 t 
pom
count op_count sub {pop} repeat countdictstack dict_count sub {end} repeat b4_inc_state restore
%%PageTrailer
%%Trailer
%%EOF
