%!PS-Adobe-3.0 EPSF-3.0 
%%BoundingBox: 0 0 454 255
%%Pages: 0
%%Creator: LibreOffice 4.2
%%Title: none
%%CreationDate: none
%%LanguageLevel: 2
%%EndComments
%%BeginProlog
%%BeginResource: procset SDRes-Prolog 1.0 0
/b4_inc_state save def
/dict_count countdictstack def
/op_count count 1 sub def
userdict begin
0 setgray 0 setlinecap 1 setlinewidth 0 setlinejoin 10 setmiterlimit[] 0 setdash newpath
/languagelevel where {pop languagelevel 1 ne {false setstrokeadjust false setoverprint} if} if
/bdef {bind def} bind def
/c {setrgbcolor} bdef
/l {neg lineto} bdef
/rl {neg rlineto} bdef
/lc {setlinecap} bdef
/lj {setlinejoin} bdef
/lw {setlinewidth} bdef
/ml {setmiterlimit} bdef
/ld {setdash} bdef
/m {neg moveto} bdef
/ct {6 2 roll neg 6 2 roll neg 6 2 roll neg curveto} bdef
/r {rotate} bdef
/t {neg translate} bdef
/s {scale} bdef
/sw {show} bdef
/gs {gsave} bdef
/gr {grestore} bdef
/f {findfont dup length dict begin
{1 index /FID ne {def} {pop pop} ifelse} forall /Encoding ISOLatin1Encoding def
currentdict end /NFont exch definefont pop /NFont findfont} bdef
/p {closepath} bdef
/sf {scalefont setfont} bdef
/ef {eofill}bdef
/pc {closepath stroke}bdef
/ps {stroke}bdef
/pum {matrix currentmatrix}bdef
/pom {setmatrix}bdef
/bs {/aString exch def /nXOfs exch def /nWidth exch def currentpoint nXOfs 0 rmoveto pum nWidth aString stringwidth pop div 1 scale aString show pom moveto} bdef
%%EndResource
%%EndProlog
%%BeginSetup
%%EndSetup
%%Page: 1 1
%%BeginPageSetup
%%EndPageSetup
pum
0.02837 0.02833 s 
0 -9000 t
/tm matrix currentmatrix def
tm setmatrix
-406 -13010 t 
1 1 s 
1.000 1.000 1.000 c 8406 22008 m  406 22008 l  406 13009 l  16405 13009 l 
16405 22008 l  8406 22008 l  p ef
0 lw 1 lj 0.703 0.703 0.703 c 8243 20200 m  3284 20200 l  3284 14843 l 
13202 14843 l  13202 20200 l  8243 20200 l  pc
13202 20199 m  3284 20199 l  ps
13202 19306 m  3284 19306 l  ps
13202 18413 m  3284 18413 l  ps
13202 17519 m  3284 17519 l  ps
13202 16627 m  3284 16627 l  ps
13202 15734 m  3284 15734 l  ps
13202 14841 m  3284 14841 l  ps
3284 20349 m  3284 20199 l  ps
3284 20349 m  3284 20199 l  ps
3697 20349 m  3697 20199 l  ps
3697 20349 m  3697 20199 l  ps
4110 20349 m  4110 20199 l  ps
4110 20349 m  4110 20199 l  ps
4523 20349 m  4523 20199 l  ps
4523 20349 m  4523 20199 l  ps
4937 20349 m  4937 20199 l  ps
4937 20349 m  4937 20199 l  ps
5350 20349 m  5350 20199 l  ps
5350 20349 m  5350 20199 l  ps
5763 20349 m  5763 20199 l  ps
5763 20349 m  5763 20199 l  ps
6177 20349 m  6177 20199 l  ps
6177 20349 m  6177 20199 l  ps
6590 20349 m  6590 20199 l  ps
6590 20349 m  6590 20199 l  ps
7003 20349 m  7003 20199 l  ps
7003 20349 m  7003 20199 l  ps
7416 20349 m  7416 20199 l  ps
7416 20349 m  7416 20199 l  ps
7830 20349 m  7830 20199 l  ps
7830 20349 m  7830 20199 l  ps
8243 20349 m  8243 20199 l  ps
8243 20349 m  8243 20199 l  ps
8655 20349 m  8655 20199 l  ps
8655 20349 m  8655 20199 l  ps
9069 20349 m  9069 20199 l  ps
9069 20349 m  9069 20199 l  ps
9482 20349 m  9482 20199 l  ps
9482 20349 m  9482 20199 l  ps
9895 20349 m  9895 20199 l  ps
9895 20349 m  9895 20199 l  ps
10308 20349 m  10308 20199 l  ps
10308 20349 m  10308 20199 l  ps
10722 20349 m  10722 20199 l  ps
10722 20349 m  10722 20199 l  ps
11135 20349 m  11135 20199 l  ps
11135 20349 m  11135 20199 l  ps
11548 20349 m  11548 20199 l  ps
11548 20349 m  11548 20199 l  ps
11962 20349 m  11962 20199 l  ps
11962 20349 m  11962 20199 l  ps
12375 20349 m  12375 20199 l  ps
12375 20349 m  12375 20199 l  ps
12788 20349 m  12788 20199 l  ps
12788 20349 m  12788 20199 l  ps
13202 20349 m  13202 20199 l  ps
13202 20349 m  13202 20199 l  ps
3284 20199 m  13202 20199 l  ps
3134 20199 m  3284 20199 l  ps
3134 20199 m  3284 20199 l  ps
3134 19306 m  3284 19306 l  ps
3134 19306 m  3284 19306 l  ps
3134 18413 m  3284 18413 l  ps
3134 18413 m  3284 18413 l  ps
3134 17520 m  3284 17520 l  ps
3134 17520 m  3284 17520 l  ps
3134 16627 m  3284 16627 l  ps
3134 16627 m  3284 16627 l  ps
3134 15734 m  3284 15734 l  ps
3134 15734 m  3284 15734 l  ps
3134 14841 m  3284 14841 l  ps
3134 14841 m  3284 14841 l  ps
3284 20199 m  3284 14841 l  ps
79.995 lw 0.003 0.273 0.527 c 3284 19179 m  3697 19059 l  4110 18892 l 
4523 19041 l  4937 18922 l  5350 18823 l  5763 18671 l  6177 18515 l  6590 18405 l 
7003 18448 l  7416 18259 l  7830 18250 l  8243 18056 l  8655 17897 l  9069 17801 l 
9482 17420 l  9895 17082 l  10308 17181 l  10722 17046 l  11135 17040 l 
11548 16356 l  11962 16223 l  12375 16294 l  12788 15729 l  13202 15511 l 
ps
1.000 0.261 0.058 c 3284 18538 m  3697 18389 l  4110 18281 l  4523 18197 l 
4937 18122 l  5350 18046 l  5763 17975 l  6177 17909 l  6590 17868 l  7003 17840 l 
7416 17793 l  7830 17757 l  8243 17703 l  8655 17666 l  9069 17634 l  9482 17601 l 
9895 17566 l  10308 17541 l  10722 17521 l  11135 17497 l  11548 17466 l 
11962 17446 l  12375 17432 l  12788 17406 l  13202 17381 l  ps
0.800 0.003 0.800 c 3284 19716 m  3697 19682 l  4110 19303 l  4523 19233 l 
4937 19122 l  5350 18959 l  5763 18842 l  6177 18678 l  6590 18541 l  7003 18462 l 
7416 18238 l  7830 18110 l  8243 17994 l  8655 17885 l  9069 17752 l  9482 17670 l 
9895 17592 l  10308 17451 l  10722 17425 l  11135 17415 l  11548 17325 l 
11962 17275 l  12375 17285 l  12788 17208 l  13202 17298 l  ps
pum
3191 20767 t
0.003 0.003 0.003 c 132 0 m  100 0 l  100 -198 l  93 -190 83 -183 71 -176 ct 
59 -169 48 -164 38 -160 ct 38 -190 l  56 -198 71 -208 84 -220 ct 97 -231 106 -243 112 -253 ct 
132 -253 l  132 0 l  p ef
pom
pum
3604 20767 t
178 -30 m  178 0 l  11 0 l  10 -7 12 -15 14 -22 ct 19 -33 25 -44 35 -55 ct 44 -66 58 -79 75 -93 ct 
103 -116 121 -134 131 -147 ct 141 -160 145 -173 145 -184 ct 145 -197 141 -207 132 -215 ct 
124 -224 112 -228 98 -228 ct 83 -228 71 -224 62 -215 ct 53 -206 49 -193 48 -177 ct 
17 -181 l  19 -204 27 -222 41 -235 ct 55 -247 75 -254 99 -254 ct 123 -254 142 -247 156 -233 ct 
170 -220 177 -203 177 -184 ct 177 -173 175 -163 171 -154 ct 167 -144 160 -134 151 -123 ct 
141 -112 125 -97 103 -78 ct 84 -63 72 -52 67 -47 ct 62 -41 57 -35 54 -30 ct 178 -30 l 
p ef
pom
pum
4017 20767 t
15 -67 m  46 -71 l  49 -54 55 -41 64 -33 ct 73 -26 83 -22 95 -22 ct 110 -22 122 -27 132 -37 ct 
142 -47 147 -59 147 -74 ct 147 -89 143 -100 133 -110 ct 124 -119 112 -124 98 -124 ct 
92 -124 85 -122 76 -120 ct 79 -147 l  82 -147 83 -147 84 -147 ct 98 -147 110 -150 120 -157 ct 
131 -164 136 -175 136 -189 ct 136 -200 132 -210 124 -217 ct 117 -225 107 -229 95 -229 ct 
83 -229 73 -225 64 -217 ct 56 -210 51 -198 49 -183 ct 18 -189 l  22 -209 30 -225 44 -237 ct 
57 -248 74 -254 94 -254 ct 108 -254 120 -251 132 -245 ct 144 -239 153 -231 159 -221 ct 
165 -211 168 -200 168 -188 ct 168 -178 165 -168 159 -159 ct 153 -150 145 -143 133 -137 ct 
148 -134 160 -127 168 -116 ct 176 -105 180 -91 180 -75 ct 180 -53 172 -34 156 -19 ct 
140 -4 120 4 95 4 ct 73 4 55 -3 40 -16 ct 25 -29 17 -46 15 -67 ct p ef
pom
pum
4430 20767 t
114 0 m  114 -61 l  4 -61 l  4 -89 l  120 -252 l  145 -252 l  145 -89 l 
179 -89 l  179 -61 l  145 -61 l  145 0 l  114 0 l  p
114 -89 m  114 -203 l  35 -89 l  114 -89 l  p ef
pom
pum
4844 20767 t
15 -66 m  47 -69 l  50 -53 55 -41 64 -33 ct 73 -25 83 -21 96 -21 ct 111 -21 123 -27 134 -38 ct 
144 -50 149 -64 149 -83 ct 149 -101 144 -115 134 -125 ct 124 -135 111 -140 95 -140 ct 
85 -140 76 -138 68 -133 ct 60 -129 54 -123 49 -116 ct 20 -119 l  45 -249 l  170 -249 l 
170 -219 l  69 -219 l  56 -152 l  71 -162 87 -167 104 -167 ct 126 -167 144 -160 159 -145 ct 
175 -129 182 -110 182 -86 ct 182 -63 176 -43 162 -27 ct 146 -6 124 4 96 4 ct 73 4 54 -2 40 -15 ct 
25 -28 17 -45 15 -66 ct p ef
pom
pum
5257 20767 t
176 -191 m  145 -189 l  142 -201 138 -210 133 -215 ct 125 -224 114 -229 102 -229 ct 
92 -229 83 -226 76 -220 ct 66 -213 59 -203 53 -189 ct 47 -175 44 -156 44 -130 ct 
52 -142 61 -150 72 -156 ct 82 -161 94 -164 105 -164 ct 126 -164 144 -156 158 -141 ct 
173 -126 180 -106 180 -82 ct 180 -66 177 -52 170 -38 ct 163 -24 154 -14 142 -7 ct 
130 0 116 4 101 4 ct 75 4 54 -6 38 -25 ct 21 -44 13 -75 13 -119 ct 13 -167 22 -203 40 -225 ct 
56 -244 77 -254 104 -254 ct 124 -254 140 -248 153 -237 ct 166 -226 173 -211 176 -191 ct 
p
49 -82 m  49 -71 51 -61 56 -51 ct 60 -42 67 -34 75 -29 ct 83 -24 92 -21 100 -21 ct 
114 -21 125 -27 134 -37 ct 144 -48 148 -62 148 -80 ct 148 -98 144 -112 134 -122 ct 
125 -132 113 -137 99 -137 ct 85 -137 73 -132 64 -122 ct 54 -112 49 -98 49 -82 ct 
p ef
pom
pum
5670 20767 t
17 -219 m  17 -249 l  180 -249 l  180 -225 l  164 -208 148 -185 132 -156 ct 
117 -128 104 -99 96 -69 ct 90 -48 86 -25 84 1 ct 52 1 l  52 -19 56 -43 64 -72 ct 
71 -100 82 -127 96 -153 ct 110 -179 125 -201 140 -219 ct 17 -219 l  p ef
pom
pum
6084 20767 t
62 -137 m  50 -142 40 -149 34 -157 ct 28 -166 24 -177 24 -189 ct 24 -207 31 -223 44 -235 ct 
58 -248 75 -254 97 -254 ct 119 -254 137 -248 150 -235 ct 164 -222 170 -206 170 -188 ct 
170 -176 167 -166 161 -157 ct 155 -149 146 -142 133 -137 ct 149 -132 161 -124 169 -113 ct 
177 -101 181 -88 181 -72 ct 181 -51 173 -33 158 -18 ct 143 -3 122 4 98 4 ct 73 4 53 -3 37 -18 ct 
22 -33 14 -51 14 -73 ct 14 -90 18 -103 27 -114 ct 35 -126 47 -133 62 -137 ct p
56 -190 m  56 -178 60 -168 68 -160 ct 75 -153 85 -149 98 -149 ct 110 -149 119 -153 127 -160 ct 
135 -168 139 -177 139 -188 ct 139 -199 135 -209 127 -217 ct 119 -225 109 -229 97 -229 ct 
86 -229 76 -225 68 -217 ct 60 -210 56 -200 56 -190 ct p
46 -73 m  46 -64 48 -56 52 -47 ct 57 -39 63 -33 71 -28 ct 79 -24 88 -21 98 -21 ct 
113 -21 125 -26 135 -36 ct 144 -45 149 -57 149 -72 ct 149 -87 144 -99 134 -109 ct 
124 -119 112 -124 97 -124 ct 82 -124 70 -119 61 -109 ct 51 -100 46 -88 46 -73 ct 
p ef
pom
pum
6497 20767 t
19 -59 m  49 -62 l  52 -47 56 -37 64 -31 ct 71 -25 80 -21 91 -21 ct 101 -21 109 -24 116 -28 ct 
123 -32 129 -38 134 -46 ct 138 -53 142 -63 145 -75 ct 148 -88 150 -100 150 -113 ct 
150 -114 150 -116 150 -119 ct 144 -109 135 -101 124 -95 ct 114 -89 102 -86 89 -86 ct 
69 -86 51 -94 36 -109 ct 22 -124 15 -144 15 -169 ct 15 -194 22 -215 37 -230 ct 
52 -246 71 -254 94 -254 ct 111 -254 126 -249 139 -240 ct 153 -232 163 -219 170 -203 ct 
177 -186 181 -163 181 -132 ct 181 -99 177 -74 170 -55 ct 163 -36 153 -21 139 -11 ct 
125 -1 109 4 90 4 ct 71 4 54 -1 42 -12 ct 29 -23 22 -39 19 -59 ct p
146 -170 m  146 -188 142 -202 132 -212 ct 123 -223 111 -228 98 -228 ct 84 -228 72 -222 62 -211 ct 
52 -200 47 -185 47 -168 ct 47 -151 51 -138 61 -128 ct 71 -118 83 -113 97 -113 ct 
111 -113 123 -118 132 -128 ct 142 -138 146 -152 146 -170 ct p ef
pom
pum
6818 20767 t
132 0 m  100 0 l  100 -198 l  93 -190 83 -183 71 -176 ct 59 -169 48 -164 38 -160 ct 
38 -190 l  56 -198 71 -208 84 -220 ct 97 -231 106 -243 112 -253 ct 132 -253 l 
132 0 l  p ef
200 -125 m  200 -155 203 -179 209 -197 ct 215 -215 224 -229 236 -239 ct 248 -249 264 -254 282 -254 ct 
296 -254 307 -251 318 -245 ct 328 -240 336 -232 343 -222 ct 350 -212 355 -199 359 -184 ct 
363 -170 364 -150 364 -125 ct 364 -95 361 -71 355 -53 ct 349 -35 340 -21 328 -11 ct 
316 -1 301 4 282 4 ct 258 4 239 -5 225 -22 ct 208 -43 200 -77 200 -125 ct p
232 -125 m  232 -83 236 -56 246 -42 ct 256 -28 268 -21 282 -21 ct 296 -21 308 -28 318 -42 ct 
328 -56 333 -83 333 -125 ct 333 -166 328 -194 318 -208 ct 308 -221 296 -228 282 -228 ct 
267 -228 256 -222 248 -210 ct 237 -195 232 -166 232 -125 ct p ef
pom
pum
7244 20767 t
132 0 m  100 0 l  100 -198 l  93 -190 83 -183 71 -176 ct 59 -169 48 -164 38 -160 ct 
38 -190 l  56 -198 71 -208 84 -220 ct 97 -231 106 -243 112 -253 ct 132 -253 l 
132 0 l  p ef
291 0 m  259 0 l  259 -198 l  252 -190 242 -183 230 -176 ct 218 -169 207 -164 197 -160 ct 
197 -190 l  215 -198 230 -208 243 -220 ct 256 -231 265 -243 271 -253 ct 291 -253 l 
291 0 l  p ef
pom
pum
7645 20767 t
132 0 m  100 0 l  100 -198 l  93 -190 83 -183 71 -176 ct 59 -169 48 -164 38 -160 ct 
38 -190 l  56 -198 71 -208 84 -220 ct 97 -231 106 -243 112 -253 ct 132 -253 l 
132 0 l  p ef
363 -30 m  363 0 l  196 0 l  195 -7 197 -15 199 -22 ct 204 -33 210 -44 220 -55 ct 
229 -66 243 -79 260 -93 ct 288 -116 306 -134 316 -147 ct 326 -160 330 -173 330 -184 ct 
330 -197 326 -207 317 -215 ct 309 -224 297 -228 283 -228 ct 268 -228 256 -224 247 -215 ct 
238 -206 234 -193 233 -177 ct 202 -181 l  204 -204 212 -222 226 -235 ct 240 -247 260 -254 284 -254 ct 
308 -254 327 -247 341 -233 ct 355 -220 362 -203 362 -184 ct 362 -173 360 -163 356 -154 ct 
352 -144 345 -134 336 -123 ct 326 -112 310 -97 288 -78 ct 269 -63 257 -52 252 -47 ct 
247 -41 242 -35 239 -30 ct 363 -30 l  p ef
pom
pum
8058 20767 t
132 0 m  100 0 l  100 -198 l  93 -190 83 -183 71 -176 ct 59 -169 48 -164 38 -160 ct 
38 -190 l  56 -198 71 -208 84 -220 ct 97 -231 106 -243 112 -253 ct 132 -253 l 
132 0 l  p ef
200 -67 m  231 -71 l  234 -54 240 -41 249 -33 ct 258 -26 268 -22 280 -22 ct 
295 -22 307 -27 317 -37 ct 327 -47 332 -59 332 -74 ct 332 -89 328 -100 318 -110 ct 
309 -119 297 -124 283 -124 ct 277 -124 270 -122 261 -120 ct 264 -147 l  267 -147 268 -147 269 -147 ct 
283 -147 295 -150 305 -157 ct 316 -164 321 -175 321 -189 ct 321 -200 317 -210 309 -217 ct 
302 -225 292 -229 280 -229 ct 268 -229 258 -225 249 -217 ct 241 -210 236 -198 234 -183 ct 
203 -189 l  207 -209 215 -225 229 -237 ct 242 -248 259 -254 279 -254 ct 293 -254 305 -251 317 -245 ct 
329 -239 338 -231 344 -221 ct 350 -211 353 -200 353 -188 ct 353 -178 350 -168 344 -159 ct 
338 -150 330 -143 318 -137 ct 333 -134 345 -127 353 -116 ct 361 -105 365 -91 365 -75 ct 
365 -53 357 -34 341 -19 ct 325 -4 305 4 280 4 ct 258 4 240 -3 225 -16 ct 210 -29 202 -46 200 -67 ct 
p ef
pom
pum
8471 20767 t
132 0 m  100 0 l  100 -198 l  93 -190 83 -183 71 -176 ct 59 -169 48 -164 38 -160 ct 
38 -190 l  56 -198 71 -208 84 -220 ct 97 -231 106 -243 112 -253 ct 132 -253 l 
132 0 l  p ef
299 0 m  299 -61 l  189 -61 l  189 -89 l  305 -252 l  330 -252 l  330 -89 l 
364 -89 l  364 -61 l  330 -61 l  330 0 l  299 0 l  p
299 -89 m  299 -203 l  220 -89 l  299 -89 l  p ef
pom
pum
8885 20767 t
132 0 m  100 0 l  100 -198 l  93 -190 83 -183 71 -176 ct 59 -169 48 -164 38 -160 ct 
38 -190 l  56 -198 71 -208 84 -220 ct 97 -231 106 -243 112 -253 ct 132 -253 l 
132 0 l  p ef
200 -66 m  232 -69 l  235 -53 240 -41 249 -33 ct 258 -25 268 -21 281 -21 ct 
296 -21 308 -27 319 -38 ct 329 -50 334 -64 334 -83 ct 334 -101 329 -115 319 -125 ct 
309 -135 296 -140 280 -140 ct 270 -140 261 -138 253 -133 ct 245 -129 239 -123 234 -116 ct 
205 -119 l  230 -249 l  355 -249 l  355 -219 l  254 -219 l  241 -152 l 
256 -162 272 -167 289 -167 ct 311 -167 329 -160 344 -145 ct 360 -129 367 -110 367 -86 ct 
367 -63 361 -43 347 -27 ct 331 -6 309 4 281 4 ct 258 4 239 -2 225 -15 ct 210 -28 202 -45 200 -66 ct 
p ef
pom
pum
9298 20767 t
132 0 m  100 0 l  100 -198 l  93 -190 83 -183 71 -176 ct 59 -169 48 -164 38 -160 ct 
38 -190 l  56 -198 71 -208 84 -220 ct 97 -231 106 -243 112 -253 ct 132 -253 l 
132 0 l  p ef
361 -191 m  330 -189 l  327 -201 323 -210 318 -215 ct 310 -224 299 -229 287 -229 ct 
277 -229 268 -226 261 -220 ct 251 -213 244 -203 238 -189 ct 232 -175 229 -156 229 -130 ct 
237 -142 246 -150 257 -156 ct 267 -161 279 -164 290 -164 ct 311 -164 329 -156 343 -141 ct 
358 -126 365 -106 365 -82 ct 365 -66 362 -52 355 -38 ct 348 -24 339 -14 327 -7 ct 
315 0 301 4 286 4 ct 260 4 239 -6 223 -25 ct 206 -44 198 -75 198 -119 ct 198 -167 207 -203 225 -225 ct 
241 -244 262 -254 289 -254 ct 309 -254 325 -248 338 -237 ct 351 -226 358 -211 361 -191 ct 
p
234 -82 m  234 -71 236 -61 241 -51 ct 245 -42 252 -34 260 -29 ct 268 -24 277 -21 285 -21 ct 
299 -21 310 -27 319 -37 ct 329 -48 333 -62 333 -80 ct 333 -98 329 -112 319 -122 ct 
310 -132 298 -137 284 -137 ct 270 -137 258 -132 249 -122 ct 239 -112 234 -98 234 -82 ct 
p ef
pom
pum
9711 20767 t
132 0 m  100 0 l  100 -198 l  93 -190 83 -183 71 -176 ct 59 -169 48 -164 38 -160 ct 
38 -190 l  56 -198 71 -208 84 -220 ct 97 -231 106 -243 112 -253 ct 132 -253 l 
132 0 l  p ef
202 -219 m  202 -249 l  365 -249 l  365 -225 l  349 -208 333 -185 317 -156 ct 
302 -128 289 -99 281 -69 ct 275 -48 271 -25 269 1 ct 237 1 l  237 -19 241 -43 249 -72 ct 
256 -100 267 -127 281 -153 ct 295 -179 310 -201 325 -219 ct 202 -219 l  p ef
pom
pum
10124 20767 t
132 0 m  100 0 l  100 -198 l  93 -190 83 -183 71 -176 ct 59 -169 48 -164 38 -160 ct 
38 -190 l  56 -198 71 -208 84 -220 ct 97 -231 106 -243 112 -253 ct 132 -253 l 
132 0 l  p ef
247 -137 m  235 -142 225 -149 219 -157 ct 213 -166 209 -177 209 -189 ct 209 -207 216 -223 229 -235 ct 
243 -248 260 -254 282 -254 ct 304 -254 322 -248 335 -235 ct 349 -222 355 -206 355 -188 ct 
355 -176 352 -166 346 -157 ct 340 -149 331 -142 318 -137 ct 334 -132 346 -124 354 -113 ct 
362 -101 366 -88 366 -72 ct 366 -51 358 -33 343 -18 ct 328 -3 307 4 283 4 ct 258 4 238 -3 222 -18 ct 
207 -33 199 -51 199 -73 ct 199 -90 203 -103 212 -114 ct 220 -126 232 -133 247 -137 ct 
p
241 -190 m  241 -178 245 -168 253 -160 ct 260 -153 270 -149 283 -149 ct 295 -149 304 -153 312 -160 ct 
320 -168 324 -177 324 -188 ct 324 -199 320 -209 312 -217 ct 304 -225 294 -229 282 -229 ct 
271 -229 261 -225 253 -217 ct 245 -210 241 -200 241 -190 ct p
231 -73 m  231 -64 233 -56 237 -47 ct 242 -39 248 -33 256 -28 ct 264 -24 273 -21 283 -21 ct 
298 -21 310 -26 320 -36 ct 329 -45 334 -57 334 -72 ct 334 -87 329 -99 319 -109 ct 
309 -119 297 -124 282 -124 ct 267 -124 255 -119 246 -109 ct 236 -100 231 -88 231 -73 ct 
p ef
pom
pum
10538 20767 t
132 0 m  100 0 l  100 -198 l  93 -190 83 -183 71 -176 ct 59 -169 48 -164 38 -160 ct 
38 -190 l  56 -198 71 -208 84 -220 ct 97 -231 106 -243 112 -253 ct 132 -253 l 
132 0 l  p ef
204 -59 m  234 -62 l  237 -47 241 -37 249 -31 ct 256 -25 265 -21 276 -21 ct 
286 -21 294 -24 301 -28 ct 308 -32 314 -38 319 -46 ct 323 -53 327 -63 330 -75 ct 
333 -88 335 -100 335 -113 ct 335 -114 335 -116 335 -119 ct 329 -109 320 -101 309 -95 ct 
299 -89 287 -86 274 -86 ct 254 -86 236 -94 221 -109 ct 207 -124 200 -144 200 -169 ct 
200 -194 207 -215 222 -230 ct 237 -246 256 -254 279 -254 ct 296 -254 311 -249 324 -240 ct 
338 -232 348 -219 355 -203 ct 362 -186 366 -163 366 -132 ct 366 -99 362 -74 355 -55 ct 
348 -36 338 -21 324 -11 ct 310 -1 294 4 275 4 ct 256 4 239 -1 227 -12 ct 214 -23 207 -39 204 -59 ct 
p
331 -170 m  331 -188 327 -202 317 -212 ct 308 -223 296 -228 283 -228 ct 269 -228 257 -222 247 -211 ct 
237 -200 232 -185 232 -168 ct 232 -151 236 -138 246 -128 ct 256 -118 268 -113 282 -113 ct 
296 -113 308 -118 317 -128 ct 327 -138 331 -152 331 -170 ct p ef
pom
pum
10951 20767 t
178 -30 m  178 0 l  11 0 l  10 -7 12 -15 14 -22 ct 19 -33 25 -44 35 -55 ct 44 -66 58 -79 75 -93 ct 
103 -116 121 -134 131 -147 ct 141 -160 145 -173 145 -184 ct 145 -197 141 -207 132 -215 ct 
124 -224 112 -228 98 -228 ct 83 -228 71 -224 62 -215 ct 53 -206 49 -193 48 -177 ct 
17 -181 l  19 -204 27 -222 41 -235 ct 55 -247 75 -254 99 -254 ct 123 -254 142 -247 156 -233 ct 
170 -220 177 -203 177 -184 ct 177 -173 175 -163 171 -154 ct 167 -144 160 -134 151 -123 ct 
141 -112 125 -97 103 -78 ct 84 -63 72 -52 67 -47 ct 62 -41 57 -35 54 -30 ct 178 -30 l 
p ef
200 -125 m  200 -155 203 -179 209 -197 ct 215 -215 224 -229 236 -239 ct 248 -249 264 -254 282 -254 ct 
296 -254 307 -251 318 -245 ct 328 -240 336 -232 343 -222 ct 350 -212 355 -199 359 -184 ct 
363 -170 364 -150 364 -125 ct 364 -95 361 -71 355 -53 ct 349 -35 340 -21 328 -11 ct 
316 -1 301 4 282 4 ct 258 4 239 -5 225 -22 ct 208 -43 200 -77 200 -125 ct p
232 -125 m  232 -83 236 -56 246 -42 ct 256 -28 268 -21 282 -21 ct 296 -21 308 -28 318 -42 ct 
328 -56 333 -83 333 -125 ct 333 -166 328 -194 318 -208 ct 308 -221 296 -228 282 -228 ct 
267 -228 256 -222 248 -210 ct 237 -195 232 -166 232 -125 ct p ef
pom
pum
11364 20767 t
178 -30 m  178 0 l  11 0 l  10 -7 12 -15 14 -22 ct 19 -33 25 -44 35 -55 ct 44 -66 58 -79 75 -93 ct 
103 -116 121 -134 131 -147 ct 141 -160 145 -173 145 -184 ct 145 -197 141 -207 132 -215 ct 
124 -224 112 -228 98 -228 ct 83 -228 71 -224 62 -215 ct 53 -206 49 -193 48 -177 ct 
17 -181 l  19 -204 27 -222 41 -235 ct 55 -247 75 -254 99 -254 ct 123 -254 142 -247 156 -233 ct 
170 -220 177 -203 177 -184 ct 177 -173 175 -163 171 -154 ct 167 -144 160 -134 151 -123 ct 
141 -112 125 -97 103 -78 ct 84 -63 72 -52 67 -47 ct 62 -41 57 -35 54 -30 ct 178 -30 l 
p ef
317 0 m  285 0 l  285 -198 l  278 -190 268 -183 256 -176 ct 244 -169 233 -164 223 -160 ct 
223 -190 l  241 -198 256 -208 269 -220 ct 282 -231 291 -243 297 -253 ct 317 -253 l 
317 0 l  p ef
pom
pum
11778 20767 t
178 -30 m  178 0 l  11 0 l  10 -7 12 -15 14 -22 ct 19 -33 25 -44 35 -55 ct 44 -66 58 -79 75 -93 ct 
103 -116 121 -134 131 -147 ct 141 -160 145 -173 145 -184 ct 145 -197 141 -207 132 -215 ct 
124 -224 112 -228 98 -228 ct 83 -228 71 -224 62 -215 ct 53 -206 49 -193 48 -177 ct 
17 -181 l  19 -204 27 -222 41 -235 ct 55 -247 75 -254 99 -254 ct 123 -254 142 -247 156 -233 ct 
170 -220 177 -203 177 -184 ct 177 -173 175 -163 171 -154 ct 167 -144 160 -134 151 -123 ct 
141 -112 125 -97 103 -78 ct 84 -63 72 -52 67 -47 ct 62 -41 57 -35 54 -30 ct 178 -30 l 
p ef
363 -30 m  363 0 l  196 0 l  195 -7 197 -15 199 -22 ct 204 -33 210 -44 220 -55 ct 
229 -66 243 -79 260 -93 ct 288 -116 306 -134 316 -147 ct 326 -160 330 -173 330 -184 ct 
330 -197 326 -207 317 -215 ct 309 -224 297 -228 283 -228 ct 268 -228 256 -224 247 -215 ct 
238 -206 234 -193 233 -177 ct 202 -181 l  204 -204 212 -222 226 -235 ct 240 -247 260 -254 284 -254 ct 
308 -254 327 -247 341 -233 ct 355 -220 362 -203 362 -184 ct 362 -173 360 -163 356 -154 ct 
352 -144 345 -134 336 -123 ct 326 -112 310 -97 288 -78 ct 269 -63 257 -52 252 -47 ct 
247 -41 242 -35 239 -30 ct 363 -30 l  p ef
pom
pum
12191 20767 t
178 -30 m  178 0 l  11 0 l  10 -7 12 -15 14 -22 ct 19 -33 25 -44 35 -55 ct 44 -66 58 -79 75 -93 ct 
103 -116 121 -134 131 -147 ct 141 -160 145 -173 145 -184 ct 145 -197 141 -207 132 -215 ct 
124 -224 112 -228 98 -228 ct 83 -228 71 -224 62 -215 ct 53 -206 49 -193 48 -177 ct 
17 -181 l  19 -204 27 -222 41 -235 ct 55 -247 75 -254 99 -254 ct 123 -254 142 -247 156 -233 ct 
170 -220 177 -203 177 -184 ct 177 -173 175 -163 171 -154 ct 167 -144 160 -134 151 -123 ct 
141 -112 125 -97 103 -78 ct 84 -63 72 -52 67 -47 ct 62 -41 57 -35 54 -30 ct 178 -30 l 
p ef
200 -67 m  231 -71 l  234 -54 240 -41 249 -33 ct 258 -26 268 -22 280 -22 ct 
295 -22 307 -27 317 -37 ct 327 -47 332 -59 332 -74 ct 332 -89 328 -100 318 -110 ct 
309 -119 297 -124 283 -124 ct 277 -124 270 -122 261 -120 ct 264 -147 l  267 -147 268 -147 269 -147 ct 
283 -147 295 -150 305 -157 ct 316 -164 321 -175 321 -189 ct 321 -200 317 -210 309 -217 ct 
302 -225 292 -229 280 -229 ct 268 -229 258 -225 249 -217 ct 241 -210 236 -198 234 -183 ct 
203 -189 l  207 -209 215 -225 229 -237 ct 242 -248 259 -254 279 -254 ct 293 -254 305 -251 317 -245 ct 
329 -239 338 -231 344 -221 ct 350 -211 353 -200 353 -188 ct 353 -178 350 -168 344 -159 ct 
338 -150 330 -143 318 -137 ct 333 -134 345 -127 353 -116 ct 361 -105 365 -91 365 -75 ct 
365 -53 357 -34 341 -19 ct 325 -4 305 4 280 4 ct 258 4 240 -3 225 -16 ct 210 -29 202 -46 200 -67 ct 
p ef
pom
pum
12604 20767 t
178 -30 m  178 0 l  11 0 l  10 -7 12 -15 14 -22 ct 19 -33 25 -44 35 -55 ct 44 -66 58 -79 75 -93 ct 
103 -116 121 -134 131 -147 ct 141 -160 145 -173 145 -184 ct 145 -197 141 -207 132 -215 ct 
124 -224 112 -228 98 -228 ct 83 -228 71 -224 62 -215 ct 53 -206 49 -193 48 -177 ct 
17 -181 l  19 -204 27 -222 41 -235 ct 55 -247 75 -254 99 -254 ct 123 -254 142 -247 156 -233 ct 
170 -220 177 -203 177 -184 ct 177 -173 175 -163 171 -154 ct 167 -144 160 -134 151 -123 ct 
141 -112 125 -97 103 -78 ct 84 -63 72 -52 67 -47 ct 62 -41 57 -35 54 -30 ct 178 -30 l 
p ef
299 0 m  299 -61 l  189 -61 l  189 -89 l  305 -252 l  330 -252 l  330 -89 l 
364 -89 l  364 -61 l  330 -61 l  330 0 l  299 0 l  p
299 -89 m  299 -203 l  220 -89 l  299 -89 l  p ef
pom
pum
13018 20767 t
178 -30 m  178 0 l  11 0 l  10 -7 12 -15 14 -22 ct 19 -33 25 -44 35 -55 ct 44 -66 58 -79 75 -93 ct 
103 -116 121 -134 131 -147 ct 141 -160 145 -173 145 -184 ct 145 -197 141 -207 132 -215 ct 
124 -224 112 -228 98 -228 ct 83 -228 71 -224 62 -215 ct 53 -206 49 -193 48 -177 ct 
17 -181 l  19 -204 27 -222 41 -235 ct 55 -247 75 -254 99 -254 ct 123 -254 142 -247 156 -233 ct 
170 -220 177 -203 177 -184 ct 177 -173 175 -163 171 -154 ct 167 -144 160 -134 151 -123 ct 
141 -112 125 -97 103 -78 ct 84 -63 72 -52 67 -47 ct 62 -41 57 -35 54 -30 ct 178 -30 l 
p ef
200 -66 m  232 -69 l  235 -53 240 -41 249 -33 ct 258 -25 268 -21 281 -21 ct 
296 -21 308 -27 319 -38 ct 329 -50 334 -64 334 -83 ct 334 -101 329 -115 319 -125 ct 
309 -135 296 -140 280 -140 ct 270 -140 261 -138 253 -133 ct 245 -129 239 -123 234 -116 ct 
205 -119 l  230 -249 l  355 -249 l  355 -219 l  254 -219 l  241 -152 l 
256 -162 272 -167 289 -167 ct 311 -167 329 -160 344 -145 ct 360 -129 367 -110 367 -86 ct 
367 -63 361 -43 347 -27 ct 331 -6 309 4 281 4 ct 258 4 239 -2 225 -15 ct 210 -28 202 -45 200 -66 ct 
p ef
pom
pum
2849 20320 t
132 0 m  100 0 l  100 -198 l  93 -190 83 -183 71 -176 ct 59 -169 48 -164 38 -160 ct 
38 -190 l  56 -198 71 -208 84 -220 ct 97 -231 106 -243 112 -253 ct 132 -253 l 
132 0 l  p ef
pom
pum
2664 19427 t
132 0 m  100 0 l  100 -198 l  93 -190 83 -183 71 -176 ct 59 -169 48 -164 38 -160 ct 
38 -190 l  56 -198 71 -208 84 -220 ct 97 -231 106 -243 112 -253 ct 132 -253 l 
132 0 l  p ef
200 -125 m  200 -155 203 -179 209 -197 ct 215 -215 224 -229 236 -239 ct 248 -249 264 -254 282 -254 ct 
296 -254 307 -251 318 -245 ct 328 -240 336 -232 343 -222 ct 350 -212 355 -199 359 -184 ct 
363 -170 364 -150 364 -125 ct 364 -95 361 -71 355 -53 ct 349 -35 340 -21 328 -11 ct 
316 -1 301 4 282 4 ct 258 4 239 -5 225 -22 ct 208 -43 200 -77 200 -125 ct p
232 -125 m  232 -83 236 -56 246 -42 ct 256 -28 268 -21 282 -21 ct 296 -21 308 -28 318 -42 ct 
328 -56 333 -83 333 -125 ct 333 -166 328 -194 318 -208 ct 308 -221 296 -228 282 -228 ct 
267 -228 256 -222 248 -210 ct 237 -195 232 -166 232 -125 ct p ef
pom
pum
2478 18534 t
132 0 m  100 0 l  100 -198 l  93 -190 83 -183 71 -176 ct 59 -169 48 -164 38 -160 ct 
38 -190 l  56 -198 71 -208 84 -220 ct 97 -231 106 -243 112 -253 ct 132 -253 l 
132 0 l  p ef
200 -125 m  200 -155 203 -179 209 -197 ct 215 -215 224 -229 236 -239 ct 248 -249 264 -254 282 -254 ct 
296 -254 307 -251 318 -245 ct 328 -240 336 -232 343 -222 ct 350 -212 355 -199 359 -184 ct 
363 -170 364 -150 364 -125 ct 364 -95 361 -71 355 -53 ct 349 -35 340 -21 328 -11 ct 
316 -1 301 4 282 4 ct 258 4 239 -5 225 -22 ct 208 -43 200 -77 200 -125 ct p
232 -125 m  232 -83 236 -56 246 -42 ct 256 -28 268 -21 282 -21 ct 296 -21 308 -28 318 -42 ct 
328 -56 333 -83 333 -125 ct 333 -166 328 -194 318 -208 ct 308 -221 296 -228 282 -228 ct 
267 -228 256 -222 248 -210 ct 237 -195 232 -166 232 -125 ct p ef
385 -125 m  385 -155 388 -179 394 -197 ct 400 -215 409 -229 421 -239 ct 433 -249 449 -254 467 -254 ct 
481 -254 492 -251 503 -245 ct 513 -240 521 -232 528 -222 ct 535 -212 540 -199 544 -184 ct 
548 -170 549 -150 549 -125 ct 549 -95 546 -71 540 -53 ct 534 -35 525 -21 513 -11 ct 
501 -1 486 4 467 4 ct 443 4 424 -5 410 -22 ct 393 -43 385 -77 385 -125 ct p
417 -125 m  417 -83 421 -56 431 -42 ct 441 -28 453 -21 467 -21 ct 481 -21 493 -28 503 -42 ct 
513 -56 518 -83 518 -125 ct 518 -166 513 -194 503 -208 ct 493 -221 481 -228 467 -228 ct 
452 -228 441 -222 433 -210 ct 422 -195 417 -166 417 -125 ct p ef
pom
pum
2293 17641 t
132 0 m  100 0 l  100 -198 l  93 -190 83 -183 71 -176 ct 59 -169 48 -164 38 -160 ct 
38 -190 l  56 -198 71 -208 84 -220 ct 97 -231 106 -243 112 -253 ct 132 -253 l 
132 0 l  p ef
200 -125 m  200 -155 203 -179 209 -197 ct 215 -215 224 -229 236 -239 ct 248 -249 264 -254 282 -254 ct 
296 -254 307 -251 318 -245 ct 328 -240 336 -232 343 -222 ct 350 -212 355 -199 359 -184 ct 
363 -170 364 -150 364 -125 ct 364 -95 361 -71 355 -53 ct 349 -35 340 -21 328 -11 ct 
316 -1 301 4 282 4 ct 258 4 239 -5 225 -22 ct 208 -43 200 -77 200 -125 ct p
232 -125 m  232 -83 236 -56 246 -42 ct 256 -28 268 -21 282 -21 ct 296 -21 308 -28 318 -42 ct 
328 -56 333 -83 333 -125 ct 333 -166 328 -194 318 -208 ct 308 -221 296 -228 282 -228 ct 
267 -228 256 -222 248 -210 ct 237 -195 232 -166 232 -125 ct p ef
385 -125 m  385 -155 388 -179 394 -197 ct 400 -215 409 -229 421 -239 ct 433 -249 449 -254 467 -254 ct 
481 -254 492 -251 503 -245 ct 513 -240 521 -232 528 -222 ct 535 -212 540 -199 544 -184 ct 
548 -170 549 -150 549 -125 ct 549 -95 546 -71 540 -53 ct 534 -35 525 -21 513 -11 ct 
501 -1 486 4 467 4 ct 443 4 424 -5 410 -22 ct 393 -43 385 -77 385 -125 ct p
417 -125 m  417 -83 421 -56 431 -42 ct 441 -28 453 -21 467 -21 ct 481 -21 493 -28 503 -42 ct 
513 -56 518 -83 518 -125 ct 518 -166 513 -194 503 -208 ct 493 -221 481 -228 467 -228 ct 
452 -228 441 -222 433 -210 ct 422 -195 417 -166 417 -125 ct p ef
571 -125 m  571 -155 574 -179 580 -197 ct 586 -215 595 -229 607 -239 ct 619 -249 635 -254 653 -254 ct 
667 -254 678 -251 689 -245 ct 699 -240 707 -232 714 -222 ct 721 -212 726 -199 730 -184 ct 
734 -170 735 -150 735 -125 ct 735 -95 732 -71 726 -53 ct 720 -35 711 -21 699 -11 ct 
687 -1 672 4 653 4 ct 629 4 610 -5 596 -22 ct 579 -43 571 -77 571 -125 ct p
603 -125 m  603 -83 607 -56 617 -42 ct 627 -28 639 -21 653 -21 ct 667 -21 679 -28 689 -42 ct 
699 -56 704 -83 704 -125 ct 704 -166 699 -194 689 -208 ct 679 -221 667 -228 653 -228 ct 
638 -228 627 -222 619 -210 ct 608 -195 603 -166 603 -125 ct p ef
pom
pum
2108 16747 t
132 0 m  100 0 l  100 -198 l  93 -190 83 -183 71 -176 ct 59 -169 48 -164 38 -160 ct 
38 -190 l  56 -198 71 -208 84 -220 ct 97 -231 106 -243 112 -253 ct 132 -253 l 
132 0 l  p ef
200 -125 m  200 -155 203 -179 209 -197 ct 215 -215 224 -229 236 -239 ct 248 -249 264 -254 282 -254 ct 
296 -254 307 -251 318 -245 ct 328 -240 336 -232 343 -222 ct 350 -212 355 -199 359 -184 ct 
363 -170 364 -150 364 -125 ct 364 -95 361 -71 355 -53 ct 349 -35 340 -21 328 -11 ct 
316 -1 301 4 282 4 ct 258 4 239 -5 225 -22 ct 208 -43 200 -77 200 -125 ct p
232 -125 m  232 -83 236 -56 246 -42 ct 256 -28 268 -21 282 -21 ct 296 -21 308 -28 318 -42 ct 
328 -56 333 -83 333 -125 ct 333 -166 328 -194 318 -208 ct 308 -221 296 -228 282 -228 ct 
267 -228 256 -222 248 -210 ct 237 -195 232 -166 232 -125 ct p ef
385 -125 m  385 -155 388 -179 394 -197 ct 400 -215 409 -229 421 -239 ct 433 -249 449 -254 467 -254 ct 
481 -254 492 -251 503 -245 ct 513 -240 521 -232 528 -222 ct 535 -212 540 -199 544 -184 ct 
548 -170 549 -150 549 -125 ct 549 -95 546 -71 540 -53 ct 534 -35 525 -21 513 -11 ct 
501 -1 486 4 467 4 ct 443 4 424 -5 410 -22 ct 393 -43 385 -77 385 -125 ct p
417 -125 m  417 -83 421 -56 431 -42 ct 441 -28 453 -21 467 -21 ct 481 -21 493 -28 503 -42 ct 
513 -56 518 -83 518 -125 ct 518 -166 513 -194 503 -208 ct 493 -221 481 -228 467 -228 ct 
452 -228 441 -222 433 -210 ct 422 -195 417 -166 417 -125 ct p ef
571 -125 m  571 -155 574 -179 580 -197 ct 586 -215 595 -229 607 -239 ct 619 -249 635 -254 653 -254 ct 
667 -254 678 -251 689 -245 ct 699 -240 707 -232 714 -222 ct 721 -212 726 -199 730 -184 ct 
734 -170 735 -150 735 -125 ct 735 -95 732 -71 726 -53 ct 720 -35 711 -21 699 -11 ct 
687 -1 672 4 653 4 ct 629 4 610 -5 596 -22 ct 579 -43 571 -77 571 -125 ct p
603 -125 m  603 -83 607 -56 617 -42 ct 627 -28 639 -21 653 -21 ct 667 -21 679 -28 689 -42 ct 
699 -56 704 -83 704 -125 ct 704 -166 699 -194 689 -208 ct 679 -221 667 -228 653 -228 ct 
638 -228 627 -222 619 -210 ct 608 -195 603 -166 603 -125 ct p ef
756 -125 m  756 -155 759 -179 765 -197 ct 771 -215 780 -229 792 -239 ct 804 -249 820 -254 838 -254 ct 
852 -254 863 -251 874 -245 ct 884 -240 892 -232 899 -222 ct 906 -212 911 -199 915 -184 ct 
919 -170 920 -150 920 -125 ct 920 -95 917 -71 911 -53 ct 905 -35 896 -21 884 -11 ct 
872 -1 857 4 838 4 ct 814 4 795 -5 781 -22 ct 764 -43 756 -77 756 -125 ct p
788 -125 m  788 -83 792 -56 802 -42 ct 812 -28 824 -21 838 -21 ct 852 -21 864 -28 874 -42 ct 
884 -56 889 -83 889 -125 ct 889 -166 884 -194 874 -208 ct 864 -221 852 -228 838 -228 ct 
823 -228 812 -222 804 -210 ct 793 -195 788 -166 788 -125 ct p ef
pom
pum
1923 15854 t
132 0 m  100 0 l  100 -198 l  93 -190 83 -183 71 -176 ct 59 -169 48 -164 38 -160 ct 
38 -190 l  56 -198 71 -208 84 -220 ct 97 -231 106 -243 112 -253 ct 132 -253 l 
132 0 l  p ef
200 -125 m  200 -155 203 -179 209 -197 ct 215 -215 224 -229 236 -239 ct 248 -249 264 -254 282 -254 ct 
296 -254 307 -251 318 -245 ct 328 -240 336 -232 343 -222 ct 350 -212 355 -199 359 -184 ct 
363 -170 364 -150 364 -125 ct 364 -95 361 -71 355 -53 ct 349 -35 340 -21 328 -11 ct 
316 -1 301 4 282 4 ct 258 4 239 -5 225 -22 ct 208 -43 200 -77 200 -125 ct p
232 -125 m  232 -83 236 -56 246 -42 ct 256 -28 268 -21 282 -21 ct 296 -21 308 -28 318 -42 ct 
328 -56 333 -83 333 -125 ct 333 -166 328 -194 318 -208 ct 308 -221 296 -228 282 -228 ct 
267 -228 256 -222 248 -210 ct 237 -195 232 -166 232 -125 ct p ef
385 -125 m  385 -155 388 -179 394 -197 ct 400 -215 409 -229 421 -239 ct 433 -249 449 -254 467 -254 ct 
481 -254 492 -251 503 -245 ct 513 -240 521 -232 528 -222 ct 535 -212 540 -199 544 -184 ct 
548 -170 549 -150 549 -125 ct 549 -95 546 -71 540 -53 ct 534 -35 525 -21 513 -11 ct 
501 -1 486 4 467 4 ct 443 4 424 -5 410 -22 ct 393 -43 385 -77 385 -125 ct p
417 -125 m  417 -83 421 -56 431 -42 ct 441 -28 453 -21 467 -21 ct 481 -21 493 -28 503 -42 ct 
513 -56 518 -83 518 -125 ct 518 -166 513 -194 503 -208 ct 493 -221 481 -228 467 -228 ct 
452 -228 441 -222 433 -210 ct 422 -195 417 -166 417 -125 ct p ef
571 -125 m  571 -155 574 -179 580 -197 ct 586 -215 595 -229 607 -239 ct 619 -249 635 -254 653 -254 ct 
667 -254 678 -251 689 -245 ct 699 -240 707 -232 714 -222 ct 721 -212 726 -199 730 -184 ct 
734 -170 735 -150 735 -125 ct 735 -95 732 -71 726 -53 ct 720 -35 711 -21 699 -11 ct 
687 -1 672 4 653 4 ct 629 4 610 -5 596 -22 ct 579 -43 571 -77 571 -125 ct p
603 -125 m  603 -83 607 -56 617 -42 ct 627 -28 639 -21 653 -21 ct 667 -21 679 -28 689 -42 ct 
699 -56 704 -83 704 -125 ct 704 -166 699 -194 689 -208 ct 679 -221 667 -228 653 -228 ct 
638 -228 627 -222 619 -210 ct 608 -195 603 -166 603 -125 ct p ef
756 -125 m  756 -155 759 -179 765 -197 ct 771 -215 780 -229 792 -239 ct 804 -249 820 -254 838 -254 ct 
852 -254 863 -251 874 -245 ct 884 -240 892 -232 899 -222 ct 906 -212 911 -199 915 -184 ct 
919 -170 920 -150 920 -125 ct 920 -95 917 -71 911 -53 ct 905 -35 896 -21 884 -11 ct 
872 -1 857 4 838 4 ct 814 4 795 -5 781 -22 ct 764 -43 756 -77 756 -125 ct p
788 -125 m  788 -83 792 -56 802 -42 ct 812 -28 824 -21 838 -21 ct 852 -21 864 -28 874 -42 ct 
884 -56 889 -83 889 -125 ct 889 -166 884 -194 874 -208 ct 864 -221 852 -228 838 -228 ct 
823 -228 812 -222 804 -210 ct 793 -195 788 -166 788 -125 ct p ef
941 -125 m  941 -155 944 -179 950 -197 ct 956 -215 965 -229 977 -239 ct 989 -249 1005 -254 1023 -254 ct 
1037 -254 1048 -251 1059 -245 ct 1069 -240 1077 -232 1084 -222 ct 1091 -212 1096 -199 1100 -184 ct 
1104 -170 1105 -150 1105 -125 ct 1105 -95 1102 -71 1096 -53 ct 1090 -35 1081 -21 1069 -11 ct 
1057 -1 1042 4 1023 4 ct 999 4 980 -5 966 -22 ct 949 -43 941 -77 941 -125 ct p
973 -125 m  973 -83 977 -56 987 -42 ct 997 -28 1009 -21 1023 -21 ct 1037 -21 1049 -28 1059 -42 ct 
1069 -56 1074 -83 1074 -125 ct 1074 -166 1069 -194 1059 -208 ct 1049 -221 1037 -228 1023 -228 ct 
1008 -228 997 -222 989 -210 ct 978 -195 973 -166 973 -125 ct p ef
pom
pum
1738 14961 t
132 0 m  100 0 l  100 -198 l  93 -190 83 -183 71 -176 ct 59 -169 48 -164 38 -160 ct 
38 -190 l  56 -198 71 -208 84 -220 ct 97 -231 106 -243 112 -253 ct 132 -253 l 
132 0 l  p ef
200 -125 m  200 -155 203 -179 209 -197 ct 215 -215 224 -229 236 -239 ct 248 -249 264 -254 282 -254 ct 
296 -254 307 -251 318 -245 ct 328 -240 336 -232 343 -222 ct 350 -212 355 -199 359 -184 ct 
363 -170 364 -150 364 -125 ct 364 -95 361 -71 355 -53 ct 349 -35 340 -21 328 -11 ct 
316 -1 301 4 282 4 ct 258 4 239 -5 225 -22 ct 208 -43 200 -77 200 -125 ct p
232 -125 m  232 -83 236 -56 246 -42 ct 256 -28 268 -21 282 -21 ct 296 -21 308 -28 318 -42 ct 
328 -56 333 -83 333 -125 ct 333 -166 328 -194 318 -208 ct 308 -221 296 -228 282 -228 ct 
267 -228 256 -222 248 -210 ct 237 -195 232 -166 232 -125 ct p ef
385 -125 m  385 -155 388 -179 394 -197 ct 400 -215 409 -229 421 -239 ct 433 -249 449 -254 467 -254 ct 
481 -254 492 -251 503 -245 ct 513 -240 521 -232 528 -222 ct 535 -212 540 -199 544 -184 ct 
548 -170 549 -150 549 -125 ct 549 -95 546 -71 540 -53 ct 534 -35 525 -21 513 -11 ct 
501 -1 486 4 467 4 ct 443 4 424 -5 410 -22 ct 393 -43 385 -77 385 -125 ct p
417 -125 m  417 -83 421 -56 431 -42 ct 441 -28 453 -21 467 -21 ct 481 -21 493 -28 503 -42 ct 
513 -56 518 -83 518 -125 ct 518 -166 513 -194 503 -208 ct 493 -221 481 -228 467 -228 ct 
452 -228 441 -222 433 -210 ct 422 -195 417 -166 417 -125 ct p ef
571 -125 m  571 -155 574 -179 580 -197 ct 586 -215 595 -229 607 -239 ct 619 -249 635 -254 653 -254 ct 
667 -254 678 -251 689 -245 ct 699 -240 707 -232 714 -222 ct 721 -212 726 -199 730 -184 ct 
734 -170 735 -150 735 -125 ct 735 -95 732 -71 726 -53 ct 720 -35 711 -21 699 -11 ct 
687 -1 672 4 653 4 ct 629 4 610 -5 596 -22 ct 579 -43 571 -77 571 -125 ct p
603 -125 m  603 -83 607 -56 617 -42 ct 627 -28 639 -21 653 -21 ct 667 -21 679 -28 689 -42 ct 
699 -56 704 -83 704 -125 ct 704 -166 699 -194 689 -208 ct 679 -221 667 -228 653 -228 ct 
638 -228 627 -222 619 -210 ct 608 -195 603 -166 603 -125 ct p ef
756 -125 m  756 -155 759 -179 765 -197 ct 771 -215 780 -229 792 -239 ct 804 -249 820 -254 838 -254 ct 
852 -254 863 -251 874 -245 ct 884 -240 892 -232 899 -222 ct 906 -212 911 -199 915 -184 ct 
919 -170 920 -150 920 -125 ct 920 -95 917 -71 911 -53 ct 905 -35 896 -21 884 -11 ct 
872 -1 857 4 838 4 ct 814 4 795 -5 781 -22 ct 764 -43 756 -77 756 -125 ct p
788 -125 m  788 -83 792 -56 802 -42 ct 812 -28 824 -21 838 -21 ct 852 -21 864 -28 874 -42 ct 
884 -56 889 -83 889 -125 ct 889 -166 884 -194 874 -208 ct 864 -221 852 -228 838 -228 ct 
823 -228 812 -222 804 -210 ct 793 -195 788 -166 788 -125 ct p ef
941 -125 m  941 -155 944 -179 950 -197 ct 956 -215 965 -229 977 -239 ct 989 -249 1005 -254 1023 -254 ct 
1037 -254 1048 -251 1059 -245 ct 1069 -240 1077 -232 1084 -222 ct 1091 -212 1096 -199 1100 -184 ct 
1104 -170 1105 -150 1105 -125 ct 1105 -95 1102 -71 1096 -53 ct 1090 -35 1081 -21 1069 -11 ct 
1057 -1 1042 4 1023 4 ct 999 4 980 -5 966 -22 ct 949 -43 941 -77 941 -125 ct p
973 -125 m  973 -83 977 -56 987 -42 ct 997 -28 1009 -21 1023 -21 ct 1037 -21 1049 -28 1059 -42 ct 
1069 -56 1074 -83 1074 -125 ct 1074 -166 1069 -194 1059 -208 ct 1049 -221 1037 -228 1023 -228 ct 
1008 -228 997 -222 989 -210 ct 978 -195 973 -166 973 -125 ct p ef
1126 -125 m  1126 -155 1129 -179 1135 -197 ct 1141 -215 1150 -229 1162 -239 ct 
1174 -249 1190 -254 1208 -254 ct 1222 -254 1233 -251 1244 -245 ct 1254 -240 1262 -232 1269 -222 ct 
1276 -212 1281 -199 1285 -184 ct 1289 -170 1290 -150 1290 -125 ct 1290 -95 1287 -71 1281 -53 ct 
1275 -35 1266 -21 1254 -11 ct 1242 -1 1227 4 1208 4 ct 1184 4 1165 -5 1151 -22 ct 
1134 -43 1126 -77 1126 -125 ct p
1158 -125 m  1158 -83 1162 -56 1172 -42 ct 1182 -28 1194 -21 1208 -21 ct 1222 -21 1234 -28 1244 -42 ct 
1254 -56 1259 -83 1259 -125 ct 1259 -166 1254 -194 1244 -208 ct 1234 -221 1222 -228 1208 -228 ct 
1193 -228 1182 -222 1174 -210 ct 1163 -195 1158 -166 1158 -125 ct p ef
pom
pum
4702 13860 t
21 -105 m  62 -109 l  64 -93 68 -79 75 -68 ct 82 -58 93 -49 108 -43 ct 123 -36 140 -33 159 -33 ct 
175 -33 190 -36 203 -41 ct 215 -45 225 -52 231 -61 ct 237 -69 240 -79 240 -89 ct 
240 -99 237 -108 231 -116 ct 225 -124 215 -130 202 -135 ct 193 -139 173 -144 143 -152 ct 
113 -159 92 -166 80 -172 ct 64 -180 52 -191 45 -203 ct 37 -215 33 -229 33 -244 ct 
33 -260 38 -276 47 -290 ct 57 -305 70 -316 89 -323 ct 107 -331 127 -334 149 -334 ct 
173 -334 195 -330 213 -323 ct 232 -315 246 -303 256 -288 ct 266 -273 272 -255 272 -236 ct 
231 -233 l  228 -254 221 -269 208 -280 ct 195 -291 176 -296 151 -296 ct 124 -296 105 -291 93 -282 ct 
81 -272 75 -260 75 -247 ct 75 -235 79 -225 88 -217 ct 96 -210 118 -202 153 -194 ct 
189 -186 213 -179 226 -173 ct 245 -164 259 -153 269 -139 ct 278 -126 282 -110 282 -93 ct 
282 -75 277 -59 267 -43 ct 257 -28 243 -16 224 -7 ct 205 2 184 6 161 6 ct 131 6 106 2 86 -7 ct 
66 -16 50 -29 39 -46 ct 27 -64 21 -83 21 -105 ct p ef
477 -88 m  516 -83 l  512 -55 501 -34 483 -18 ct 465 -3 443 5 417 5 ct 385 5 358 -6 339 -27 ct 
319 -48 309 -79 309 -119 ct 309 -144 313 -167 322 -186 ct 330 -206 343 -220 361 -230 ct 
378 -239 397 -244 417 -244 ct 443 -244 464 -238 481 -225 ct 497 -212 508 -193 512 -169 ct 
473 -163 l  469 -179 463 -191 453 -199 ct 444 -207 432 -211 419 -211 ct 399 -211 382 -204 369 -189 ct 
357 -175 350 -151 350 -120 ct 350 -88 357 -65 369 -50 ct 381 -36 397 -28 417 -28 ct 
433 -28 446 -33 456 -43 ct 467 -53 474 -68 477 -88 ct p ef
559 0 m  559 -329 l  600 -329 l  600 -211 l  618 -233 642 -244 671 -244 ct 
689 -244 704 -241 717 -234 ct 730 -227 739 -217 745 -205 ct 750 -192 753 -175 753 -151 ct 
753 0 l  713 0 l  713 -151 l  713 -171 708 -186 700 -195 ct 691 -205 679 -209 663 -209 ct 
651 -209 639 -206 629 -200 ct 618 -194 611 -185 606 -175 ct 602 -164 600 -149 600 -131 ct 
600 0 l  559 0 l  p ef
960 -77 m  1002 -72 l  995 -48 983 -29 965 -15 ct 948 -2 925 5 897 5 ct 862 5 835 -6 814 -27 ct 
794 -49 784 -79 784 -118 ct 784 -158 794 -189 815 -211 ct 835 -233 862 -244 895 -244 ct 
927 -244 953 -233 973 -212 ct 993 -190 1003 -159 1003 -120 ct 1003 -117 1003 -114 1003 -109 ct 
826 -109 l  827 -83 834 -63 848 -49 ct 861 -35 878 -28 897 -28 ct 912 -28 925 -32 935 -40 ct 
946 -48 954 -60 960 -77 ct p
828 -142 m  961 -142 l  959 -162 954 -177 945 -188 ct 933 -203 916 -211 895 -211 ct 
877 -211 861 -205 849 -192 ct 836 -180 829 -163 828 -142 ct p ef
1190 -1 m  1190 -31 l  1175 -7 1152 5 1123 5 ct 1104 5 1087 0 1071 -11 ct 1055 -21 1043 -36 1034 -55 ct 
1025 -73 1021 -95 1021 -120 ct 1021 -143 1025 -165 1033 -184 ct 1040 -204 1052 -219 1068 -229 ct 
1084 -239 1102 -244 1121 -244 ct 1136 -244 1148 -241 1160 -235 ct 1171 -229 1180 -221 1187 -212 ct 
1187 -330 l  1227 -330 l  1227 -1 l  1190 -1 l  p
1062 -120 m  1062 -89 1069 -66 1081 -51 ct 1094 -36 1109 -28 1127 -28 ct 1145 -28 1160 -35 1172 -50 ct 
1184 -64 1190 -86 1190 -116 ct 1190 -149 1184 -173 1172 -188 ct 1159 -203 1144 -211 1125 -211 ct 
1107 -211 1092 -204 1080 -189 ct 1068 -174 1062 -151 1062 -120 ct p ef
1430 0 m  1430 -35 l  1412 -8 1387 5 1355 5 ct 1341 5 1328 2 1315 -3 ct 1303 -8 1294 -15 1288 -23 ct 
1282 -32 1278 -42 1276 -53 ct 1274 -61 1273 -74 1273 -91 ct 1273 -239 l  1314 -239 l 
1314 -107 l  1314 -86 1315 -71 1316 -64 ct 1319 -53 1324 -45 1332 -39 ct 1341 -33 1351 -30 1363 -30 ct 
1375 -30 1386 -33 1397 -39 ct 1407 -45 1415 -54 1419 -65 ct 1424 -75 1426 -91 1426 -111 ct 
1426 -239 l  1466 -239 l  1466 0 l  1430 0 l  p ef
1511 0 m  1511 -329 l  1552 -329 l  1552 0 l  1511 0 l  p ef
1754 -77 m  1796 -72 l  1789 -48 1777 -29 1759 -15 ct 1742 -2 1719 5 1691 5 ct 
1656 5 1629 -6 1608 -27 ct 1588 -49 1578 -79 1578 -118 ct 1578 -158 1588 -189 1609 -211 ct 
1629 -233 1656 -244 1689 -244 ct 1721 -244 1747 -233 1767 -212 ct 1787 -190 1797 -159 1797 -120 ct 
1797 -117 1797 -114 1797 -109 ct 1620 -109 l  1621 -83 1628 -63 1642 -49 ct 
1655 -35 1672 -28 1691 -28 ct 1706 -28 1719 -32 1729 -40 ct 1740 -48 1748 -60 1754 -77 ct 
p
1622 -142 m  1755 -142 l  1753 -162 1748 -177 1739 -188 ct 1727 -203 1710 -211 1689 -211 ct 
1671 -211 1655 -205 1643 -192 ct 1630 -180 1623 -163 1622 -142 ct p ef
1829 0 m  1829 -239 l  1865 -239 l  1865 -202 l  1874 -219 1883 -231 1891 -236 ct 
1899 -241 1907 -244 1917 -244 ct 1930 -244 1944 -240 1958 -231 ct 1944 -193 l 
1934 -199 1925 -202 1915 -202 ct 1906 -202 1898 -200 1891 -194 ct 1884 -189 1879 -182 1876 -172 ct 
1871 -158 1869 -142 1869 -125 ct 1869 0 l  1829 0 l  p ef
2120 91 m  2120 -239 l  2157 -239 l  2157 -208 l  2166 -220 2175 -230 2186 -236 ct 
2197 -242 2211 -245 2226 -245 ct 2246 -245 2264 -239 2280 -229 ct 2295 -218 2307 -204 2315 -185 ct 
2323 -165 2327 -144 2327 -122 ct 2327 -97 2323 -75 2314 -56 ct 2305 -36 2292 -21 2276 -11 ct 
2259 0 2242 5 2223 5 ct 2210 5 2198 2 2187 -4 ct 2176 -9 2167 -16 2161 -25 ct 2161 91 l 
2120 91 l  p
2157 -118 m  2157 -88 2163 -65 2175 -50 ct 2188 -36 2203 -28 2220 -28 ct 2238 -28 2254 -36 2266 -51 ct 
2279 -66 2286 -90 2286 -122 ct 2286 -152 2279 -175 2267 -190 ct 2254 -205 2240 -213 2222 -213 ct 
2205 -213 2190 -205 2177 -189 ct 2163 -173 2157 -149 2157 -118 ct p ef
2521 -77 m  2563 -72 l  2556 -48 2544 -29 2526 -15 ct 2509 -2 2486 5 2458 5 ct 
2423 5 2396 -6 2375 -27 ct 2355 -49 2345 -79 2345 -118 ct 2345 -158 2355 -189 2376 -211 ct 
2396 -233 2423 -244 2456 -244 ct 2488 -244 2514 -233 2534 -212 ct 2554 -190 2564 -159 2564 -120 ct 
2564 -117 2564 -114 2564 -109 ct 2387 -109 l  2388 -83 2395 -63 2409 -49 ct 
2422 -35 2439 -28 2458 -28 ct 2473 -28 2486 -32 2496 -40 ct 2507 -48 2515 -60 2521 -77 ct 
p
2389 -142 m  2522 -142 l  2520 -162 2515 -177 2506 -188 ct 2494 -203 2477 -211 2456 -211 ct 
2438 -211 2422 -205 2410 -192 ct 2397 -180 2390 -163 2389 -142 ct p ef
2596 0 m  2596 -239 l  2632 -239 l  2632 -202 l  2641 -219 2650 -231 2658 -236 ct 
2666 -241 2674 -244 2684 -244 ct 2697 -244 2711 -240 2725 -231 ct 2711 -193 l 
2701 -199 2692 -202 2682 -202 ct 2673 -202 2665 -200 2658 -194 ct 2651 -189 2646 -182 2643 -172 ct 
2638 -158 2636 -142 2636 -125 ct 2636 0 l  2596 0 l  p ef
2765 0 m  2765 -207 l  2729 -207 l  2729 -238 l  2765 -238 l  2765 -264 l 
2765 -280 2766 -292 2769 -300 ct 2773 -310 2780 -319 2790 -325 ct 2799 -332 2813 -335 2831 -335 ct 
2842 -335 2855 -334 2868 -331 ct 2862 -296 l  2854 -297 2846 -298 2839 -298 ct 
2826 -298 2818 -295 2813 -290 ct 2808 -285 2805 -275 2805 -261 ct 2805 -238 l 
2851 -238 l  2851 -207 l  2805 -207 l  2805 0 l  2765 0 l  p ef
2873 -120 m  2873 -164 2885 -197 2910 -218 ct 2930 -236 2955 -244 2985 -244 ct 
3018 -244 3044 -234 3065 -212 ct 3086 -191 3096 -161 3096 -123 ct 3096 -92 3092 -68 3082 -51 ct 
3073 -33 3060 -19 3042 -10 ct 3025 0 3006 5 2985 5 ct 2952 5 2925 -6 2904 -27 ct 
2884 -49 2873 -79 2873 -120 ct p
2915 -120 m  2915 -89 2921 -66 2935 -51 ct 2948 -36 2965 -28 2985 -28 ct 3005 -28 3022 -36 3035 -51 ct 
3048 -66 3055 -90 3055 -121 ct 3055 -151 3048 -173 3035 -188 ct 3021 -203 3005 -211 2985 -211 ct 
2965 -211 2948 -203 2935 -188 ct 2921 -173 2915 -150 2915 -120 ct p ef
3126 0 m  3126 -239 l  3162 -239 l  3162 -202 l  3171 -219 3180 -231 3188 -236 ct 
3196 -241 3204 -244 3214 -244 ct 3227 -244 3241 -240 3255 -231 ct 3241 -193 l 
3231 -199 3222 -202 3212 -202 ct 3203 -202 3195 -200 3188 -194 ct 3181 -189 3176 -182 3173 -172 ct 
3168 -158 3166 -142 3166 -125 ct 3166 0 l  3126 0 l  p ef
3284 0 m  3284 -239 l  3320 -239 l  3320 -205 l  3328 -217 3338 -226 3350 -233 ct 
3363 -240 3377 -244 3393 -244 ct 3410 -244 3425 -240 3436 -233 ct 3447 -226 3455 -215 3460 -202 ct 
3479 -230 3503 -244 3533 -244 ct 3557 -244 3575 -237 3588 -224 ct 3600 -211 3607 -191 3607 -164 ct 
3607 0 l  3567 0 l  3567 -150 l  3567 -166 3565 -178 3563 -185 ct 3560 -192 3555 -198 3549 -202 ct 
3542 -207 3534 -209 3524 -209 ct 3508 -209 3494 -203 3483 -192 ct 3472 -181 3466 -163 3466 -139 ct 
3466 0 l  3426 0 l  3426 -155 l  3426 -173 3422 -186 3416 -195 ct 3409 -204 3398 -209 3384 -209 ct 
3372 -209 3362 -206 3352 -200 ct 3342 -194 3335 -185 3331 -174 ct 3327 -162 3325 -146 3325 -124 ct 
3325 0 l  3284 0 l  p ef
3784 -30 m  3769 -17 3754 -8 3740 -3 ct 3727 2 3712 5 3696 5 ct 3670 5 3650 -1 3636 -14 ct 
3622 -27 3615 -43 3615 -63 ct 3615 -75 3617 -86 3623 -95 ct 3628 -105 3635 -113 3643 -119 ct 
3652 -124 3662 -129 3672 -132 ct 3680 -134 3692 -136 3708 -138 ct 3741 -142 3765 -146 3780 -152 ct 
3780 -157 3780 -161 3780 -162 ct 3780 -179 3777 -191 3769 -197 ct 3759 -206 3743 -211 3723 -211 ct 
3704 -211 3690 -208 3681 -201 ct 3672 -194 3665 -183 3661 -166 ct 3622 -171 l 
3625 -188 3631 -202 3639 -212 ct 3647 -222 3659 -230 3675 -236 ct 3690 -242 3708 -244 3729 -244 ct 
3749 -244 3766 -242 3778 -237 ct 3791 -232 3800 -226 3806 -219 ct 3812 -212 3817 -203 3819 -192 ct 
3820 -185 3821 -172 3821 -154 ct 3821 -100 l  3821 -63 3822 -39 3824 -29 ct 
3825 -19 3829 -10 3834 0 ct 3792 0 l  3787 -9 3785 -19 3784 -30 ct p
3780 -120 m  3766 -114 3744 -109 3714 -105 ct 3698 -103 3686 -100 3679 -97 ct 
3672 -94 3667 -89 3663 -84 ct 3659 -78 3658 -71 3658 -64 ct 3658 -54 3662 -45 3670 -37 ct 
3678 -30 3690 -27 3706 -27 ct 3721 -27 3735 -30 3747 -37 ct 3759 -44 3768 -53 3774 -65 ct 
3778 -74 3780 -88 3780 -105 ct 3780 -120 l  p ef
3866 0 m  3866 -239 l  3903 -239 l  3903 -205 l  3920 -231 3945 -244 3978 -244 ct 
3993 -244 4006 -241 4018 -236 ct 4030 -231 4039 -224 4045 -216 ct 4051 -208 4055 -198 4057 -186 ct 
4059 -179 4060 -165 4060 -147 ct 4060 0 l  4019 0 l  4019 -145 l  4019 -162 4018 -174 4015 -182 ct 
4011 -190 4006 -197 3998 -202 ct 3990 -207 3981 -209 3970 -209 ct 3953 -209 3938 -203 3925 -193 ct 
3913 -182 3907 -161 3907 -130 ct 3907 0 l  3866 0 l  p ef
4261 -88 m  4300 -83 l  4296 -55 4285 -34 4267 -18 ct 4249 -3 4227 5 4201 5 ct 
4169 5 4142 -6 4123 -27 ct 4103 -48 4093 -79 4093 -119 ct 4093 -144 4097 -167 4106 -186 ct 
4114 -206 4127 -220 4145 -230 ct 4162 -239 4181 -244 4201 -244 ct 4227 -244 4248 -238 4265 -225 ct 
4281 -212 4292 -193 4296 -169 ct 4257 -163 l  4253 -179 4247 -191 4237 -199 ct 
4228 -207 4216 -211 4203 -211 ct 4183 -211 4166 -204 4153 -189 ct 4141 -175 4134 -151 4134 -120 ct 
4134 -88 4141 -65 4153 -50 ct 4165 -36 4181 -28 4201 -28 ct 4217 -28 4230 -33 4240 -43 ct 
4251 -53 4258 -68 4261 -88 ct p ef
4506 -77 m  4548 -72 l  4541 -48 4529 -29 4511 -15 ct 4494 -2 4471 5 4443 5 ct 
4408 5 4381 -6 4360 -27 ct 4340 -49 4330 -79 4330 -118 ct 4330 -158 4340 -189 4361 -211 ct 
4381 -233 4408 -244 4441 -244 ct 4473 -244 4499 -233 4519 -212 ct 4539 -190 4549 -159 4549 -120 ct 
4549 -117 4549 -114 4549 -109 ct 4372 -109 l  4373 -83 4380 -63 4394 -49 ct 
4407 -35 4424 -28 4443 -28 ct 4458 -28 4471 -32 4481 -40 ct 4492 -48 4500 -60 4506 -77 ct 
p
4374 -142 m  4507 -142 l  4505 -162 4500 -177 4491 -188 ct 4479 -203 4462 -211 4441 -211 ct 
4423 -211 4407 -205 4395 -192 ct 4382 -180 4375 -163 4374 -142 ct p ef
4790 97 m  4768 69 4749 36 4734 -2 ct 4718 -40 4711 -79 4711 -119 ct 4711 -155 4717 -189 4728 -222 ct 
4742 -260 4762 -297 4790 -335 ct 4819 -335 l  4801 -304 4789 -281 4783 -268 ct 
4774 -247 4767 -226 4762 -203 ct 4755 -175 4752 -147 4752 -119 ct 4752 -47 4775 25 4819 97 ct 
4790 97 l  p ef
4871 0 m  4871 -329 l  4912 -329 l  4912 0 l  4871 0 l  p ef
5114 -77 m  5156 -72 l  5149 -48 5137 -29 5119 -15 ct 5102 -2 5079 5 5051 5 ct 
5016 5 4989 -6 4968 -27 ct 4948 -49 4938 -79 4938 -118 ct 4938 -158 4948 -189 4969 -211 ct 
4989 -233 5016 -244 5049 -244 ct 5081 -244 5107 -233 5127 -212 ct 5147 -190 5157 -159 5157 -120 ct 
5157 -117 5157 -114 5157 -109 ct 4980 -109 l  4981 -83 4988 -63 5002 -49 ct 
5015 -35 5032 -28 5051 -28 ct 5066 -28 5079 -32 5089 -40 ct 5100 -48 5108 -60 5114 -77 ct 
p
4982 -142 m  5115 -142 l  5113 -162 5108 -177 5099 -188 ct 5087 -203 5070 -211 5049 -211 ct 
5031 -211 5015 -205 5003 -192 ct 4990 -180 4983 -163 4982 -142 ct p ef
5173 -72 m  5213 -78 l  5215 -62 5221 -50 5232 -41 ct 5242 -33 5256 -28 5275 -28 ct 
5293 -28 5307 -32 5316 -40 ct 5325 -47 5329 -56 5329 -66 ct 5329 -75 5325 -83 5317 -88 ct 
5312 -91 5298 -96 5276 -101 ct 5247 -109 5226 -115 5215 -121 ct 5203 -126 5195 -134 5189 -144 ct 
5183 -153 5180 -164 5180 -176 ct 5180 -186 5182 -196 5187 -205 ct 5192 -214 5199 -222 5207 -228 ct 
5213 -232 5222 -236 5233 -239 ct 5243 -243 5255 -244 5267 -244 ct 5286 -244 5303 -242 5317 -236 ct 
5331 -231 5341 -223 5348 -214 ct 5355 -205 5359 -193 5362 -177 ct 5322 -172 l 
5321 -184 5315 -194 5307 -201 ct 5298 -208 5286 -211 5270 -211 ct 5252 -211 5239 -208 5231 -202 ct 
5223 -196 5219 -188 5219 -180 ct 5219 -175 5220 -170 5224 -166 ct 5227 -162 5232 -158 5239 -155 ct 
5243 -154 5255 -150 5275 -145 ct 5303 -137 5323 -131 5335 -126 ct 5346 -121 5355 -114 5361 -105 ct 
5368 -96 5371 -84 5371 -70 ct 5371 -57 5367 -44 5359 -32 ct 5351 -20 5340 -11 5325 -5 ct 
5310 2 5294 5 5275 5 ct 5244 5 5220 -1 5204 -14 ct 5188 -27 5178 -46 5173 -72 ct 
p ef
5385 -72 m  5425 -78 l  5427 -62 5433 -50 5444 -41 ct 5454 -33 5468 -28 5487 -28 ct 
5505 -28 5519 -32 5528 -40 ct 5537 -47 5541 -56 5541 -66 ct 5541 -75 5537 -83 5529 -88 ct 
5524 -91 5510 -96 5488 -101 ct 5459 -109 5438 -115 5427 -121 ct 5415 -126 5407 -134 5401 -144 ct 
5395 -153 5392 -164 5392 -176 ct 5392 -186 5394 -196 5399 -205 ct 5404 -214 5411 -222 5419 -228 ct 
5425 -232 5434 -236 5445 -239 ct 5455 -243 5467 -244 5479 -244 ct 5498 -244 5515 -242 5529 -236 ct 
5543 -231 5553 -223 5560 -214 ct 5567 -205 5571 -193 5574 -177 ct 5534 -172 l 
5533 -184 5527 -194 5519 -201 ct 5510 -208 5498 -211 5482 -211 ct 5464 -211 5451 -208 5443 -202 ct 
5435 -196 5431 -188 5431 -180 ct 5431 -175 5432 -170 5436 -166 ct 5439 -162 5444 -158 5451 -155 ct 
5455 -154 5467 -150 5487 -145 ct 5515 -137 5535 -131 5547 -126 ct 5558 -121 5567 -114 5573 -105 ct 
5580 -96 5583 -84 5583 -70 ct 5583 -57 5579 -44 5571 -32 ct 5563 -20 5552 -11 5537 -5 ct 
5522 2 5506 5 5487 5 ct 5456 5 5432 -1 5416 -14 ct 5400 -27 5390 -46 5385 -72 ct 
p ef
5745 -283 m  5745 -330 l  5786 -330 l  5786 -283 l  5745 -283 l  p
5745 0 m  5745 -239 l  5786 -239 l  5786 0 l  5745 0 l  p ef
5835 -72 m  5875 -78 l  5877 -62 5883 -50 5894 -41 ct 5904 -33 5918 -28 5937 -28 ct 
5955 -28 5969 -32 5978 -40 ct 5987 -47 5991 -56 5991 -66 ct 5991 -75 5987 -83 5979 -88 ct 
5974 -91 5960 -96 5938 -101 ct 5909 -109 5888 -115 5877 -121 ct 5865 -126 5857 -134 5851 -144 ct 
5845 -153 5842 -164 5842 -176 ct 5842 -186 5844 -196 5849 -205 ct 5854 -214 5861 -222 5869 -228 ct 
5875 -232 5884 -236 5895 -239 ct 5905 -243 5917 -244 5929 -244 ct 5948 -244 5965 -242 5979 -236 ct 
5993 -231 6003 -223 6010 -214 ct 6017 -205 6021 -193 6024 -177 ct 5984 -172 l 
5983 -184 5977 -194 5969 -201 ct 5960 -208 5948 -211 5932 -211 ct 5914 -211 5901 -208 5893 -202 ct 
5885 -196 5881 -188 5881 -180 ct 5881 -175 5882 -170 5886 -166 ct 5889 -162 5894 -158 5901 -155 ct 
5905 -154 5917 -150 5937 -145 ct 5965 -137 5985 -131 5997 -126 ct 6008 -121 6017 -114 6023 -105 ct 
6030 -96 6033 -84 6033 -70 ct 6033 -57 6029 -44 6021 -32 ct 6013 -20 6002 -11 5987 -5 ct 
5972 2 5956 5 5937 5 ct 5906 5 5882 -1 5866 -14 ct 5850 -27 5840 -46 5835 -72 ct 
p ef
6232 -1 m  6195 -1 l  6195 -330 l  6235 -330 l  6235 -212 l  6252 -234 6274 -244 6301 -244 ct 
6315 -244 6329 -241 6342 -235 ct 6355 -229 6366 -221 6374 -210 ct 6383 -200 6390 -187 6394 -172 ct 
6399 -157 6401 -140 6401 -123 ct 6401 -82 6391 -51 6371 -28 ct 6351 -6 6327 5 6299 5 ct 
6270 5 6248 -7 6232 -30 ct 6232 -1 l  p
6232 -121 m  6232 -93 6236 -72 6244 -59 ct 6256 -39 6274 -28 6295 -28 ct 6313 -28 6328 -36 6341 -51 ct 
6354 -67 6360 -89 6360 -120 ct 6360 -151 6354 -174 6342 -189 ct 6329 -204 6314 -211 6297 -211 ct 
6279 -211 6264 -203 6251 -188 ct 6238 -173 6232 -150 6232 -121 ct p ef
6596 -77 m  6638 -72 l  6631 -48 6619 -29 6601 -15 ct 6584 -2 6561 5 6533 5 ct 
6498 5 6471 -6 6450 -27 ct 6430 -49 6420 -79 6420 -118 ct 6420 -158 6430 -189 6451 -211 ct 
6471 -233 6498 -244 6531 -244 ct 6563 -244 6589 -233 6609 -212 ct 6629 -190 6639 -159 6639 -120 ct 
6639 -117 6639 -114 6639 -109 ct 6462 -109 l  6463 -83 6470 -63 6484 -49 ct 
6497 -35 6514 -28 6533 -28 ct 6548 -28 6561 -32 6571 -40 ct 6582 -48 6590 -60 6596 -77 ct 
p
6464 -142 m  6597 -142 l  6595 -162 6590 -177 6581 -188 ct 6569 -203 6552 -211 6531 -211 ct 
6513 -211 6497 -205 6485 -192 ct 6472 -180 6465 -163 6464 -142 ct p ef
6759 -36 m  6765 -1 l  6754 2 6744 3 6735 3 ct 6720 3 6709 1 6701 -4 ct 6693 -9 6687 -15 6684 -22 ct 
6680 -30 6679 -46 6679 -70 ct 6679 -208 l  6649 -208 l  6649 -239 l  6679 -239 l 
6679 -298 l  6719 -322 l  6719 -239 l  6759 -239 l  6759 -208 l  6719 -208 l 
6719 -68 l  6719 -56 6719 -49 6721 -46 ct 6722 -42 6725 -40 6728 -38 ct 6731 -36 6736 -35 6742 -35 ct 
6746 -35 6752 -35 6759 -36 ct p ef
6865 -36 m  6871 -1 l  6860 2 6850 3 6841 3 ct 6826 3 6815 1 6807 -4 ct 6799 -9 6793 -15 6790 -22 ct 
6786 -30 6785 -46 6785 -70 ct 6785 -208 l  6755 -208 l  6755 -239 l  6785 -239 l 
6785 -298 l  6825 -322 l  6825 -239 l  6865 -239 l  6865 -208 l  6825 -208 l 
6825 -68 l  6825 -56 6825 -49 6827 -46 ct 6828 -42 6831 -40 6834 -38 ct 6837 -36 6842 -35 6848 -35 ct 
6852 -35 6858 -35 6865 -36 ct p ef
7046 -77 m  7088 -72 l  7081 -48 7069 -29 7051 -15 ct 7034 -2 7011 5 6983 5 ct 
6948 5 6921 -6 6900 -27 ct 6880 -49 6870 -79 6870 -118 ct 6870 -158 6880 -189 6901 -211 ct 
6921 -233 6948 -244 6981 -244 ct 7013 -244 7039 -233 7059 -212 ct 7079 -190 7089 -159 7089 -120 ct 
7089 -117 7089 -114 7089 -109 ct 6912 -109 l  6913 -83 6920 -63 6934 -49 ct 
6947 -35 6964 -28 6983 -28 ct 6998 -28 7011 -32 7021 -40 ct 7032 -48 7040 -60 7046 -77 ct 
p
6914 -142 m  7047 -142 l  7045 -162 7040 -177 7031 -188 ct 7019 -203 7002 -211 6981 -211 ct 
6963 -211 6947 -205 6935 -192 ct 6922 -180 6915 -163 6914 -142 ct p ef
7121 0 m  7121 -239 l  7157 -239 l  7157 -202 l  7166 -219 7175 -231 7183 -236 ct 
7191 -241 7199 -244 7209 -244 ct 7222 -244 7236 -240 7250 -231 ct 7236 -193 l 
7226 -199 7217 -202 7207 -202 ct 7198 -202 7190 -200 7183 -194 ct 7176 -189 7171 -182 7168 -172 ct 
7163 -158 7161 -142 7161 -125 ct 7161 0 l  7121 0 l  p ef
7307 97 m  7278 97 l  7322 25 7345 -47 7345 -119 ct 7345 -147 7342 -175 7335 -203 ct 
7330 -225 7323 -247 7314 -267 ct 7308 -281 7296 -303 7278 -335 ct 7307 -335 l 
7335 -297 7356 -260 7369 -222 ct 7381 -189 7386 -155 7386 -119 ct 7386 -79 7379 -40 7363 -2 ct 
7348 36 7329 69 7307 97 ct p ef
pom
0.003 0.273 0.527 c 14145 17010 m  14945 17010 l  ps
1.000 0.261 0.058 c 14145 17508 m  14945 17508 l  ps
0.800 0.003 0.800 c 14145 18005 m  14945 18005 l  ps
pum
15045 17130 t
0.003 0.003 0.003 c -5 70 m  -5 48 l  200 48 l  200 70 l  -5 70 l  p ef
328 -67 m  358 -63 l  355 -42 346 -26 333 -14 ct 319 -2 302 4 282 4 ct 257 4 237 -4 222 -21 ct 
206 -37 199 -60 199 -91 ct 199 -111 202 -128 209 -143 ct 215 -157 225 -169 239 -176 ct 
252 -183 266 -187 282 -187 ct 302 -187 318 -182 331 -172 ct 344 -162 352 -148 355 -129 ct 
325 -125 l  322 -137 317 -146 310 -152 ct 303 -158 294 -162 283 -162 ct 268 -162 255 -156 245 -145 ct 
236 -134 231 -116 231 -92 ct 231 -67 235 -49 245 -38 ct 254 -27 267 -21 282 -21 ct 
294 -21 304 -25 312 -33 ct 320 -40 326 -52 328 -67 ct p ef
393 70 m  393 -183 l  422 -183 l  422 -159 l  428 -168 436 -175 444 -180 ct 
453 -185 463 -187 475 -187 ct 490 -187 504 -183 516 -175 ct 528 -167 537 -156 543 -141 ct 
549 -126 552 -110 552 -93 ct 552 -74 549 -57 542 -42 ct 535 -27 526 -16 513 -8 ct 
500 0 487 4 472 4 ct 462 4 453 2 445 -3 ct 436 -7 430 -12 424 -19 ct 424 70 l  393 70 l 
p
421 -90 m  421 -67 426 -50 436 -38 ct 445 -27 457 -21 470 -21 ct 484 -21 496 -27 506 -39 ct 
516 -51 520 -69 520 -93 ct 520 -116 516 -134 506 -145 ct 496 -157 485 -163 472 -163 ct 
458 -163 447 -157 437 -144 ct 426 -132 421 -114 421 -90 ct p ef
579 0 m  579 -252 l  610 -252 l  610 0 l  579 0 l  p ef
784 -59 m  816 -55 l  811 -36 801 -22 788 -11 ct 774 -1 756 4 735 4 ct 708 4 687 -4 671 -21 ct 
656 -37 648 -60 648 -90 ct 648 -121 656 -145 672 -162 ct 688 -179 708 -187 733 -187 ct 
758 -187 778 -179 793 -162 ct 809 -145 817 -122 817 -92 ct 817 -90 817 -87 817 -84 ct 
680 -84 l  681 -63 687 -48 697 -37 ct 707 -27 720 -21 735 -21 ct 747 -21 756 -24 764 -30 ct 
772 -36 779 -46 784 -59 ct p
682 -109 m  784 -109 l  783 -124 779 -136 772 -144 ct 762 -156 750 -162 734 -162 ct 
720 -162 708 -157 698 -147 ct 688 -138 683 -125 682 -109 ct p ef
823 0 m  889 -95 l  828 -183 l  866 -183 l  894 -140 l  900 -132 904 -125 907 -120 ct 
912 -127 917 -134 921 -140 ct 952 -183 l  989 -183 l  926 -97 l  994 0 l 
956 0 l  918 -57 l  908 -72 l  860 0 l  823 0 l  p ef
pom
pum
15045 17627 t
-5 70 m  -5 48 l  200 48 l  200 70 l  -5 70 l  p ef
237 0 m  208 0 l  208 -252 l  239 -252 l  239 -162 l  252 -179 269 -187 289 -187 ct 
301 -187 311 -185 321 -180 ct 331 -176 340 -169 346 -161 ct 353 -153 358 -143 361 -131 ct 
365 -120 367 -107 367 -94 ct 367 -63 359 -39 344 -22 ct 328 -5 309 4 288 4 ct 266 4 249 -5 237 -23 ct 
237 0 l  p
237 -93 m  237 -71 240 -55 246 -45 ct 255 -29 268 -21 285 -21 ct 299 -21 310 -27 320 -39 ct 
330 -51 335 -68 335 -92 ct 335 -116 330 -133 321 -144 ct 311 -156 300 -162 287 -162 ct 
273 -162 261 -156 251 -144 ct 241 -132 237 -115 237 -93 ct p ef
393 0 m  393 -183 l  421 -183 l  421 -155 l  428 -168 435 -177 441 -181 ct 
447 -185 453 -187 460 -187 ct 471 -187 482 -184 492 -177 ct 482 -148 l  474 -153 467 -155 459 -155 ct 
452 -155 446 -153 441 -149 ct 435 -145 431 -139 429 -132 ct 426 -121 424 -109 424 -96 ct 
424 0 l  393 0 l  p ef
499 0 m  499 -252 l  530 -252 l  530 -108 l  604 -183 l  644 -183 l  574 -115 l 
651 0 l  613 0 l  552 -94 l  530 -72 l  530 0 l  499 0 l  p ef
679 15 m  709 19 l  710 29 714 35 719 40 ct 727 45 737 48 751 48 ct 765 48 776 45 784 40 ct 
792 34 797 26 800 16 ct 802 9 802 -4 802 -24 ct 789 -8 772 0 751 0 ct 726 0 707 -9 693 -28 ct 
679 -46 672 -67 672 -93 ct 672 -110 676 -126 682 -141 ct 688 -156 697 -167 709 -175 ct 
721 -183 735 -187 752 -187 ct 773 -187 791 -178 805 -161 ct 805 -183 l  834 -183 l 
834 -25 l  834 4 831 24 825 36 ct 819 47 810 57 797 64 ct 785 71 769 74 751 74 ct 
729 74 712 69 698 59 ct 685 49 678 35 679 15 ct p
704 -95 m  704 -71 709 -53 719 -42 ct 728 -32 740 -26 754 -26 ct 769 -26 781 -31 790 -42 ct 
800 -53 805 -70 805 -94 ct 805 -116 800 -133 790 -144 ct 780 -156 768 -161 754 -161 ct 
740 -161 728 -156 719 -145 ct 709 -133 704 -117 704 -95 ct p ef
990 -23 m  978 -13 967 -6 957 -2 ct 946 2 935 4 922 4 ct 902 4 887 -1 876 -11 ct 
865 -21 860 -33 860 -48 ct 860 -57 862 -65 866 -73 ct 870 -80 875 -86 882 -91 ct 
889 -95 896 -98 904 -101 ct 910 -102 920 -104 932 -105 ct 957 -108 975 -112 987 -116 ct 
987 -120 987 -123 987 -124 ct 987 -137 984 -146 979 -151 ct 971 -158 959 -161 943 -161 ct 
929 -161 918 -159 911 -154 ct 904 -149 899 -140 895 -127 ct 865 -131 l  868 -144 872 -154 879 -162 ct 
885 -170 894 -176 906 -181 ct 918 -185 932 -187 948 -187 ct 963 -187 976 -185 986 -181 ct 
996 -178 1003 -173 1007 -168 ct 1012 -162 1015 -155 1017 -147 ct 1018 -141 1019 -132 1019 -118 ct 
1019 -77 l  1019 -48 1019 -30 1020 -22 ct 1022 -14 1024 -7 1028 0 ct 996 0 l 
993 -7 991 -14 990 -23 ct p
987 -92 m  976 -87 959 -83 936 -80 ct 924 -78 915 -76 909 -74 ct 904 -72 900 -68 897 -64 ct 
894 -59 893 -55 893 -49 ct 893 -41 896 -34 902 -29 ct 909 -23 918 -20 930 -20 ct 
942 -20 952 -23 962 -28 ct 971 -33 978 -40 982 -50 ct 985 -57 987 -67 987 -80 ct 
987 -92 l  p ef
pom
pum
15045 18125 t
-5 70 m  -5 48 l  200 48 l  200 70 l  -5 70 l  p ef
203 15 m  233 19 l  234 29 238 35 243 40 ct 251 45 261 48 275 48 ct 289 48 300 45 308 40 ct 
316 34 321 26 324 16 ct 326 9 326 -4 326 -24 ct 313 -8 296 0 275 0 ct 250 0 231 -9 217 -28 ct 
203 -46 196 -67 196 -93 ct 196 -110 200 -126 206 -141 ct 212 -156 221 -167 233 -175 ct 
245 -183 259 -187 276 -187 ct 297 -187 315 -178 329 -161 ct 329 -183 l  358 -183 l 
358 -25 l  358 4 355 24 349 36 ct 343 47 334 57 321 64 ct 309 71 293 74 275 74 ct 
253 74 236 69 222 59 ct 209 49 202 35 203 15 ct p
228 -95 m  228 -71 233 -53 243 -42 ct 252 -32 264 -26 278 -26 ct 293 -26 305 -31 314 -42 ct 
324 -53 329 -70 329 -94 ct 329 -116 324 -133 314 -144 ct 304 -156 292 -161 278 -161 ct 
264 -161 252 -156 243 -145 ct 233 -133 228 -117 228 -95 ct p ef
393 0 m  393 -183 l  421 -183 l  421 -155 l  428 -168 435 -177 441 -181 ct 
447 -185 453 -187 460 -187 ct 471 -187 482 -184 492 -177 ct 482 -148 l  474 -153 467 -155 459 -155 ct 
452 -155 446 -153 441 -149 ct 435 -145 431 -139 429 -132 ct 426 -121 424 -109 424 -96 ct 
424 0 l  393 0 l  p ef
619 -23 m  607 -13 596 -6 586 -2 ct 575 2 564 4 551 4 ct 531 4 516 -1 505 -11 ct 
494 -21 489 -33 489 -48 ct 489 -57 491 -65 495 -73 ct 499 -80 504 -86 511 -91 ct 
518 -95 525 -98 533 -101 ct 539 -102 549 -104 561 -105 ct 586 -108 604 -112 616 -116 ct 
616 -120 616 -123 616 -124 ct 616 -137 613 -146 608 -151 ct 600 -158 588 -161 572 -161 ct 
558 -161 547 -159 540 -154 ct 533 -149 528 -140 524 -127 ct 494 -131 l  497 -144 501 -154 508 -162 ct 
514 -170 523 -176 535 -181 ct 547 -185 561 -187 577 -187 ct 592 -187 605 -185 615 -181 ct 
625 -178 632 -173 636 -168 ct 641 -162 644 -155 646 -147 ct 647 -141 648 -132 648 -118 ct 
648 -77 l  648 -48 648 -30 649 -22 ct 651 -14 653 -7 657 0 ct 625 0 l  622 -7 620 -14 619 -23 ct 
p
616 -92 m  605 -87 588 -83 565 -80 ct 553 -78 544 -76 538 -74 ct 533 -72 529 -68 526 -64 ct 
523 -59 522 -55 522 -49 ct 522 -41 525 -34 531 -29 ct 538 -23 547 -20 559 -20 ct 
571 -20 581 -23 591 -28 ct 600 -33 607 -40 611 -50 ct 614 -57 616 -67 616 -80 ct 
616 -92 l  p ef
672 -55 m  703 -60 l  704 -47 709 -38 717 -31 ct 725 -25 736 -21 750 -21 ct 
764 -21 775 -24 782 -30 ct 789 -36 792 -43 792 -51 ct 792 -58 789 -63 783 -67 ct 
779 -70 768 -73 751 -78 ct 728 -83 713 -88 704 -92 ct 695 -97 688 -102 684 -110 ct 
679 -117 677 -125 677 -134 ct 677 -143 679 -150 683 -157 ct 686 -164 691 -170 698 -174 ct 
703 -178 709 -181 718 -183 ct 726 -186 735 -187 744 -187 ct 759 -187 771 -185 782 -181 ct 
793 -177 801 -171 806 -164 ct 811 -157 815 -148 817 -136 ct 787 -132 l  785 -141 781 -148 775 -154 ct 
768 -159 759 -162 747 -162 ct 732 -162 722 -159 716 -154 ct 710 -150 707 -144 707 -138 ct 
707 -134 708 -130 711 -127 ct 713 -124 717 -121 723 -119 ct 726 -118 735 -115 750 -111 ct 
772 -105 787 -100 796 -97 ct 805 -93 812 -87 816 -80 ct 821 -73 824 -64 824 -54 ct 
824 -43 821 -34 815 -25 ct 809 -16 800 -8 789 -3 ct 777 2 764 4 750 4 ct 726 4 708 -1 696 -11 ct 
683 -21 675 -35 672 -55 ct p ef
870 70 m  870 -183 l  899 -183 l  899 -159 l  905 -168 913 -175 921 -180 ct 
930 -185 940 -187 952 -187 ct 967 -187 981 -183 993 -175 ct 1005 -167 1014 -156 1020 -141 ct 
1026 -126 1029 -110 1029 -93 ct 1029 -74 1026 -57 1019 -42 ct 1012 -27 1003 -16 990 -8 ct 
977 0 964 4 949 4 ct 939 4 930 2 922 -3 ct 913 -7 907 -12 901 -19 ct 901 70 l  870 70 l 
p
898 -90 m  898 -67 903 -50 913 -38 ct 922 -27 934 -21 947 -21 ct 961 -21 973 -27 983 -39 ct 
993 -51 997 -69 997 -93 ct 997 -116 993 -134 983 -145 ct 973 -157 962 -163 949 -163 ct 
935 -163 924 -157 914 -144 ct 903 -132 898 -114 898 -90 ct p ef
pom
pum
6954 21414 t
16 5 m  30 -62 l  3 -62 l  3 -85 l  34 -85 l  46 -142 l  3 -142 l  3 -165 l 
50 -165 l  64 -232 l  87 -232 l  74 -165 l  123 -165 l  136 -232 l  159 -232 l 
146 -165 l  173 -165 l  173 -142 l  141 -142 l  130 -85 l  173 -85 l  173 -62 l 
125 -62 l  111 5 l  88 5 l  102 -62 l  53 -62 l  39 5 l  16 5 l  p
57 -85 m  106 -85 l  118 -142 l  69 -142 l  57 -85 l  p ef
276 -83 m  276 -113 284 -136 301 -151 ct 315 -163 333 -169 353 -169 ct 376 -169 394 -162 408 -147 ct 
423 -132 430 -111 430 -85 ct 430 -64 427 -47 421 -35 ct 414 -22 405 -13 393 -6 ct 
381 1 367 4 353 4 ct 330 4 311 -3 297 -18 ct 283 -33 276 -55 276 -83 ct p
304 -83 m  304 -61 309 -45 318 -35 ct 327 -24 339 -19 353 -19 ct 367 -19 378 -24 388 -35 ct 
397 -46 401 -62 401 -83 ct 401 -104 397 -119 387 -130 ct 378 -141 367 -146 353 -146 ct 
339 -146 327 -141 318 -130 ct 309 -120 304 -104 304 -83 ct p ef
471 0 m  471 -165 l  496 -165 l  496 -140 l  502 -152 508 -160 514 -163 ct 
519 -167 525 -169 532 -169 ct 541 -169 551 -166 560 -160 ct 551 -134 l  544 -138 537 -140 530 -140 ct 
524 -140 519 -138 514 -135 ct 509 -131 505 -126 503 -119 ct 500 -109 499 -98 499 -87 ct 
499 0 l  471 0 l  p ef
684 0 m  684 -21 l  674 -4 658 4 638 4 ct 625 4 613 0 602 -7 ct 591 -14 582 -24 576 -37 ct 
570 -50 567 -65 567 -82 ct 567 -99 570 -114 575 -127 ct 581 -141 589 -151 600 -158 ct 
611 -165 623 -169 637 -169 ct 647 -169 655 -167 663 -163 ct 671 -158 677 -153 682 -146 ct 
682 -228 l  710 -228 l  710 0 l  684 0 l  p
596 -82 m  596 -61 600 -45 609 -35 ct 618 -24 628 -19 640 -19 ct 653 -19 663 -24 672 -34 ct 
680 -44 684 -59 684 -80 ct 684 -103 680 -119 671 -130 ct 663 -141 652 -146 639 -146 ct 
627 -146 616 -141 608 -131 ct 600 -120 596 -104 596 -82 ct p ef
875 -53 m  904 -49 l  899 -32 891 -19 878 -10 ct 866 -1 850 4 831 4 ct 807 4 788 -3 774 -18 ct 
760 -33 753 -54 753 -81 ct 753 -109 760 -131 774 -146 ct 788 -161 807 -169 830 -169 ct 
852 -169 870 -161 884 -146 ct 898 -131 905 -110 905 -83 ct 905 -81 905 -78 905 -75 ct 
782 -75 l  783 -57 788 -43 797 -33 ct 806 -24 818 -19 831 -19 ct 842 -19 850 -22 858 -27 ct 
865 -32 871 -41 875 -53 ct p
783 -98 m  875 -98 l  874 -112 870 -123 865 -130 ct 856 -141 844 -146 830 -146 ct 
817 -146 806 -142 798 -133 ct 789 -124 784 -113 783 -98 ct p ef
947 0 m  947 -165 l  972 -165 l  972 -140 l  978 -152 984 -160 990 -163 ct 
995 -167 1001 -169 1008 -169 ct 1017 -169 1027 -166 1036 -160 ct 1027 -134 l 
1020 -138 1013 -140 1006 -140 ct 1000 -140 995 -138 990 -135 ct 985 -131 981 -126 979 -119 ct 
976 -109 975 -98 975 -87 ct 975 0 l  947 0 l  p ef
1042 -49 m  1069 -54 l  1071 -42 1075 -34 1082 -28 ct 1089 -22 1099 -19 1112 -19 ct 
1125 -19 1134 -22 1141 -27 ct 1147 -32 1150 -38 1150 -45 ct 1150 -52 1147 -57 1142 -60 ct 
1138 -63 1128 -66 1113 -70 ct 1093 -75 1079 -80 1071 -83 ct 1063 -87 1057 -92 1053 -99 ct 
1048 -106 1046 -113 1046 -121 ct 1046 -129 1048 -136 1051 -142 ct 1055 -148 1059 -153 1065 -157 ct 
1070 -161 1076 -163 1083 -166 ct 1091 -168 1099 -169 1107 -169 ct 1120 -169 1131 -167 1141 -163 ct 
1151 -160 1158 -155 1163 -148 ct 1168 -142 1171 -133 1173 -123 ct 1145 -119 l 
1144 -127 1140 -134 1134 -139 ct 1128 -144 1120 -146 1109 -146 ct 1096 -146 1087 -144 1082 -140 ct 
1076 -135 1073 -130 1073 -125 ct 1073 -121 1075 -118 1077 -115 ct 1079 -112 1083 -109 1088 -107 ct 
1090 -106 1099 -104 1112 -100 ct 1132 -95 1146 -91 1154 -87 ct 1161 -84 1168 -79 1172 -72 ct 
1177 -66 1179 -58 1179 -48 ct 1179 -39 1176 -30 1171 -22 ct 1165 -14 1157 -7 1147 -3 ct 
1137 2 1125 4 1112 4 ct 1091 4 1075 0 1063 -9 ct 1052 -18 1045 -32 1042 -49 ct 
p ef
pom
pum
1243 18843 t
90.0 r 20 0 m  20 -228 l  48 -228 l  48 0 l  20 0 l  p ef
90 -83 m  90 -113 98 -136 115 -151 ct 129 -163 147 -169 167 -169 ct 190 -169 208 -162 222 -147 ct 
237 -132 244 -111 244 -85 ct 244 -64 241 -47 235 -35 ct 228 -22 219 -13 207 -6 ct 
195 1 181 4 167 4 ct 144 4 125 -3 111 -18 ct 97 -33 90 -55 90 -83 ct p
118 -83 m  118 -61 123 -45 132 -35 ct 141 -24 153 -19 167 -19 ct 181 -19 192 -24 202 -35 ct 
211 -46 215 -62 215 -83 ct 215 -104 211 -119 201 -130 ct 192 -141 181 -146 167 -146 ct 
153 -146 141 -141 132 -130 ct 123 -120 118 -104 118 -83 ct p ef
281 14 m  308 18 l  309 26 312 32 317 36 ct 324 41 334 44 346 44 ct 359 44 369 41 376 36 ct 
383 31 388 24 390 14 ct 392 9 392 -3 392 -22 ct 380 -7 365 0 347 0 ct 324 0 306 -8 294 -25 ct 
281 -41 275 -61 275 -84 ct 275 -99 278 -114 284 -127 ct 289 -141 298 -151 309 -158 ct 
319 -165 332 -169 347 -169 ct 366 -169 382 -161 395 -145 ct 395 -165 l  421 -165 l 
421 -22 l  421 3 418 21 413 32 ct 408 43 399 51 388 58 ct 377 64 363 67 346 67 ct 
326 67 310 63 298 54 ct 286 45 280 31 281 14 ct p
304 -86 m  304 -64 308 -48 317 -38 ct 325 -28 336 -23 349 -23 ct 362 -23 373 -28 381 -38 ct 
390 -48 395 -63 395 -85 ct 395 -105 390 -120 381 -130 ct 372 -141 361 -146 349 -146 ct 
336 -146 326 -141 317 -131 ct 308 -121 304 -106 304 -86 ct p ef
524 67 m  509 47 496 25 485 -1 ct 475 -28 469 -55 469 -83 ct 469 -107 473 -131 481 -154 ct 
491 -180 505 -206 524 -232 ct 544 -232 l  532 -211 524 -195 520 -186 ct 513 -172 508 -157 505 -141 ct 
500 -122 498 -102 498 -83 ct 498 -33 513 17 544 67 ct 524 67 l  p ef
638 -25 m  642 0 l  634 1 627 2 621 2 ct 611 2 603 0 597 -3 ct 592 -6 588 -10 586 -16 ct 
583 -21 582 -32 582 -49 ct 582 -144 l  562 -144 l  562 -166 l  582 -166 l 
582 -207 l  610 -224 l  610 -166 l  638 -166 l  638 -144 l  610 -144 l 
610 -47 l  610 -39 610 -34 611 -32 ct 612 -29 614 -28 616 -26 ct 618 -25 622 -24 626 -24 ct 
629 -24 633 -25 638 -25 ct p ef
656 -196 m  656 -228 l  684 -228 l  684 -196 l  656 -196 l  p
656 0 m  656 -165 l  684 -165 l  684 0 l  656 0 l  p ef
735 0 m  735 -165 l  760 -165 l  760 -142 l  765 -150 772 -157 781 -162 ct 
789 -167 799 -169 810 -169 ct 822 -169 832 -166 840 -161 ct 848 -156 853 -149 857 -140 ct 
870 -159 887 -169 907 -169 ct 924 -169 936 -164 945 -155 ct 954 -146 958 -132 958 -113 ct 
958 0 l  931 0 l  931 -104 l  931 -115 930 -123 928 -128 ct 926 -133 923 -137 918 -140 ct 
913 -143 908 -145 901 -145 ct 890 -145 880 -141 872 -133 ct 865 -125 861 -113 861 -96 ct 
861 0 l  833 0 l  833 -107 l  833 -120 831 -129 826 -135 ct 822 -142 814 -145 804 -145 ct 
796 -145 789 -143 782 -139 ct 775 -134 770 -128 767 -120 ct 764 -112 763 -101 763 -86 ct 
763 0 l  735 0 l  p ef
1139 -53 m  1168 -49 l  1163 -32 1155 -19 1142 -10 ct 1130 -1 1114 4 1095 4 ct 
1071 4 1052 -3 1038 -18 ct 1024 -33 1017 -54 1017 -81 ct 1017 -109 1024 -131 1038 -146 ct 
1052 -161 1071 -169 1094 -169 ct 1116 -169 1134 -161 1148 -146 ct 1162 -131 1169 -110 1169 -83 ct 
1169 -81 1169 -78 1169 -75 ct 1046 -75 l  1047 -57 1052 -43 1061 -33 ct 1070 -24 1082 -19 1095 -19 ct 
1106 -19 1114 -22 1122 -27 ct 1129 -32 1135 -41 1139 -53 ct p
1047 -98 m  1139 -98 l  1138 -112 1134 -123 1129 -130 ct 1120 -141 1108 -146 1094 -146 ct 
1081 -146 1070 -142 1062 -133 ct 1053 -124 1048 -113 1047 -98 ct p ef
1291 -196 m  1291 -228 l  1319 -228 l  1319 -196 l  1291 -196 l  p
1291 0 m  1291 -165 l  1319 -165 l  1319 0 l  1291 0 l  p ef
1370 0 m  1370 -165 l  1395 -165 l  1395 -142 l  1407 -160 1425 -169 1448 -169 ct 
1458 -169 1467 -167 1475 -164 ct 1483 -160 1490 -155 1494 -150 ct 1498 -144 1501 -137 1502 -129 ct 
1503 -124 1504 -115 1504 -102 ct 1504 0 l  1476 0 l  1476 -101 l  1476 -112 1475 -120 1473 -126 ct 
1471 -132 1467 -136 1461 -140 ct 1456 -143 1449 -145 1442 -145 ct 1430 -145 1420 -141 1411 -133 ct 
1402 -126 1398 -111 1398 -90 ct 1398 0 l  1370 0 l  p ef
1635 0 m  1635 -165 l  1660 -165 l  1660 -142 l  1665 -150 1672 -157 1681 -162 ct 
1689 -167 1699 -169 1710 -169 ct 1722 -169 1732 -166 1740 -161 ct 1748 -156 1753 -149 1757 -140 ct 
1770 -159 1787 -169 1807 -169 ct 1824 -169 1836 -164 1845 -155 ct 1854 -146 1858 -132 1858 -113 ct 
1858 0 l  1831 0 l  1831 -104 l  1831 -115 1830 -123 1828 -128 ct 1826 -133 1823 -137 1818 -140 ct 
1813 -143 1808 -145 1801 -145 ct 1790 -145 1780 -141 1772 -133 ct 1765 -125 1761 -113 1761 -96 ct 
1761 0 l  1733 0 l  1733 -107 l  1733 -120 1731 -129 1726 -135 ct 1722 -142 1714 -145 1704 -145 ct 
1696 -145 1689 -143 1682 -139 ct 1675 -134 1670 -128 1667 -120 ct 1664 -112 1663 -101 1663 -86 ct 
1663 0 l  1635 0 l  p ef
1915 -49 m  1942 -54 l  1944 -42 1948 -34 1955 -28 ct 1962 -22 1972 -19 1985 -19 ct 
1998 -19 2007 -22 2014 -27 ct 2020 -32 2023 -38 2023 -45 ct 2023 -52 2020 -57 2015 -60 ct 
2011 -63 2001 -66 1986 -70 ct 1966 -75 1952 -80 1944 -83 ct 1936 -87 1930 -92 1926 -99 ct 
1921 -106 1919 -113 1919 -121 ct 1919 -129 1921 -136 1924 -142 ct 1928 -148 1932 -153 1938 -157 ct 
1943 -161 1949 -163 1956 -166 ct 1964 -168 1972 -169 1980 -169 ct 1993 -169 2004 -167 2014 -163 ct 
2024 -160 2031 -155 2036 -148 ct 2041 -142 2044 -133 2046 -123 ct 2018 -119 l 
2017 -127 2013 -134 2007 -139 ct 2001 -144 1993 -146 1982 -146 ct 1969 -146 1960 -144 1955 -140 ct 
1949 -135 1946 -130 1946 -125 ct 1946 -121 1948 -118 1950 -115 ct 1952 -112 1956 -109 1961 -107 ct 
1963 -106 1972 -104 1985 -100 ct 2005 -95 2019 -91 2027 -87 ct 2034 -84 2041 -79 2045 -72 ct 
2050 -66 2052 -58 2052 -48 ct 2052 -39 2049 -30 2044 -22 ct 2038 -14 2030 -7 2020 -3 ct 
2010 2 1998 4 1985 4 ct 1964 4 1948 0 1936 -9 ct 1925 -18 1918 -32 1915 -49 ct 
p ef
2129 67 m  2109 67 l  2140 17 2156 -33 2156 -83 ct 2156 -102 2153 -121 2149 -141 ct 
2145 -156 2141 -171 2134 -185 ct 2130 -195 2122 -210 2109 -232 ct 2129 -232 l 
2149 -206 2163 -180 2172 -154 ct 2180 -131 2184 -107 2184 -83 ct 2184 -55 2179 -28 2168 -1 ct 
2158 25 2145 47 2129 67 ct p ef
pom
0 9000 t 
pom
count op_count sub {pop} repeat countdictstack dict_count sub {end} repeat b4_inc_state restore
%%PageTrailer
%%Trailer
%%EOF
