\beamer@endinputifotherversion {3.33pt}
\headcommand {\slideentry {0}{0}{1}{1/1}{}{0}}
\headcommand {\beamer@framepages {1}{1}}
\headcommand {\slideentry {0}{0}{2}{2/2}{}{0}}
\headcommand {\beamer@framepages {2}{2}}
\headcommand {\sectionentry {1}{Introduction}{3}{Introduction}{0}}
\headcommand {\beamer@sectionpages {1}{2}}
\headcommand {\beamer@subsectionpages {1}{2}}
\headcommand {\slideentry {1}{0}{3}{3/3}{}{0}}
\headcommand {\beamer@framepages {3}{3}}
\headcommand {\sectionentry {2}{Problem definition}{4}{Problem definition}{0}}
\headcommand {\beamer@sectionpages {3}{3}}
\headcommand {\beamer@subsectionpages {3}{3}}
\headcommand {\beamer@subsectionentry {0}{2}{1}{4}{Defining the problem}}\headcommand {\beamer@subsectionpages {4}{3}}
\headcommand {\slideentry {2}{1}{1}{4/4}{Defining the problem}{0}}
\headcommand {\beamer@framepages {4}{4}}
\headcommand {\beamer@subsectionentry {0}{2}{2}{5}{Proposal of solutions}}\headcommand {\beamer@subsectionpages {4}{4}}
\headcommand {\slideentry {2}{2}{1}{5/5}{Proposal of solutions}{0}}
\headcommand {\beamer@framepages {5}{5}}
\headcommand {\beamer@subsectionentry {0}{2}{3}{6}{Linear Programming}}\headcommand {\beamer@subsectionpages {5}{5}}
\headcommand {\slideentry {2}{3}{1}{6/6}{Linear Programming}{0}}
\headcommand {\beamer@framepages {6}{6}}
\headcommand {\beamer@subsectionentry {0}{2}{4}{7}{Metaheuristics}}\headcommand {\beamer@subsectionpages {6}{6}}
\headcommand {\slideentry {2}{4}{1}{7/7}{Metaheuristics}{0}}
\headcommand {\beamer@framepages {7}{7}}
\headcommand {\slideentry {2}{4}{2}{8/8}{Metaheuristics}{0}}
\headcommand {\beamer@framepages {8}{8}}
\headcommand {\sectionentry {3}{Results Analysis}{9}{Results Analysis}{0}}
\headcommand {\beamer@sectionpages {4}{8}}
\headcommand {\beamer@subsectionpages {7}{8}}
\headcommand {\slideentry {3}{0}{3}{9/9}{}{0}}
\headcommand {\beamer@framepages {9}{9}}
\headcommand {\slideentry {3}{0}{4}{10/10}{}{0}}
\headcommand {\beamer@framepages {10}{10}}
\headcommand {\slideentry {3}{0}{5}{11/11}{}{0}}
\headcommand {\beamer@framepages {11}{11}}
\headcommand {\sectionentry {4}{Conclusions}{12}{Conclusions}{0}}
\headcommand {\beamer@sectionpages {9}{11}}
\headcommand {\beamer@subsectionpages {9}{11}}
\headcommand {\slideentry {4}{0}{6}{12/12}{}{0}}
\headcommand {\beamer@framepages {12}{12}}
\headcommand {\slideentry {4}{0}{7}{13/13}{}{0}}
\headcommand {\beamer@framepages {13}{13}}
\headcommand {\sectionentry {5}{Bibliography}{14}{Bibliography}{0}}
\headcommand {\beamer@sectionpages {12}{13}}
\headcommand {\beamer@subsectionpages {12}{13}}
\headcommand {\slideentry {5}{0}{8}{14/14}{}{0}}
\headcommand {\beamer@framepages {14}{14}}
\headcommand {\beamer@partpages {1}{14}}
\headcommand {\beamer@subsectionpages {14}{14}}
\headcommand {\beamer@sectionpages {14}{14}}
\headcommand {\beamer@documentpages {14}}
\headcommand {\def \inserttotalframenumber {14}}
